Sat Feb  1 17:03:04 EST 2014;mode --min-vars -a --set-seed 7311
name;#vars (unmin); #leafs (unmin);#internal (unmin); proof size (unmin); #joins (unmin);#vars (min); #leafs (min); #internal (min); proof size (min); #joins (min);#learnts;leafs after allRm (overapproximation); internal after allRm (overapproximation); vars improvement (%); size improvement (%); leafs improvement (%); internal improvement (%); subsumptions; tautologies; suppressed replacements; replacements; random seed; time (s); initial mem usage (MB);
9symml_gr_2pin_w5.shuffled.cnf.proof;65;255;5500;5755;386;64;253;4389;4642;304;0;253;4411;1.54;19.34;0.78;20.20;0;1082;0;0;7311;0.38;158.55;
C210_FW_UT_8630.cnf.proof;12;41;82;123;21;12;41;64;105;16;0;41;64;0.00;14.63;0.00;21.95;0;18;0;0;7311;0.06;95.18;
apex7_gr_2pin_w4.shuffled.cnf.proof;13;48;301;349;73;13;48;243;291;61;0;48;243;0.00;16.62;0.00;19.27;0;58;0;0;7311;0.08;95.18;
barrel2.cnf.proof;32;77;168;245;54;32;77;164;241;50;0;77;164;0.00;1.63;0.00;2.38;0;4;0;0;7311;0.06;95.18;
bf1355-123.cnf.proof;10;159;500;659;144;10;159;433;592;130;0;159;433;0.00;10.17;0.00;13.40;0;67;0;0;7311;0.15;95.18;
bf1355-127.cnf.proof;19;147;445;592;117;19;147;368;515;106;0;147;373;0.00;13.01;0.00;17.30;0;71;0;0;7311;0.10;95.18;
bf1355-227.cnf.proof;14;81;126;207;35;14;81;105;186;19;0;81;105;0.00;10.14;0.00;16.67;0;21;0;0;7311;0.04;95.18;
bf1355-228.cnf.proof;10;83;134;217;42;10;83;110;193;27;0;83;110;0.00;11.06;0.00;17.91;0;24;0;0;7311;0.04;95.18;
bf1355-359.cnf.proof;19;147;427;574;135;19;147;380;527;121;0;147;380;0.00;8.19;0.00;11.01;0;47;0;0;7311;0.10;95.18;
bf1355-445.cnf.proof;17;155;386;541;129;17;155;334;489;117;0;155;334;0.00;9.61;0.00;13.47;0;52;0;0;7311;0.13;95.18;
bf1355-446.cnf.proof;8;153;359;512;115;8;153;338;491;103;0;153;338;0.00;4.10;0.00;5.85;0;21;0;0;7311;0.09;95.18;
bf1355-462.cnf.proof;16;157;307;464;88;16;157;258;415;71;0;157;258;0.00;10.56;0.00;15.96;0;49;0;0;7311;0.08;95.18;
bf1355-466.cnf.proof;16;149;287;436;89;16;149;263;412;77;0;149;263;0.00;5.50;0.00;8.36;0;24;0;0;7311;0.08;95.18;
bf1355-530.cnf.proof;11;83;137;220;45;11;83;108;191;26;0;83;108;0.00;13.18;0.00;21.17;0;29;0;0;7311;0.05;95.18;
bf1355-598.cnf.proof;18;153;300;453;85;18;153;254;407;68;0;153;254;0.00;10.15;0.00;15.33;0;46;0;0;7311;0.11;95.18;
bf1355-621.cnf.proof;7;79;139;218;47;7;79;123;202;39;0;79;123;0.00;7.34;0.00;11.51;0;16;0;0;7311;0.07;95.18;
bf1355-665.cnf.proof;16;117;197;314;56;16;117;166;283;46;0;117;166;0.00;9.87;0.00;15.74;0;31;0;0;7311;0.08;95.18;
bf1355-666.cnf.proof;11;115;230;345;65;11;115;181;296;44;0;115;181;0.00;14.20;0.00;21.30;0;49;0;0;7311;0.09;95.18;
bf1355-741.cnf.proof;11;83;144;227;50;11;83;113;196;29;0;83;113;0.00;13.66;0.00;21.53;0;31;0;0;7311;0.05;95.18;
bin_libsmbsharemodes_vc4083.cnf.proof;442;4019;38001;42020;2854;442;3913;18048;21961;2482;0;4012;18255;0.00;47.74;2.64;52.51;0;19746;0;0;7311;1.78;963.23;
c4_DD_s3_f1_e2_v1-bug-onevec-gate-0.dimacs.seq.filtered.cnf.proof;8;81;80;161;0;8;81;80;161;0;0;81;80;0.00;0.00;0.00;0.00;0;0;0;0;7311;0.04;126.86;
c6bidw_s.cnf.proof;122;6101;32187;38288;4035;122;6045;26396;32441;3836;0;6055;27018;0.00;15.27;0.92;17.99;0;4977;0;0;7311;1.44;216.54;
c6n_s.cnf.proof;49;517;1323;1840;329;49;517;1084;1601;309;0;517;1087;0.00;12.99;0.00;18.07;0;236;0;0;7311;0.23;116.30;
c6_DD_s3_f1_e1_v1-bug-fourvec-gate-0.dimacs.seq.filtered.cnf.proof;12;66;65;131;0;12;66;65;131;0;0;66;65;0.00;0.00;0.00;0.00;0;0;0;0;7311;0.04;105.74;
c6_DD_s3_f1_e1_v1-bug-gate-0.dimacs.seq.filtered.cnf.proof;12;66;65;131;0;12;66;65;131;0;0;66;65;0.00;0.00;0.00;0.00;0;0;0;0;7311;0.10;105.74;
c7b_s.cnf.proof;63;762;2190;2952;529;63;762;1979;2741;498;0;762;1979;0.00;7.15;0.00;9.63;0;211;0;0;7311;0.24;137.42;
c7n_s.cnf.proof;104;766;2053;2819;520;102;762;1859;2621;492;0;762;1860;1.92;7.02;0.52;9.45;0;193;0;0;7311;0.27;137.42;
c8idw_s.cnf.proof;192;7793;283095;290888;7718;182;7737;192368;200105;6488;0;7748;195811;5.21;31.21;0.72;32.05;0;59514;0;0;7311;5.99;2463.45;
c499_gr_2pin_w5.shuffled.cnf.proof;24;105;1566;1671;246;24;105;1342;1447;210;0;105;1345;0.00;13.41;0.00;14.30;0;211;0;0;7311;0.30;105.74;
c2670.cnf.proof;381;6429;101149;107578;7307;381;6421;74838;81259;6833;0;6421;75587;0.00;24.47;0.12;26.01;0;19019;0;0;7311;2.65;491.96;
c5315-s.cnf.proof;836;14402;478008;492410;19463;836;14384;354114;368498;18024;0;14384;356973;0.00;25.16;0.12;25.92;0;97206;0;0;7311;11.18;3708.22;
c7552-bug-gate-0.dimacs.seq.filtered.cnf.proof;38;288;287;575;0;38;288;287;575;0;0;288;287;0.00;0.00;0.00;0.00;0;0;0;0;7311;0.18;105.74;
dividers3.dimacs.filtered.cnf.proof;31;152;151;303;0;31;152;151;303;0;0;152;151;0.00;0.00;0.00;0.00;0;0;0;0;7311;0.10;105.74;
dividers7.dimacs.filtered.cnf.proof;59;719;718;1437;0;59;719;718;1437;0;0;719;718;0.00;0.00;0.00;0.00;0;0;0;0;7311;0.21;147.98;
dividers9.dimacs.filtered.cnf.proof;155;1426;1425;2851;0;155;1426;1425;2851;0;0;1426;1425;0.00;0.00;0.00;0.00;0;0;0;0;7311;0.53;232.48;
dividers11.dimacs.filtered.cnf.proof;57;616;615;1231;0;57;616;615;1231;0;0;616;615;0.00;0.00;0.00;0.00;0;0;0;0;7311;0.16;137.42;
divider-problem.dimacs_1.filtered.cnf.proof;136;2556;2555;5111;0;136;2556;2555;5111;0;0;2556;2555;0.00;0.00;0.00;0.00;0;0;0;0;7311;0.49;381.98;
divider-problem.dimacs_2.filtered.cnf.proof;322;6841;6840;13681;0;322;6841;6840;13681;0;0;6841;6840;0.00;0.00;0.00;0.00;0;0;0;0;7311;2.13;1054.34;
divider-problem.dimacs_5.filtered.cnf.proof;229;4741;4740;9481;0;229;4741;4740;9481;0;0;4741;4740;0.00;0.00;0.00;0.00;0;0;0;0;7311;1.11;596.28;
divider-problem.dimacs_7.filtered.cnf.proof;523;9302;9301;18603;0;523;9302;9301;18603;0;0;9302;9301;0.00;0.00;0.00;0.00;0;0;0;0;7311;4.67;738.60;
divider-problem.dimacs_9.filtered.cnf.proof;141;2685;2684;5369;0;141;2685;2684;5369;0;0;2685;2684;0.00;0.00;0.00;0.00;0;0;0;0;7311;0.93;422.59;
dlx2_aa.cnf.proof;245;1118;30364;31482;2072;245;1108;24503;25611;1723;0;1108;24562;0.00;18.65;0.89;19.30;0;5241;0;0;7311;0.80;316.84;
dlx2_ca.cnf.proof;576;4327;198668;202995;8710;575;4121;145601;149722;6826;0;4132;145836;0.17;26.24;4.76;26.71;0;44341;0;0;7311;3.88;3587.47;
dspam_dump_vc962.cnf.proof;14;1071;1521;2592;371;14;1069;1505;2574;363;0;1070;1506;0.00;0.69;0.19;1.05;0;15;0;0;7311;0.31;169.11;
edn_5371_10.cnf_0.46000000.unsat.cnf.proof;33;338;337;675;0;33;338;337;675;0;0;338;337;0.00;0.00;0.00;0.00;0;0;0;0;7311;0.12;345.01;
edn_5371_12.cnf_0.50000000.unsat.cnf.proof;55;587;586;1173;0;55;587;586;1173;0;0;587;586;0.00;0.00;0.00;0.00;0;0;0;0;7311;0.15;409.81;
edn_9789_6.cnf_0.31000000.unsat.cnf.proof;52;943;1372;2315;126;52;943;981;1924;27;0;943;981;0.00;16.89;0.00;28.50;0;391;0;0;7311;0.21;211.36;
edn_9789_8.cnf_0.51000000.unsat.cnf.proof;170;2403;2786;5189;299;170;2403;2428;4831;20;0;2403;2428;0.00;6.90;0.00;12.85;0;358;0;0;7311;0.82;405.36;
edn_20259_8.cnf_0.39000000.unsat.cnf.proof;16;99;98;197;0;16;99;98;197;0;0;99;98;0.00;0.00;0.00;0.00;0;0;0;0;7311;0.05;285.29;
edn_20259_10.cnf_0.48000000.unsat.cnf.proof;37;330;329;659;0;37;330;329;659;0;0;330;329;0.00;0.00;0.00;0.00;0;0;0;0;7311;0.08;345.01;
edn_20403_8.cnf_0.03000000.unsat.cnf.proof;38;329;328;657;0;38;329;328;657;0;0;329;328;0.00;0.00;0.00;0.00;0;0;0;0;7311;0.08;116.30;
edn_20403_10.cnf_0.03000000.unsat.cnf.proof;19;175;174;349;0;19;175;174;349;0;0;175;174;0.00;0.00;0.00;0.00;0;0;0;0;7311;0.07;116.30;
edn_20403_12.cnf_0.08000000.unsat.cnf.proof;55;1205;2402;3607;692;55;1196;1303;2499;148;0;1204;1356;0.00;30.72;0.75;45.75;0;1046;0;0;7311;0.25;211.36;
edn_22134_8.cnf_0.38000000.unsat.cnf.proof;54;818;817;1635;0;54;818;817;1635;0;0;818;817;0.00;0.00;0.00;0.00;0;0;0;0;7311;0.19;322.46;
edn_22134_10.cnf_0.47000000.unsat.cnf.proof;113;1404;1403;2807;0;113;1404;1403;2807;0;0;1404;1403;0.00;0.00;0.00;0.00;0;0;0;0;7311;0.27;433.15;
edn_24095_8.cnf_0.21000000.unsat.cnf.proof;40;437;436;873;0;40;437;436;873;0;0;437;436;0.00;0.00;0.00;0.00;0;0;0;0;7311;0.10;301.33;
edn_28491_6.cnf_0.31000000.unsat.cnf.proof;38;240;239;479;0;38;240;239;479;0;0;240;239;0.00;0.00;0.00;0.00;0;0;0;0;7311;0.08;243.04;
edn_28491_10.cnf_0.46000000.unsat.cnf.proof;108;1400;1399;2799;0;108;1400;1399;2799;0;0;1400;1399;0.00;0.00;0.00;0.00;0;0;0;0;7311;0.28;433.15;
edn_28491_12.cnf_0.50000000.unsat.cnf.proof;97;1419;1418;2837;0;97;1419;1418;2837;0;0;1419;1418;0.00;0.00;0.00;0.00;0;0;0;0;7311;0.71;483.73;
elf.rf7.ucl.sat.chaff.4.1.bryant.cnf.proof;59;554;1480;2034;390;59;552;1344;1896;366;0;552;1344;0.00;6.78;0.36;9.19;0;136;0;0;7311;0.22;116.30;
example2_gr_rcs_w5.shuffled.cnf.proof;44;209;1942;2151;264;39;157;1515;1672;207;0;166;1548;11.36;22.27;24.88;21.99;0;230;0;0;7311;0.38;116.30;
fdmus_b17_1037.cnf.proof;453;7039;98857;105896;5586;448;6844;78643;85487;5424;0;6939;81501;1.10;19.27;2.77;20.45;0;13229;0;0;7311;7.66;2450.52;
fifo4_33.cnf.proof;258;3530;44029;47559;2756;229;3444;10574;14018;2287;0;3452;10857;11.24;70.53;2.44;75.98;0;32075;0;0;7311;1.64;535.88;
fpu1-problem.dimacs_13.filtered.cnf.proof;8;118;117;235;0;8;118;117;235;0;0;118;117;0.00;0.00;0.00;0.00;0;0;0;0;7311;0.05;116.30;
g6b.cnf.proof;790;8809;224705;233514;9924;786;8744;163416;172160;9177;0;8744;164745;0.51;26.27;0.74;27.28;0;42951;0;0;7311;5.49;2644.50;
g6n.cnf.proof;555;8810;188669;197479;9416;555;8726;143304;152030;8811;0;8726;143413;0.00;23.01;0.95;24.04;0;35906;0;0;7311;3.09;2384.35;
hsat_vc12016.cnf.proof;11;332;388;720;29;11;332;332;664;1;0;332;332;0.00;7.78;0.00;14.43;0;56;0;0;7311;0.14;147.98;
hsat_vc12070.cnf.proof;10;330;384;714;25;10;330;331;661;2;0;330;331;0.00;7.42;0.00;13.80;0;53;0;0;7311;0.10;158.55;
hsat_vc12072.cnf.proof;30;339;414;753;38;30;329;345;674;17;0;333;349;0.00;10.49;2.95;16.67;0;65;0;0;7311;0.10;169.11;
itox_vc965.cnf.proof;85;606;605;1211;0;85;606;605;1211;0;0;606;605;0.00;0.00;0.00;0.00;0;0;0;0;7311;0.17;147.98;
itox_vc1216.cnf.proof;108;613;612;1225;0;108;613;612;1225;0;0;613;612;0.00;0.00;0.00;0.00;0;0;0;0;7311;0.15;158.55;
mem_ctrl-debug.dimacs.cnf.proof;19;118;117;235;0;19;118;117;235;0;0;118;117;0.00;0.00;0.00;0.00;0;0;0;0;7311;0.06;147.98;
mrisc_mem2wire-problem.dimacs_29.filtered.cnf.proof;156;1938;1937;3875;0;156;1938;1937;3875;0;0;1938;1937;0.00;0.00;0.00;0.00;0;0;0;0;7311;0.51;502.62;
ooo.rf8.ucl.sat.chaff.4.1.bryant.cnf.proof;782;6426;124708;131134;5974;745;6185;90324;96509;5624;0;6264;92840;4.73;26.40;3.75;27.57;0;29068;0;0;7311;16.20;4533.96;
ooo.tag10.ucl.sat.chaff.4.1.bryant.cnf.proof;352;2471;87529;90000;2528;347;2450;55848;58298;2456;0;2453;56256;1.42;35.22;0.85;36.19;0;31062;0;0;7311;1.96;776.11;
queueinvar4.cnf.proof;158;814;8318;9132;844;156;807;7238;8045;813;0;808;7250;1.27;11.90;0.86;12.98;0;774;0;0;7311;0.60;274.73;
queueinvar8.cnf.proof;361;2043;45790;47833;2272;362;2034;34378;36412;2121;0;2034;35120;-0.28;23.88;0.44;24.92;0;6753;0;0;7311;3.01;637.90;
queueinvar12.cnf.proof;854;5687;175298;180985;6156;854;5665;121545;127210;5656;0;5672;122834;0.00;29.71;0.39;30.66;0;43953;0;0;7311;48.75;6062.38;
queueinvar14.cnf.proof;952;7320;278536;285856;7979;952;7299;190803;198102;7461;0;7299;190893;0.00;30.70;0.29;31.50;0;80714;0;0;7311;8.16;9799.07;
rsdecoder_multivec1.dimacs.filtered.cnf.proof;353;3459;3458;6917;0;353;3459;3458;6917;0;0;3459;3458;0.00;0.00;0.00;0.00;0;0;0;0;7311;0.88;470.99;
s38584-bug-onevec-gate-0.dimacs.seq.filtered.cnf.proof;38;577;576;1153;0;38;577;576;1153;0;0;577;576;0.00;0.00;0.00;0.00;0;0;0;0;7311;0.21;200.79;
ssa2670-129.cnf.proof;46;825;2851;3676;634;46;818;2176;2994;548;0;818;2192;0.00;18.55;0.85;23.68;0;643;0;0;7311;0.28;126.86;
ssa2670-132.cnf.proof;46;825;2819;3644;634;46;818;2176;2994;548;0;818;2192;0.00;17.84;0.85;22.81;0;611;0;0;7311;0.33;126.86;
ssa2670-133.cnf.proof;81;902;3829;4731;714;71;876;2556;3432;628;0;883;2585;12.35;27.46;2.88;33.25;0;1066;0;0;7311;0.55;158.55;
ssa2670-140.cnf.proof;63;1334;7582;8916;1320;63;1330;5922;7252;1266;0;1330;6224;0.00;18.66;0.30;21.89;0;661;0;0;7311;1.15;211.36;
too_large_gr_rcs_w6.shuffled.cnf.proof;200;1771;68717;70488;2506;200;1715;61203;62918;2289;0;1718;61227;0.00;10.74;3.16;10.93;0;6978;0;0;7311;1.11;848.35;
w10_45.shuffled.cnf.proof;1273;13121;459436;472557;12867;1270;12557;319577;332134;12036;0;12573;321870;0.24;29.72;4.30;30.44;0;111751;0;0;7311;12.30;7547.79;
wb_4m8s1.dimacs.filtered.cnf.proof;52;209;208;417;0;52;209;208;417;0;0;209;208;0.00;0.00;0.00;0.00;0;0;0;0;7311;0.14;105.74;
wb_conmax3.dimacs.filtered.cnf.proof;79;374;373;747;0;79;374;373;747;0;0;374;373;0.00;0.00;0.00;0.00;0;0;0;0;7311;0.14;147.98;
