Sat Feb  1 17:35:11 EST 2014;mode --min-vars -t 10 --set-seed 20224
name;#vars (unmin); #leafs (unmin);#internal (unmin); proof size (unmin); #joins (unmin);#vars (min); #leafs (min); #internal (min); proof size (min); #joins (min);#learnts;leafs after allRm (overapproximation); internal after allRm (overapproximation); vars improvement (%); size improvement (%); leafs improvement (%); internal improvement (%); subsumptions; tautologies; suppressed replacements; replacements; random seed; time (s); initial mem usage (MB);
9symml_gr_2pin_w5.shuffled.cnf.proof;66;255;5500;5755;386;64;253;4524;4777;308;0;253;4553;3.03;16.99;0.78;17.75;0;936;0;0;20224;1.13;179.68;
C210_FW_UT_8630.cnf.proof;11;41;82;123;21;11;41;65;106;17;0;41;65;0.00;13.82;0.00;20.73;1;17;0;1;20224;0.07;95.18;
apex7_gr_2pin_w4.shuffled.cnf.proof;14;48;301;349;73;14;48;251;299;62;0;48;251;0.00;14.33;0.00;16.61;0;50;0;0;20224;0.37;95.18;
barrel2.cnf.proof;27;77;168;245;54;27;77;164;241;50;0;77;164;0.00;1.63;0.00;2.38;0;4;0;0;20224;0.14;95.18;
bf1355-123.cnf.proof;25;159;500;659;144;25;159;445;604;132;0;159;445;0.00;8.35;0.00;11.00;0;55;0;0;20224;0.19;95.18;
bf1355-127.cnf.proof;12;147;445;592;117;12;147;377;524;106;0;147;382;0.00;11.49;0.00;15.28;0;60;0;0;20224;0.16;95.18;
bf1355-227.cnf.proof;10;81;126;207;35;10;81;105;186;19;0;81;105;0.00;10.14;0.00;16.67;0;21;0;0;20224;0.12;95.18;
bf1355-228.cnf.proof;13;83;134;217;42;13;83;111;194;28;0;83;111;0.00;10.60;0.00;17.16;0;23;0;0;20224;0.08;95.18;
bf1355-359.cnf.proof;12;147;427;574;135;12;147;392;539;124;0;147;392;0.00;6.10;0.00;8.20;0;35;0;0;20224;0.14;95.18;
bf1355-445.cnf.proof;17;155;386;541;129;17;155;341;496;119;0;155;341;0.00;8.32;0.00;11.66;0;45;0;0;20224;0.14;95.18;
bf1355-446.cnf.proof;17;153;359;512;115;17;153;340;493;105;0;153;340;0.00;3.71;0.00;5.29;0;19;0;0;20224;0.12;95.18;
bf1355-462.cnf.proof;17;157;307;464;88;17;157;258;415;71;0;157;258;0.00;10.56;0.00;15.96;0;49;0;0;20224;0.13;95.18;
bf1355-466.cnf.proof;26;149;287;436;89;26;149;263;412;77;0;149;263;0.00;5.50;0.00;8.36;0;24;0;0;20224;0.14;95.18;
bf1355-530.cnf.proof;12;83;137;220;45;12;83;110;193;28;0;83;110;0.00;12.27;0.00;19.71;0;27;0;0;20224;0.09;95.18;
bf1355-598.cnf.proof;15;153;300;453;85;15;153;254;407;68;0;153;254;0.00;10.15;0.00;15.33;0;46;0;0;20224;0.13;95.18;
bf1355-621.cnf.proof;8;79;139;218;47;8;79;124;203;39;0;79;124;0.00;6.88;0.00;10.79;0;15;0;0;20224;0.08;95.18;
bf1355-665.cnf.proof;16;117;197;314;56;16;117;172;289;47;0;117;172;0.00;7.96;0.00;12.69;0;25;0;0;20224;0.09;95.18;
bf1355-666.cnf.proof;13;115;230;345;65;13;115;181;296;44;0;115;181;0.00;14.20;0.00;21.30;0;49;0;0;20224;0.18;95.18;
bf1355-741.cnf.proof;12;83;144;227;50;12;83;115;198;31;0;83;115;0.00;12.78;0.00;20.14;0;29;0;0;20224;0.17;95.18;
bin_libsmbsharemodes_vc4083.cnf.proof;360;4019;38001;42020;2854;360;3913;18199;22112;2490;0;4013;18419;0.00;47.38;2.64;52.11;0;19582;0;0;20224;52.08;1625.65;
c4_DD_s3_f1_e2_v1-bug-onevec-gate-0.dimacs.seq.filtered.cnf.proof;7;81;80;161;0;7;81;80;161;0;0;81;80;0.00;0.00;0.00;0.00;0;0;0;0;20224;0.20;137.42;
c6bidw_s.cnf.proof;52;6101;32187;38288;4035;52;6042;26291;32333;3791;0;6054;26921;0.00;15.55;0.97;18.32;0;4836;0;0;20224;7.87;633.83;
c6n_s.cnf.proof;53;517;1323;1840;329;53;517;1094;1611;310;0;517;1097;0.00;12.45;0.00;17.31;0;226;0;0;20224;0.36;116.30;
c6_DD_s3_f1_e1_v1-bug-fourvec-gate-0.dimacs.seq.filtered.cnf.proof;10;66;65;131;0;10;66;65;131;0;0;66;65;0.00;0.00;0.00;0.00;0;0;0;0;20224;0.17;105.74;
c6_DD_s3_f1_e1_v1-bug-gate-0.dimacs.seq.filtered.cnf.proof;10;66;65;131;0;10;66;65;131;0;0;66;65;0.00;0.00;0.00;0.00;0;0;0;0;20224;0.16;105.74;
c7b_s.cnf.proof;69;762;2190;2952;529;69;762;1983;2745;498;0;762;1983;0.00;7.01;0.00;9.45;0;207;0;0;20224;0.51;148.00;
c7n_s.cnf.proof;60;766;2053;2819;520;58;762;1869;2631;492;0;762;1870;3.33;6.67;0.52;8.96;0;183;0;0;20224;0.47;147.98;
c8idw_s.cnf.proof;208;7793;283095;290888;7718;189;7738;173291;181029;6281;0;7752;181629;9.13;37.77;0.71;38.79;0;49431;0;0;20224;111.12;5423.57;
c499_gr_2pin_w5.shuffled.cnf.proof;24;105;1566;1671;246;24;105;1363;1468;209;0;105;1365;0.00;12.15;0.00;12.96;0;189;0;0;20224;0.29;116.30;
c2670.cnf.proof;335;6429;101149;107578;7307;327;6401;67085;73486;6672;0;6417;72597;2.39;31.69;0.44;33.68;0;14278;0;0;20224;44.16;3755.46;
c5315-s.cnf.proof;t/o;
c7552-bug-gate-0.dimacs.seq.filtered.cnf.proof;39;288;287;575;0;39;288;287;575;0;0;288;287;0.00;0.00;0.00;0.00;0;0;0;0;20224;0.28;105.74;
dividers3.dimacs.filtered.cnf.proof;25;152;151;303;0;25;152;151;303;0;0;152;151;0.00;0.00;0.00;0.00;0;0;0;0;20224;0.25;105.74;
dividers7.dimacs.filtered.cnf.proof;69;719;718;1437;0;69;719;718;1437;0;0;719;718;0.00;0.00;0.00;0.00;0;0;0;0;20224;0.77;147.99;
dividers9.dimacs.filtered.cnf.proof;142;1426;1425;2851;0;142;1426;1425;2851;0;0;1426;1425;0.00;0.00;0.00;0.00;0;0;0;0;20224;1.82;253.63;
dividers11.dimacs.filtered.cnf.proof;71;616;615;1231;0;71;616;615;1231;0;0;616;615;0.00;0.00;0.00;0.00;0;0;0;0;20224;0.58;137.43;
divider-problem.dimacs_1.filtered.cnf.proof;115;2556;2555;5111;0;115;2556;2555;5111;0;0;2556;2555;0.00;0.00;0.00;0.00;0;0;0;0;20224;5.80;466.58;
divider-problem.dimacs_2.filtered.cnf.proof;376;6841;6840;13681;0;376;6841;6840;13681;0;0;6841;6840;0.00;0.00;0.00;0.00;0;0;0;0;20224;52.80;849.13;
divider-problem.dimacs_5.filtered.cnf.proof;305;4741;4740;9481;0;305;4741;4740;9481;0;0;4741;4740;0.00;0.00;0.00;0.00;0;0;0;0;20224;23.38;522.46;
divider-problem.dimacs_7.filtered.cnf.proof;488;9302;9301;18603;0;488;9302;9301;18603;0;0;9302;9301;0.00;0.00;0.00;0.00;0;0;0;0;20224;108.11;1932.15;
divider-problem.dimacs_9.filtered.cnf.proof;143;2685;2684;5369;0;143;2685;2684;5369;0;0;2685;2684;0.00;0.00;0.00;0.00;0;0;0;0;20224;5.90;507.19;
dlx2_aa.cnf.proof;225;1118;30364;31482;2072;224;1100;23611;24711;1676;0;1109;24450;0.44;21.51;1.61;22.24;0;5156;0;0;20224;5.92;690.21;
dlx2_ca.cnf.proof;607;4327;198668;202995;8710;564;3923;129413;133336;6314;0;4001;134803;7.08;34.32;9.34;34.86;0;37420;0;0;20224;279.11;12403.45;
dspam_dump_vc962.cnf.proof;41;1071;1521;2592;371;41;1069;1505;2574;363;0;1070;1506;0.00;0.69;0.19;1.05;0;15;0;0;20224;0.45;179.67;
edn_5371_10.cnf_0.46000000.unsat.cnf.proof;39;338;337;675;0;39;338;337;675;0;0;338;337;0.00;0.00;0.00;0.00;0;0;0;0;20224;0.47;345.01;
edn_5371_12.cnf_0.50000000.unsat.cnf.proof;52;587;586;1173;0;52;587;586;1173;0;0;587;586;0.00;0.00;0.00;0.00;0;0;0;0;20224;0.82;409.81;
edn_9789_6.cnf_0.31000000.unsat.cnf.proof;32;943;1372;2315;126;32;943;987;1930;29;0;943;987;0.00;16.63;0.00;28.06;0;385;0;0;20224;0.60;232.49;
edn_9789_8.cnf_0.51000000.unsat.cnf.proof;74;2403;2786;5189;299;74;2403;2433;4836;25;0;2403;2433;0.00;6.80;0.00;12.67;0;353;0;0;20224;1.91;479.44;
edn_20259_8.cnf_0.39000000.unsat.cnf.proof;16;99;98;197;0;16;99;98;197;0;0;99;98;0.00;0.00;0.00;0.00;0;0;0;0;20224;0.17;285.29;
edn_20259_10.cnf_0.48000000.unsat.cnf.proof;37;330;329;659;0;37;330;329;659;0;0;330;329;0.00;0.00;0.00;0.00;0;0;0;0;20224;0.35;345.01;
edn_20403_8.cnf_0.03000000.unsat.cnf.proof;30;329;328;657;0;30;329;328;657;0;0;329;328;0.00;0.00;0.00;0.00;0;0;0;0;20224;0.32;116.30;
edn_20403_10.cnf_0.03000000.unsat.cnf.proof;30;175;174;349;0;30;175;174;349;0;0;175;174;0.00;0.00;0.00;0.00;0;0;0;0;20224;0.26;116.30;
edn_20403_12.cnf_0.08000000.unsat.cnf.proof;99;1205;2402;3607;692;99;1196;1320;2516;160;0;1204;1373;0.00;30.25;0.75;45.05;0;1029;0;0;20224;1.13;253.64;
edn_22134_8.cnf_0.38000000.unsat.cnf.proof;77;818;817;1635;0;77;818;817;1635;0;0;818;817;0.00;0.00;0.00;0.00;0;0;0;0;20224;0.91;333.03;
edn_22134_10.cnf_0.47000000.unsat.cnf.proof;87;1404;1403;2807;0;87;1404;1403;2807;0;0;1404;1403;0.00;0.00;0.00;0.00;0;0;0;0;20224;1.81;454.30;
edn_24095_8.cnf_0.21000000.unsat.cnf.proof;40;437;436;873;0;40;437;436;873;0;0;437;436;0.00;0.00;0.00;0.00;0;0;0;0;20224;0.39;301.33;
edn_28491_6.cnf_0.31000000.unsat.cnf.proof;30;240;239;479;0;30;240;239;479;0;0;240;239;0.00;0.00;0.00;0.00;0;0;0;0;20224;0.26;243.04;
edn_28491_10.cnf_0.46000000.unsat.cnf.proof;95;1400;1399;2799;0;95;1400;1399;2799;0;0;1400;1399;0.00;0.00;0.00;0.00;0;0;0;0;20224;1.86;454.28;
edn_28491_12.cnf_0.50000000.unsat.cnf.proof;98;1419;1418;2837;0;98;1419;1418;2837;0;0;1419;1418;0.00;0.00;0.00;0.00;0;0;0;0;20224;2.03;504.89;
elf.rf7.ucl.sat.chaff.4.1.bryant.cnf.proof;64;554;1480;2034;390;64;553;1354;1907;368;0;553;1359;0.00;6.24;0.18;8.51;0;121;0;0;20224;0.41;126.86;
example2_gr_rcs_w5.shuffled.cnf.proof;46;209;1942;2151;264;38;157;1506;1663;202;0;166;1542;17.39;22.69;24.88;22.45;0;201;0;0;20224;0.43;116.30;
fdmus_b17_1037.cnf.proof;824;7039;98857;105896;5586;804;6848;80194;87042;5393;0;6954;83804;2.43;17.80;2.71;18.88;0;12078;0;0;20224;53.13;3623.15;
fifo4_33.cnf.proof;227;3530;44029;47559;2756;199;3325;9947;13272;2112;0;3450;10757;12.33;72.09;5.81;77.41;0;28894;0;0;20224;22.25;776.46;
fpu1-problem.dimacs_13.filtered.cnf.proof;8;118;117;235;0;8;118;117;235;0;0;118;117;0.00;0.00;0.00;0.00;0;0;0;0;20224;0.20;116.30;
g6b.cnf.proof;774;8809;224705;233514;9924;724;8639;149116;157755;8890;0;8739;158595;6.46;32.44;1.93;33.64;0;36859;0;0;20224;140.83;8363.75;
g6n.cnf.proof;595;8810;188669;197479;9416;554;8588;135870;144458;8523;0;8730;141630;6.89;26.85;2.52;27.98;0;33835;0;0;20224;72.06;4531.54;
hsat_vc12016.cnf.proof;31;332;388;720;29;31;332;332;664;1;0;332;332;0.00;7.78;0.00;14.43;0;56;0;0;20224;0.24;147.98;
hsat_vc12070.cnf.proof;12;330;384;714;25;12;330;332;662;2;0;330;332;0.00;7.28;0.00;13.54;0;52;0;0;20224;0.32;158.55;
hsat_vc12072.cnf.proof;26;339;414;753;38;26;330;346;676;17;0;334;350;0.00;10.23;2.65;16.43;0;64;0;0;20224;0.17;169.11;
itox_vc965.cnf.proof;77;606;605;1211;0;77;606;605;1211;0;0;606;605;0.00;0.00;0.00;0.00;0;0;0;0;20224;0.64;158.55;
itox_vc1216.cnf.proof;98;613;612;1225;0;98;613;612;1225;0;0;613;612;0.00;0.00;0.00;0.00;0;0;0;0;20224;1.05;169.11;
mem_ctrl-debug.dimacs.cnf.proof;21;118;117;235;0;21;118;117;235;0;0;118;117;0.00;0.00;0.00;0.00;0;0;0;0;20224;0.18;147.98;
mrisc_mem2wire-problem.dimacs_29.filtered.cnf.proof;155;1938;1937;3875;0;155;1938;1937;3875;0;0;1938;1937;0.00;0.00;0.00;0.00;0;0;0;0;20224;3.98;313.05;
ooo.rf8.ucl.sat.chaff.4.1.bryant.cnf.proof;745;6426;124708;131134;5974;642;6166;88817;94983;5553;0;6276;92562;13.83;27.57;4.05;28.78;0;28144;0;0;20224;94.73;4902.86;
ooo.tag10.ucl.sat.chaff.4.1.bryant.cnf.proof;328;2471;87529;90000;2528;320;2449;55729;58178;2458;0;2463;56478;2.44;35.36;0.89;36.33;0;30759;0;0;20224;41.35;2526.00;
queueinvar4.cnf.proof;163;814;8318;9132;844;162;808;7145;7953;806;0;810;7185;0.61;12.91;0.74;14.10;0;709;0;0;20224;1.11;327.56;
queueinvar8.cnf.proof;363;2043;45790;47833;2272;358;2032;33768;35800;2108;0;2033;34323;1.38;25.16;0.54;26.25;0;5786;0;0;20224;12.20;1457.24;
queueinvar12.cnf.proof;809;5687;175298;180985;6156;804;5662;120034;125696;5645;0;5670;121975;0.62;30.55;0.44;31.53;0;42766;0;0;20224;654.16;12188.47;
queueinvar14.cnf.proof;t/o;
rsdecoder_multivec1.dimacs.filtered.cnf.proof;380;3459;3458;6917;0;380;3459;3458;6917;0;0;3459;3458;0.00;0.00;0.00;0.00;0;0;0;0;20224;13.65;641.96;
s38584-bug-onevec-gate-0.dimacs.seq.filtered.cnf.proof;43;577;576;1153;0;43;577;576;1153;0;0;577;576;0.00;0.00;0.00;0.00;0;0;0;0;20224;0.58;200.79;
ssa2670-129.cnf.proof;90;825;2851;3676;634;85;818;2185;3003;554;0;819;2206;5.56;18.31;0.85;23.36;0;629;0;0;20224;0.60;148.00;
ssa2670-132.cnf.proof;90;825;2819;3644;634;85;818;2185;3003;554;0;819;2206;5.56;17.59;0.85;22.49;0;597;0;0;20224;0.59;147.99;
ssa2670-133.cnf.proof;76;902;3829;4731;714;73;861;2368;3229;571;0;882;2523;3.95;31.75;4.55;38.16;0;1071;0;0;20224;0.70;179.69;
ssa2670-140.cnf.proof;83;1334;7582;8916;1320;82;1324;5487;6811;1198;0;1328;5834;1.20;23.61;0.75;27.63;0;476;0;0;20224;0.90;274.78;
too_large_gr_rcs_w6.shuffled.cnf.proof;174;1771;68717;70488;2506;174;1679;59342;61021;2234;0;1718;60962;0.00;13.43;5.19;13.64;0;6892;0;0;20224;11.07;1407.35;
w10_45.shuffled.cnf.proof;t/o;
wb_4m8s1.dimacs.filtered.cnf.proof;32;209;208;417;0;32;209;208;417;0;0;209;208;0.00;0.00;0.00;0.00;0;0;0;0;20224;0.27;105.74;
wb_conmax3.dimacs.filtered.cnf.proof;60;374;373;747;0;60;374;373;747;0;0;374;373;0.00;0.00;0.00;0.00;0;0;0;0;20224;0.50;158.55;
