Sun Feb  2 05:48:50 EST 2014;mode --min-vars -t 10 --set-seed 28910
name;#vars (unmin); #leafs (unmin);#internal (unmin); proof size (unmin); #joins (unmin);#vars (min); #leafs (min); #internal (min); proof size (min); #joins (min);#learnts;leafs after allRm (overapproximation); internal after allRm (overapproximation); vars improvement (%); size improvement (%); leafs improvement (%); internal improvement (%); subsumptions; tautologies; suppressed replacements; replacements; random seed; time (s); initial mem usage (MB);
9symml_gr_2pin_w5.shuffled.cnf.proof;64;255;5500;5755;386;63;253;4530;4783;307;0;253;4560;1.56;16.89;0.78;17.64;0;929;0;0;28910;0.69;179.67;
C210_FW_UT_8630.cnf.proof;11;41;82;123;21;11;41;65;106;17;0;41;65;0.00;13.82;0.00;20.73;1;17;0;1;28910;0.07;95.18;
apex7_gr_2pin_w4.shuffled.cnf.proof;14;48;301;349;73;14;48;251;299;62;0;48;251;0.00;14.33;0.00;16.61;0;50;0;0;28910;0.11;95.18;
barrel2.cnf.proof;32;77;168;245;54;32;77;164;241;50;0;77;164;0.00;1.63;0.00;2.38;1;4;0;1;28910;0.12;95.18;
bf1355-123.cnf.proof;27;159;500;659;144;27;159;445;604;132;0;159;445;0.00;8.35;0.00;11.00;0;55;0;0;28910;0.17;95.18;
bf1355-127.cnf.proof;10;147;445;592;117;10;147;368;515;104;0;147;373;0.00;13.01;0.00;17.30;0;69;0;0;28910;0.16;95.18;
bf1355-227.cnf.proof;10;81;126;207;35;10;81;105;186;19;0;81;105;0.00;10.14;0.00;16.67;0;21;0;0;28910;0.08;95.18;
bf1355-228.cnf.proof;11;83;134;217;42;11;83;111;194;28;0;83;111;0.00;10.60;0.00;17.16;0;23;0;0;28910;0.08;95.18;
bf1355-359.cnf.proof;11;147;427;574;135;11;147;383;530;122;0;147;383;0.00;7.67;0.00;10.30;0;44;0;0;28910;0.13;95.18;
bf1355-445.cnf.proof;17;155;386;541;129;17;155;341;496;119;0;155;341;0.00;8.32;0.00;11.66;0;45;0;0;28910;0.14;95.18;
bf1355-446.cnf.proof;16;153;359;512;115;16;153;340;493;105;0;153;340;0.00;3.71;0.00;5.29;0;19;0;0;28910;0.14;95.18;
bf1355-462.cnf.proof;17;157;307;464;88;17;157;259;416;71;0;157;259;0.00;10.34;0.00;15.64;0;48;0;0;28910;0.13;95.18;
bf1355-466.cnf.proof;25;149;287;436;89;25;149;263;412;77;0;149;263;0.00;5.50;0.00;8.36;0;24;0;0;28910;0.13;95.18;
bf1355-530.cnf.proof;11;83;137;220;45;11;83;110;193;28;0;83;110;0.00;12.27;0.00;19.71;0;27;0;0;28910;0.09;95.18;
bf1355-598.cnf.proof;21;153;300;453;85;21;153;255;408;69;0;153;255;0.00;9.93;0.00;15.00;0;45;0;0;28910;0.13;95.18;
bf1355-621.cnf.proof;15;79;139;218;47;15;79;124;203;39;0;79;124;0.00;6.88;0.00;10.79;0;15;0;0;28910;0.08;95.18;
bf1355-665.cnf.proof;13;117;197;314;56;13;117;166;283;46;0;117;166;0.00;9.87;0.00;15.74;0;31;0;0;28910;0.10;95.18;
bf1355-666.cnf.proof;7;115;230;345;65;7;115;181;296;44;0;115;181;0.00;14.20;0.00;21.30;0;49;0;0;28910;0.12;95.18;
bf1355-741.cnf.proof;11;83;144;227;50;11;83;114;197;30;0;83;114;0.00;13.22;0.00;20.83;0;30;0;0;28910;0.09;95.18;
bin_libsmbsharemodes_vc4083.cnf.proof;86;4019;38001;42020;2854;86;3915;18059;21974;2486;0;4013;18266;0.00;47.71;2.59;52.48;0;19735;0;0;28910;46.50;1343.01;
c4_DD_s3_f1_e2_v1-bug-onevec-gate-0.dimacs.seq.filtered.cnf.proof;7;81;80;161;0;7;81;80;161;0;0;81;80;0.00;0.00;0.00;0.00;0;0;0;0;28910;0.14;137.42;
c6bidw_s.cnf.proof;272;6101;32187;38288;4035;272;6047;26411;32458;3794;0;6054;27018;0.00;15.23;0.89;17.95;0;4739;0;0;28910;6.70;708.44;
c6n_s.cnf.proof;50;517;1323;1840;329;50;517;1097;1614;310;0;517;1102;0.00;12.28;0.00;17.08;0;221;0;0;28910;0.32;116.30;
c6_DD_s3_f1_e1_v1-bug-fourvec-gate-0.dimacs.seq.filtered.cnf.proof;12;66;65;131;0;12;66;65;131;0;0;66;65;0.00;0.00;0.00;0.00;0;0;0;0;28910;0.12;105.74;
c6_DD_s3_f1_e1_v1-bug-gate-0.dimacs.seq.filtered.cnf.proof;12;66;65;131;0;12;66;65;131;0;0;66;65;0.00;0.00;0.00;0.00;0;0;0;0;28910;0.12;105.74;
c7b_s.cnf.proof;64;762;2190;2952;529;64;762;1986;2748;498;0;762;1986;0.00;6.91;0.00;9.32;0;204;0;0;28910;0.47;147.98;
c7n_s.cnf.proof;90;766;2053;2819;520;88;762;1867;2629;492;0;762;1868;2.22;6.74;0.52;9.06;0;185;0;0;28910;0.47;147.99;
c8idw_s.cnf.proof;313;7793;283095;290888;7718;272;7737;172783;180520;6283;0;7755;181498;13.10;37.94;0.72;38.97;0;49586;0;0;28910;102.71;5616.54;
c499_gr_2pin_w5.shuffled.cnf.proof;24;105;1566;1671;246;24;105;1351;1456;205;0;105;1354;0.00;12.87;0.00;13.73;0;199;0;0;28910;0.29;116.30;
c2670.cnf.proof;291;6429;101149;107578;7307;284;6401;67076;73477;6671;0;6417;72588;2.41;31.70;0.44;33.69;0;14287;0;0;28910;41.25;3684.77;
c5315-s.cnf.proof;t/o;
c7552-bug-gate-0.dimacs.seq.filtered.cnf.proof;39;288;287;575;0;39;288;287;575;0;0;288;287;0.00;0.00;0.00;0.00;0;0;0;0;28910;0.29;105.74;
dividers3.dimacs.filtered.cnf.proof;19;152;151;303;0;19;152;151;303;0;0;152;151;0.00;0.00;0.00;0.00;0;0;0;0;28910;0.25;105.74;
dividers7.dimacs.filtered.cnf.proof;61;719;718;1437;0;61;719;718;1437;0;0;719;718;0.00;0.00;0.00;0.00;0;0;0;0;28910;0.92;147.98;
dividers9.dimacs.filtered.cnf.proof;133;1426;1425;2851;0;133;1426;1425;2851;0;0;1426;1425;0.00;0.00;0.00;0.00;0;0;0;0;28910;1.88;253.61;
dividers11.dimacs.filtered.cnf.proof;60;616;615;1231;0;60;616;615;1231;0;0;616;615;0.00;0.00;0.00;0.00;0;0;0;0;28910;0.61;137.42;
divider-problem.dimacs_1.filtered.cnf.proof;138;2556;2555;5111;0;138;2556;2555;5111;0;0;2556;2555;0.00;0.00;0.00;0.00;0;0;0;0;28910;5.33;477.22;
divider-problem.dimacs_2.filtered.cnf.proof;341;6841;6840;13681;0;341;6841;6840;13681;0;0;6841;6840;0.00;0.00;0.00;0.00;0;0;0;0;28910;53.30;889.94;
divider-problem.dimacs_5.filtered.cnf.proof;326;4741;4740;9481;0;326;4741;4740;9481;0;0;4741;4740;0.00;0.00;0.00;0.00;0;0;0;0;28910;23.31;542.64;
divider-problem.dimacs_7.filtered.cnf.proof;503;9302;9301;18603;0;503;9302;9301;18603;0;0;9302;9301;0.00;0.00;0.00;0.00;0;0;0;0;28910;113.31;2098.80;
divider-problem.dimacs_9.filtered.cnf.proof;128;2685;2684;5369;0;128;2685;2684;5369;0;0;2685;2684;0.00;0.00;0.00;0.00;0;0;0;0;28910;6.43;507.18;
dlx2_aa.cnf.proof;250;1118;30364;31482;2072;246;1100;23636;24736;1680;0;1109;24476;1.60;21.43;1.61;22.16;0;5130;0;0;28910;6.65;801.63;
dlx2_ca.cnf.proof;581;4327;198668;202995;8710;521;3901;127597;131498;6247;0;3989;133212;10.33;35.22;9.85;35.77;1;38462;0;1;28910;304.09;12782.17;
dspam_dump_vc962.cnf.proof;16;1071;1521;2592;371;16;1066;1503;2569;363;0;1070;1506;0.00;0.89;0.47;1.18;1;15;0;1;28910;0.44;179.67;
edn_5371_10.cnf_0.46000000.unsat.cnf.proof;37;338;337;675;0;37;338;337;675;0;0;338;337;0.00;0.00;0.00;0.00;0;0;0;0;28910;0.42;345.01;
edn_5371_12.cnf_0.50000000.unsat.cnf.proof;42;587;586;1173;0;42;587;586;1173;0;0;587;586;0.00;0.00;0.00;0.00;0;0;0;0;28910;0.77;409.81;
edn_9789_6.cnf_0.31000000.unsat.cnf.proof;32;943;1372;2315;126;32;943;987;1930;29;0;943;987;0.00;16.63;0.00;28.06;0;385;0;0;28910;0.55;232.48;
edn_9789_8.cnf_0.51000000.unsat.cnf.proof;76;2403;2786;5189;299;76;2403;2433;4836;25;0;2403;2433;0.00;6.80;0.00;12.67;0;353;0;0;28910;1.39;479.44;
edn_20259_8.cnf_0.39000000.unsat.cnf.proof;12;99;98;197;0;12;99;98;197;0;0;99;98;0.00;0.00;0.00;0.00;0;0;0;0;28910;0.18;285.29;
edn_20259_10.cnf_0.48000000.unsat.cnf.proof;37;330;329;659;0;37;330;329;659;0;0;330;329;0.00;0.00;0.00;0.00;0;0;0;0;28910;0.32;345.01;
edn_20403_8.cnf_0.03000000.unsat.cnf.proof;29;329;328;657;0;29;329;328;657;0;0;329;328;0.00;0.00;0.00;0.00;0;0;0;0;28910;0.32;116.30;
edn_20403_10.cnf_0.03000000.unsat.cnf.proof;21;175;174;349;0;21;175;174;349;0;0;175;174;0.00;0.00;0.00;0.00;0;0;0;0;28910;0.26;116.30;
edn_20403_12.cnf_0.08000000.unsat.cnf.proof;90;1205;2402;3607;692;90;1196;1325;2521;166;0;1204;1378;0.00;30.11;0.75;44.84;0;1024;0;0;28910;1.03;253.63;
edn_22134_8.cnf_0.38000000.unsat.cnf.proof;51;818;817;1635;0;51;818;817;1635;0;0;818;817;0.00;0.00;0.00;0.00;0;0;0;0;28910;0.89;333.03;
edn_22134_10.cnf_0.47000000.unsat.cnf.proof;133;1404;1403;2807;0;133;1404;1403;2807;0;0;1404;1403;0.00;0.00;0.00;0.00;0;0;0;0;28910;1.75;454.31;
edn_24095_8.cnf_0.21000000.unsat.cnf.proof;34;437;436;873;0;34;437;436;873;0;0;437;436;0.00;0.00;0.00;0.00;0;0;0;0;28910;0.35;301.33;
edn_28491_6.cnf_0.31000000.unsat.cnf.proof;30;240;239;479;0;30;240;239;479;0;0;240;239;0.00;0.00;0.00;0.00;0;0;0;0;28910;0.27;243.04;
edn_28491_10.cnf_0.46000000.unsat.cnf.proof;127;1400;1399;2799;0;127;1400;1399;2799;0;0;1400;1399;0.00;0.00;0.00;0.00;0;0;0;0;28910;1.83;454.29;
edn_28491_12.cnf_0.50000000.unsat.cnf.proof;115;1419;1418;2837;0;115;1419;1418;2837;0;0;1419;1418;0.00;0.00;0.00;0.00;0;0;0;0;28910;1.97;504.88;
elf.rf7.ucl.sat.chaff.4.1.bryant.cnf.proof;61;554;1480;2034;390;61;554;1356;1910;368;0;554;1361;0.00;6.10;0.00;8.38;0;119;0;0;28910;0.36;126.86;
example2_gr_rcs_w5.shuffled.cnf.proof;44;209;1942;2151;264;38;157;1506;1663;203;0;166;1542;13.64;22.69;24.88;22.45;0;201;0;0;28910;0.29;116.30;
fdmus_b17_1037.cnf.proof;828;7039;98857;105896;5586;805;6846;79702;86548;5391;0;6945;83261;2.78;18.27;2.74;19.38;0;12597;0;0;28910;44.15;4757.22;
fifo4_33.cnf.proof;151;3530;44029;47559;2756;141;3324;9939;13263;2111;0;3450;10750;6.62;72.11;5.84;77.43;0;28735;0;0;28910;19.83;1389.48;
fpu1-problem.dimacs_13.filtered.cnf.proof;13;118;117;235;0;13;118;117;235;0;0;118;117;0.00;0.00;0.00;0.00;0;0;0;0;28910;0.19;116.30;
g6b.cnf.proof;815;8809;224705;233514;9924;762;8640;149083;157723;8893;0;8738;158510;6.50;32.46;1.92;33.65;0;36944;0;0;28910;136.52;8985.82;
g6n.cnf.proof;581;8810;188669;197479;9416;535;8600;135588;144188;8539;0;8721;141639;7.92;26.99;2.38;28.13;0;34508;0;0;28910;64.98;5820.28;
hsat_vc12016.cnf.proof;25;332;388;720;29;25;332;332;664;1;0;332;332;0.00;7.78;0.00;14.43;0;56;0;0;28910;0.16;147.98;
hsat_vc12070.cnf.proof;29;330;384;714;25;29;330;332;662;2;0;330;332;0.00;7.28;0.00;13.54;0;52;0;0;28910;0.40;158.55;
hsat_vc12072.cnf.proof;29;339;414;753;38;29;330;346;676;17;0;334;350;0.00;10.23;2.65;16.43;0;64;0;0;28910;0.20;169.11;
itox_vc965.cnf.proof;81;606;605;1211;0;81;606;605;1211;0;0;606;605;0.00;0.00;0.00;0.00;0;0;0;0;28910;0.63;158.55;
itox_vc1216.cnf.proof;16;613;612;1225;0;16;613;612;1225;0;0;613;612;0.00;0.00;0.00;0.00;0;0;0;0;28910;0.63;158.55;
mem_ctrl-debug.dimacs.cnf.proof;29;118;117;235;0;29;118;117;235;0;0;118;117;0.00;0.00;0.00;0.00;0;0;0;0;28910;0.18;147.98;
mrisc_mem2wire-problem.dimacs_29.filtered.cnf.proof;125;1938;1937;3875;0;125;1938;1937;3875;0;0;1938;1937;0.00;0.00;0.00;0.00;0;0;0;0;28910;3.20;313.62;
ooo.rf8.ucl.sat.chaff.4.1.bryant.cnf.proof;950;6426;124708;131134;5974;887;6179;90060;96239;5573;0;6288;93749;6.63;26.61;3.84;27.78;0;27133;0;0;28910;83.46;5752.95;
ooo.tag10.ucl.sat.chaff.4.1.bryant.cnf.proof;305;2471;87529;90000;2528;301;2449;55909;58358;2460;0;2464;56553;1.31;35.16;0.89;36.13;0;30691;0;0;28910;32.90;2528.94;
queueinvar4.cnf.proof;164;814;8318;9132;844;163;808;7087;7895;805;0;810;7132;0.61;13.55;0.74;14.80;0;763;0;0;28910;0.99;327.55;
queueinvar8.cnf.proof;352;2043;45790;47833;2272;347;2031;33717;35748;2106;0;2032;34282;1.42;25.26;0.59;26.37;0;5800;0;0;28910;10.50;1455.36;
queueinvar12.cnf.proof;t/o;
queueinvar14.cnf.proof;t/o;
rsdecoder_multivec1.dimacs.filtered.cnf.proof;253;3459;3458;6917;0;253;3459;3458;6917;0;0;3459;3458;0.00;0.00;0.00;0.00;0;0;0;0;28910;13.66;642.02;
s38584-bug-onevec-gate-0.dimacs.seq.filtered.cnf.proof;43;577;576;1153;0;43;577;576;1153;0;0;577;576;0.00;0.00;0.00;0.00;0;0;0;0;28910;0.56;200.79;
ssa2670-129.cnf.proof;33;825;2851;3676;634;33;818;2183;3001;550;0;819;2203;0.00;18.36;0.85;23.43;0;632;0;0;28910;0.54;148.00;
ssa2670-132.cnf.proof;33;825;2819;3644;634;33;818;2183;3001;550;0;819;2203;0.00;17.65;0.85;22.56;0;600;0;0;28910;0.58;147.99;
ssa2670-133.cnf.proof;87;902;3829;4731;714;82;861;2389;3250;571;0;882;2529;5.75;31.30;4.55;37.61;0;1065;0;0;28910;0.66;179.67;
ssa2670-140.cnf.proof;77;1334;7582;8916;1320;75;1324;5419;6743;1196;0;1328;5824;2.60;24.37;0.75;28.53;0;486;0;0;28910;0.85;274.79;
too_large_gr_rcs_w6.shuffled.cnf.proof;220;1771;68717;70488;2506;219;1678;59252;60930;2234;0;1718;60896;0.45;13.56;5.25;13.77;0;6929;0;0;28910;11.50;1311.59;
w10_45.shuffled.cnf.proof;t/o;
wb_4m8s1.dimacs.filtered.cnf.proof;50;209;208;417;0;50;209;208;417;0;0;209;208;0.00;0.00;0.00;0.00;0;0;0;0;28910;0.26;105.74;
wb_conmax3.dimacs.filtered.cnf.proof;51;374;373;747;0;51;374;373;747;0;0;374;373;0.00;0.00;0.00;0.00;0;0;0;0;28910;0.45;158.55;
