Sat Feb  1 17:35:24 EST 2014;mode --min-vars -t 10 --set-seed 28527
name;#vars (unmin); #leafs (unmin);#internal (unmin); proof size (unmin); #joins (unmin);#vars (min); #leafs (min); #internal (min); proof size (min); #joins (min);#learnts;leafs after allRm (overapproximation); internal after allRm (overapproximation); vars improvement (%); size improvement (%); leafs improvement (%); internal improvement (%); subsumptions; tautologies; suppressed replacements; replacements; random seed; time (s); initial mem usage (MB);
9symml_gr_2pin_w5.shuffled.cnf.proof;55;255;5500;5755;386;55;254;4517;4771;310;0;254;4552;0.00;17.10;0.39;17.87;0;937;0;0;28527;0.70;179.68;
C210_FW_UT_8630.cnf.proof;11;41;82;123;21;11;41;65;106;17;0;41;65;0.00;13.82;0.00;20.73;1;17;0;1;28527;0.07;95.18;
apex7_gr_2pin_w4.shuffled.cnf.proof;13;48;301;349;73;13;48;250;298;62;0;48;250;0.00;14.61;0.00;16.94;0;50;0;0;28527;0.11;95.18;
barrel2.cnf.proof;24;77;168;245;54;24;77;164;241;50;0;77;164;0.00;1.63;0.00;2.38;0;4;0;0;28527;0.14;95.18;
bf1355-123.cnf.proof;18;159;500;659;144;18;159;445;604;132;0;159;445;0.00;8.35;0.00;11.00;0;55;0;0;28527;0.17;95.18;
bf1355-127.cnf.proof;13;147;445;592;117;13;147;377;524;106;0;147;382;0.00;11.49;0.00;15.28;0;60;0;0;28527;0.16;95.18;
bf1355-227.cnf.proof;9;81;126;207;35;9;81;106;187;20;0;81;106;0.00;9.66;0.00;15.87;0;20;0;0;28527;0.08;95.18;
bf1355-228.cnf.proof;12;83;134;217;42;12;83;111;194;28;0;83;111;0.00;10.60;0.00;17.16;0;23;0;0;28527;0.08;95.18;
bf1355-359.cnf.proof;11;147;427;574;135;11;147;383;530;122;0;147;383;0.00;7.67;0.00;10.30;0;44;0;0;28527;0.15;95.18;
bf1355-445.cnf.proof;17;155;386;541;129;17;155;341;496;119;0;155;341;0.00;8.32;0.00;11.66;0;45;0;0;28527;0.13;95.18;
bf1355-446.cnf.proof;16;153;359;512;115;16;153;340;493;105;0;153;340;0.00;3.71;0.00;5.29;0;19;0;0;28527;0.16;95.18;
bf1355-462.cnf.proof;13;157;307;464;88;13;157;258;415;71;0;157;258;0.00;10.56;0.00;15.96;0;49;0;0;28527;0.16;95.18;
bf1355-466.cnf.proof;14;149;287;436;89;14;149;263;412;77;0;149;263;0.00;5.50;0.00;8.36;0;24;0;0;28527;0.13;95.18;
bf1355-530.cnf.proof;13;83;137;220;45;13;83;110;193;28;0;83;110;0.00;12.27;0.00;19.71;0;27;0;0;28527;0.09;95.18;
bf1355-598.cnf.proof;19;153;300;453;85;18;153;254;407;68;0;153;254;5.26;10.15;0.00;15.33;0;46;0;0;28527;0.18;95.18;
bf1355-621.cnf.proof;10;79;139;218;47;10;79;125;204;39;0;79;125;0.00;6.42;0.00;10.07;0;14;0;0;28527;0.08;95.18;
bf1355-665.cnf.proof;12;117;197;314;56;12;117;166;283;46;0;117;166;0.00;9.87;0.00;15.74;0;31;0;0;28527;0.10;95.18;
bf1355-666.cnf.proof;17;115;230;345;65;17;115;181;296;44;0;115;181;0.00;14.20;0.00;21.30;0;49;0;0;28527;0.20;95.18;
bf1355-741.cnf.proof;12;83;144;227;50;12;83;115;198;31;0;83;115;0.00;12.78;0.00;20.14;0;29;0;0;28527;0.09;95.18;
bin_libsmbsharemodes_vc4083.cnf.proof;304;4019;38001;42020;2854;304;3913;18219;22132;2490;0;4013;18458;0.00;47.33;2.64;52.06;0;19543;0;0;28527;53.00;1515.26;
c4_DD_s3_f1_e2_v1-bug-onevec-gate-0.dimacs.seq.filtered.cnf.proof;7;81;80;161;0;7;81;80;161;0;0;81;80;0.00;0.00;0.00;0.00;0;0;0;0;28527;0.19;137.42;
c6bidw_s.cnf.proof;117;6101;32187;38288;4035;117;6041;26296;32337;3794;0;6054;26933;0.00;15.54;0.98;18.30;0;4824;0;0;28527;6.96;652.44;
c6n_s.cnf.proof;78;517;1323;1840;329;78;517;1093;1610;310;0;517;1096;0.00;12.50;0.00;17.38;0;227;0;0;28527;0.34;116.30;
c6_DD_s3_f1_e1_v1-bug-fourvec-gate-0.dimacs.seq.filtered.cnf.proof;12;66;65;131;0;12;66;65;131;0;0;66;65;0.00;0.00;0.00;0.00;0;0;0;0;28527;0.12;105.74;
c6_DD_s3_f1_e1_v1-bug-gate-0.dimacs.seq.filtered.cnf.proof;12;66;65;131;0;12;66;65;131;0;0;66;65;0.00;0.00;0.00;0.00;0;0;0;0;28527;0.12;105.74;
c7b_s.cnf.proof;56;762;2190;2952;529;56;762;1995;2757;498;0;762;1995;0.00;6.61;0.00;8.90;0;195;0;0;28527;0.59;147.98;
c7n_s.cnf.proof;70;766;2053;2819;520;68;762;1869;2631;492;0;762;1870;2.86;6.67;0.52;8.96;0;183;0;0;28527;0.50;147.99;
c8idw_s.cnf.proof;261;7793;283095;290888;7718;241;7738;173304;181042;6283;0;7752;181643;7.66;37.76;0.71;38.78;0;49417;0;0;28527;106.05;5464.37;
c499_gr_2pin_w5.shuffled.cnf.proof;24;105;1566;1671;246;24;105;1362;1467;209;0;105;1364;0.00;12.21;0.00;13.03;0;190;0;0;28527;0.29;116.30;
c2670.cnf.proof;367;6429;101149;107578;7307;360;6402;67400;73802;6674;0;6418;72886;1.91;31.40;0.42;33.37;0;14000;0;0;28527;43.55;3854.19;
c5315-s.cnf.proof;t/o;
c7552-bug-gate-0.dimacs.seq.filtered.cnf.proof;38;288;287;575;0;38;288;287;575;0;0;288;287;0.00;0.00;0.00;0.00;0;0;0;0;28527;0.29;105.74;
dividers3.dimacs.filtered.cnf.proof;25;152;151;303;0;25;152;151;303;0;0;152;151;0.00;0.00;0.00;0.00;0;0;0;0;28527;0.25;105.74;
dividers7.dimacs.filtered.cnf.proof;68;719;718;1437;0;68;719;718;1437;0;0;719;718;0.00;0.00;0.00;0.00;0;0;0;0;28527;0.80;147.98;
dividers9.dimacs.filtered.cnf.proof;172;1426;1425;2851;0;172;1426;1425;2851;0;0;1426;1425;0.00;0.00;0.00;0.00;0;0;0;0;28527;1.92;264.18;
dividers11.dimacs.filtered.cnf.proof;60;616;615;1231;0;60;616;615;1231;0;0;616;615;0.00;0.00;0.00;0.00;0;0;0;0;28527;0.66;137.42;
divider-problem.dimacs_1.filtered.cnf.proof;136;2556;2555;5111;0;136;2556;2555;5111;0;0;2556;2555;0.00;0.00;0.00;0.00;0;0;0;0;28527;5.43;466.66;
divider-problem.dimacs_2.filtered.cnf.proof;383;6841;6840;13681;0;383;6841;6840;13681;0;0;6841;6840;0.00;0.00;0.00;0.00;0;0;0;0;28527;53.90;808.07;
divider-problem.dimacs_5.filtered.cnf.proof;309;4741;4740;9481;0;309;4741;4740;9481;0;0;4741;4740;0.00;0.00;0.00;0.00;0;0;0;0;28527;22.91;522.06;
divider-problem.dimacs_7.filtered.cnf.proof;527;9302;9301;18603;0;527;9302;9301;18603;0;0;9302;9301;0.00;0.00;0.00;0.00;0;0;0;0;28527;109.80;2015.66;
divider-problem.dimacs_9.filtered.cnf.proof;132;2685;2684;5369;0;132;2685;2684;5369;0;0;2685;2684;0.00;0.00;0.00;0.00;0;0;0;0;28527;6.01;517.79;
dlx2_aa.cnf.proof;226;1118;30364;31482;2072;223;1099;23647;24746;1681;0;1108;24483;1.33;21.40;1.70;22.12;0;5123;0;0;28527;6.10;800.46;
dlx2_ca.cnf.proof;599;4327;198668;202995;8710;553;3914;128849;132763;6290;0;4000;134340;7.68;34.60;9.54;35.14;1;37694;0;1;28527;295.28;12285.65;
dspam_dump_vc962.cnf.proof;18;1071;1521;2592;371;18;1069;1505;2574;363;0;1070;1506;0.00;0.69;0.19;1.05;0;15;0;0;28527;0.41;179.68;
edn_5371_10.cnf_0.46000000.unsat.cnf.proof;28;338;337;675;0;28;338;337;675;0;0;338;337;0.00;0.00;0.00;0.00;0;0;0;0;28527;0.43;345.01;
edn_5371_12.cnf_0.50000000.unsat.cnf.proof;50;587;586;1173;0;50;587;586;1173;0;0;587;586;0.00;0.00;0.00;0.00;0;0;0;0;28527;0.74;409.81;
edn_9789_6.cnf_0.31000000.unsat.cnf.proof;77;943;1372;2315;126;77;943;987;1930;29;0;943;987;0.00;16.63;0.00;28.06;0;385;0;0;28527;0.57;232.49;
edn_9789_8.cnf_0.51000000.unsat.cnf.proof;34;2403;2786;5189;299;34;2403;2434;4837;26;0;2403;2434;0.00;6.78;0.00;12.63;0;352;0;0;28527;1.62;479.43;
edn_20259_8.cnf_0.39000000.unsat.cnf.proof;16;99;98;197;0;16;99;98;197;0;0;99;98;0.00;0.00;0.00;0.00;0;0;0;0;28527;0.18;285.29;
edn_20259_10.cnf_0.48000000.unsat.cnf.proof;50;330;329;659;0;50;330;329;659;0;0;330;329;0.00;0.00;0.00;0.00;0;0;0;0;28527;0.35;345.01;
edn_20403_8.cnf_0.03000000.unsat.cnf.proof;41;329;328;657;0;41;329;328;657;0;0;329;328;0.00;0.00;0.00;0.00;0;0;0;0;28527;0.45;116.30;
edn_20403_10.cnf_0.03000000.unsat.cnf.proof;27;175;174;349;0;27;175;174;349;0;0;175;174;0.00;0.00;0.00;0.00;0;0;0;0;28527;0.26;116.30;
edn_20403_12.cnf_0.08000000.unsat.cnf.proof;74;1205;2402;3607;692;74;1196;1326;2522;167;0;1204;1379;0.00;30.08;0.75;44.80;0;1023;0;0;28527;1.04;253.68;
edn_22134_8.cnf_0.38000000.unsat.cnf.proof;57;818;817;1635;0;57;818;817;1635;0;0;818;817;0.00;0.00;0.00;0.00;0;0;0;0;28527;0.90;333.03;
edn_22134_10.cnf_0.47000000.unsat.cnf.proof;102;1404;1403;2807;0;102;1404;1403;2807;0;0;1404;1403;0.00;0.00;0.00;0.00;0;0;0;0;28527;2.11;454.31;
edn_24095_8.cnf_0.21000000.unsat.cnf.proof;33;437;436;873;0;33;437;436;873;0;0;437;436;0.00;0.00;0.00;0.00;0;0;0;0;28527;0.38;301.33;
edn_28491_6.cnf_0.31000000.unsat.cnf.proof;38;240;239;479;0;38;240;239;479;0;0;240;239;0.00;0.00;0.00;0.00;0;0;0;0;28527;0.31;243.04;
edn_28491_10.cnf_0.46000000.unsat.cnf.proof;115;1400;1399;2799;0;115;1400;1399;2799;0;0;1400;1399;0.00;0.00;0.00;0.00;0;0;0;0;28527;1.94;454.29;
edn_28491_12.cnf_0.50000000.unsat.cnf.proof;108;1419;1418;2837;0;108;1419;1418;2837;0;0;1419;1418;0.00;0.00;0.00;0.00;0;0;0;0;28527;2.00;504.89;
elf.rf7.ucl.sat.chaff.4.1.bryant.cnf.proof;63;554;1480;2034;390;63;552;1354;1906;368;0;552;1359;0.00;6.29;0.36;8.51;0;121;0;0;28527;0.38;126.86;
example2_gr_rcs_w5.shuffled.cnf.proof;46;209;1942;2151;264;36;157;1507;1664;202;0;166;1543;21.74;22.64;24.88;22.40;0;200;0;0;28527;0.37;116.30;
fdmus_b17_1037.cnf.proof;827;7039;98857;105896;5586;790;6846;79795;86641;5392;0;6953;83379;4.47;18.18;2.74;19.28;0;12479;0;0;28527;48.66;3179.93;
fifo4_33.cnf.proof;110;3530;44029;47559;2756;110;3330;9937;13267;2111;0;3456;10741;0.00;72.10;5.67;77.43;0;28744;0;0;28527;21.99;1367.80;
fpu1-problem.dimacs_13.filtered.cnf.proof;8;118;117;235;0;8;118;117;235;0;0;118;117;0.00;0.00;0.00;0.00;0;0;0;0;28527;0.20;116.30;
g6b.cnf.proof;807;8809;224705;233514;9924;750;8638;148826;157464;8883;0;8736;158232;7.06;32.57;1.94;33.77;0;37184;0;0;28527;148.18;8585.29;
g6n.cnf.proof;528;8810;188669;197479;9416;488;8588;135780;144368;8523;0;8730;141622;7.58;26.89;2.52;28.03;0;33843;0;0;28527;74.74;5007.89;
hsat_vc12016.cnf.proof;28;332;388;720;29;28;332;332;664;1;0;332;332;0.00;7.78;0.00;14.43;0;56;0;0;28527;0.28;147.98;
hsat_vc12070.cnf.proof;24;330;384;714;25;24;330;332;662;2;0;330;332;0.00;7.28;0.00;13.54;0;52;0;0;28527;0.34;158.55;
hsat_vc12072.cnf.proof;31;339;414;753;38;31;330;346;676;17;0;334;350;0.00;10.23;2.65;16.43;0;64;0;0;28527;0.18;169.11;
itox_vc965.cnf.proof;69;606;605;1211;0;69;606;605;1211;0;0;606;605;0.00;0.00;0.00;0.00;0;0;0;0;28527;0.77;158.55;
itox_vc1216.cnf.proof;86;613;612;1225;0;86;613;612;1225;0;0;613;612;0.00;0.00;0.00;0.00;0;0;0;0;28527;0.64;169.12;
mem_ctrl-debug.dimacs.cnf.proof;19;118;117;235;0;19;118;117;235;0;0;118;117;0.00;0.00;0.00;0.00;0;0;0;0;28527;0.19;147.98;
mrisc_mem2wire-problem.dimacs_29.filtered.cnf.proof;170;1938;1937;3875;0;170;1938;1937;3875;0;0;1938;1937;0.00;0.00;0.00;0.00;0;0;0;0;28527;4.06;313.15;
ooo.rf8.ucl.sat.chaff.4.1.bryant.cnf.proof;712;6426;124708;131134;5974;618;6168;88958;95126;5555;0;6277;92709;13.20;27.46;4.01;28.67;0;28061;0;0;28527;96.74;4940.93;
ooo.tag10.ucl.sat.chaff.4.1.bryant.cnf.proof;331;2471;87529;90000;2528;323;2449;55730;58179;2458;0;2463;56479;2.42;35.36;0.89;36.33;0;30758;0;0;28527;36.63;2524.58;
queueinvar4.cnf.proof;159;814;8318;9132;844;158;808;7142;7950;805;0;810;7179;0.63;12.94;0.74;14.14;0;715;0;0;28527;1.02;327.55;
queueinvar8.cnf.proof;358;2043;45790;47833;2272;355;2032;33733;35765;2107;0;2033;34301;0.84;25.23;0.54;26.33;0;5781;0;0;28527;13.69;1494.25;
queueinvar12.cnf.proof;753;5687;175298;180985;6156;751;5661;119671;125332;5647;0;5670;121569;0.27;30.75;0.46;31.73;0;42881;0;0;28527;551.29;11787.49;
queueinvar14.cnf.proof;t/o;
rsdecoder_multivec1.dimacs.filtered.cnf.proof;417;3459;3458;6917;0;417;3459;3458;6917;0;0;3459;3458;0.00;0.00;0.00;0.00;0;0;0;0;28527;13.49;641.78;
s38584-bug-onevec-gate-0.dimacs.seq.filtered.cnf.proof;38;577;576;1153;0;38;577;576;1153;0;0;577;576;0.00;0.00;0.00;0.00;0;0;0;0;28527;0.59;200.79;
ssa2670-129.cnf.proof;38;825;2851;3676;634;38;818;2185;3003;551;0;819;2205;0.00;18.31;0.85;23.36;0;630;0;0;28527;0.59;147.99;
ssa2670-132.cnf.proof;38;825;2819;3644;634;38;818;2185;3003;551;0;819;2205;0.00;17.59;0.85;22.49;0;598;0;0;28527;0.81;147.99;
ssa2670-133.cnf.proof;49;902;3829;4731;714;48;861;2362;3223;571;0;882;2509;2.04;31.87;4.55;38.31;0;1085;0;0;28527;0.68;179.67;
ssa2670-140.cnf.proof;57;1334;7582;8916;1320;57;1324;5478;6802;1198;0;1328;5824;0.00;23.71;0.75;27.75;0;486;0;0;28527;0.88;264.21;
too_large_gr_rcs_w6.shuffled.cnf.proof;220;1771;68717;70488;2506;218;1678;59237;60915;2234;0;1718;60881;0.91;13.58;5.25;13.80;0;6952;0;0;28527;10.72;1293.27;
w10_45.shuffled.cnf.proof;t/o;
wb_4m8s1.dimacs.filtered.cnf.proof;31;209;208;417;0;31;209;208;417;0;0;209;208;0.00;0.00;0.00;0.00;0;0;0;0;28527;0.26;105.74;
wb_conmax3.dimacs.filtered.cnf.proof;90;374;373;747;0;90;374;373;747;0;0;374;373;0.00;0.00;0.00;0.00;0;0;0;0;28527;0.46;158.55;
