Sun Feb  2 08:41:46 EST 2014;mode --min-vars -t 0 --set-seed 6768
name;#vars (unmin); #leafs (unmin);#internal (unmin); proof size (unmin); #joins (unmin);#vars (min); #leafs (min); #internal (min); proof size (min); #joins (min);#learnts;leafs after allRm (overapproximation); internal after allRm (overapproximation); vars improvement (%); size improvement (%); leafs improvement (%); internal improvement (%); subsumptions; tautologies; suppressed replacements; replacements; random seed; time (s); initial mem usage (MB);
9symml_gr_2pin_w5.shuffled.cnf.proof;67;255;5500;5755;386;66;253;4534;4787;307;0;253;4564;1.49;16.82;0.78;17.56;0;925;0;0;6768;0.62;169.11;
C210_FW_UT_8630.cnf.proof;11;41;82;123;21;11;41;66;107;17;0;41;66;0.00;13.01;0.00;19.51;0;16;0;0;6768;0.04;95.18;
apex7_gr_2pin_w4.shuffled.cnf.proof;14;48;301;349;73;14;48;252;300;63;0;48;252;0.00;14.04;0.00;16.28;0;49;0;0;6768;0.08;95.18;
barrel2.cnf.proof;30;77;168;245;54;30;77;164;241;50;0;77;164;0.00;1.63;0.00;2.38;0;4;0;0;6768;0.06;95.18;
bf1355-123.cnf.proof;21;159;500;659;144;21;159;445;604;132;0;159;445;0.00;8.35;0.00;11.00;0;55;0;0;6768;0.16;95.18;
bf1355-127.cnf.proof;22;147;445;592;117;22;147;377;524;106;0;147;383;0.00;11.49;0.00;15.28;0;59;0;0;6768;0.15;95.18;
bf1355-227.cnf.proof;14;81;126;207;35;14;81;106;187;20;0;81;106;0.00;9.66;0.00;15.87;0;20;0;0;6768;0.04;95.18;
bf1355-228.cnf.proof;12;83;134;217;42;12;83;111;194;28;0;83;111;0.00;10.60;0.00;17.16;0;23;0;0;6768;0.07;95.18;
bf1355-359.cnf.proof;20;147;427;574;135;20;147;389;536;123;0;147;389;0.00;6.62;0.00;8.90;0;38;0;0;6768;0.10;95.18;
bf1355-445.cnf.proof;18;155;386;541;129;18;155;341;496;119;0;155;341;0.00;8.32;0.00;11.66;0;45;0;0;6768;0.09;95.18;
bf1355-446.cnf.proof;14;153;359;512;115;14;153;340;493;105;0;153;340;0.00;3.71;0.00;5.29;0;19;0;0;6768;0.09;95.18;
bf1355-462.cnf.proof;13;157;307;464;88;13;157;258;415;71;0;157;258;0.00;10.56;0.00;15.96;0;49;0;0;6768;0.08;95.18;
bf1355-466.cnf.proof;14;149;287;436;89;14;149;263;412;77;0;149;263;0.00;5.50;0.00;8.36;0;24;0;0;6768;0.18;95.18;
bf1355-530.cnf.proof;13;83;137;220;45;13;83;110;193;28;0;83;110;0.00;12.27;0.00;19.71;0;27;0;0;6768;0.04;95.18;
bf1355-598.cnf.proof;22;153;300;453;85;21;153;254;407;68;0;153;254;4.55;10.15;0.00;15.33;0;46;0;0;6768;0.08;95.18;
bf1355-621.cnf.proof;14;79;139;218;47;14;79;126;205;39;0;79;126;0.00;5.96;0.00;9.35;0;13;0;0;6768;0.08;95.18;
bf1355-665.cnf.proof;13;117;197;314;56;13;117;166;283;46;0;117;166;0.00;9.87;0.00;15.74;0;31;0;0;6768;0.05;95.18;
bf1355-666.cnf.proof;11;115;230;345;65;11;115;181;296;44;0;115;181;0.00;14.20;0.00;21.30;0;49;0;0;6768;0.07;95.18;
bf1355-741.cnf.proof;12;83;144;227;50;12;83;115;198;31;0;83;115;0.00;12.78;0.00;20.14;0;29;0;0;6768;0.05;95.18;
bin_libsmbsharemodes_vc4083.cnf.proof;72;4019;38001;42020;2854;72;3915;18079;21994;2506;0;4013;18286;0.00;47.66;2.59;52.42;0;19715;0;0;6768;1.47;524.21;
c4_DD_s3_f1_e2_v1-bug-onevec-gate-0.dimacs.seq.filtered.cnf.proof;9;81;80;161;0;9;81;80;161;0;0;81;80;0.00;0.00;0.00;0.00;0;0;0;0;6768;0.06;126.86;
c6bidw_s.cnf.proof;264;6101;32187;38288;4035;262;6047;26374;32421;3794;0;6058;26984;0.76;15.32;0.89;18.06;0;4773;0;0;6768;1.38;259.09;
c6n_s.cnf.proof;45;517;1323;1840;329;45;517;1095;1612;310;0;517;1101;0.00;12.39;0.00;17.23;0;222;0;0;6768;0.22;116.30;
c6_DD_s3_f1_e1_v1-bug-fourvec-gate-0.dimacs.seq.filtered.cnf.proof;9;66;65;131;0;9;66;65;131;0;0;66;65;0.00;0.00;0.00;0.00;0;0;0;0;6768;0.04;105.74;
c6_DD_s3_f1_e1_v1-bug-gate-0.dimacs.seq.filtered.cnf.proof;9;66;65;131;0;9;66;65;131;0;0;66;65;0.00;0.00;0.00;0.00;0;0;0;0;6768;0.03;105.74;
c7b_s.cnf.proof;64;762;2190;2952;529;64;762;1997;2759;498;0;762;1997;0.00;6.54;0.00;8.81;0;193;0;0;6768;0.32;137.46;
c7n_s.cnf.proof;58;766;2053;2819;520;56;762;1882;2644;497;0;762;1883;3.45;6.21;0.52;8.33;0;170;0;0;6768;0.24;126.86;
c8idw_s.cnf.proof;196;7793;283095;290888;7718;177;7738;173291;181029;6281;0;7752;181629;9.69;37.77;0.71;38.79;0;49431;0;0;6768;8.11;2466.85;
c499_gr_2pin_w5.shuffled.cnf.proof;24;105;1566;1671;246;24;105;1354;1459;208;0;105;1357;0.00;12.69;0.00;13.54;0;197;0;0;6768;0.28;105.74;
c2670.cnf.proof;328;6429;101149;107578;7307;320;6401;67077;73478;6671;0;6417;72656;2.44;31.70;0.44;33.68;0;14283;0;0;6768;3.36;1178.03;
c5315-s.cnf.proof;810;14402;478008;492410;19463;798;14372;332062;346434;17466;0;14385;353268;1.48;29.65;0.21;30.53;0;85020;0;0;6768;28.24;3468.15;
c7552-bug-gate-0.dimacs.seq.filtered.cnf.proof;39;288;287;575;0;39;288;287;575;0;0;288;287;0.00;0.00;0.00;0.00;0;0;0;0;6768;0.08;105.74;
dividers3.dimacs.filtered.cnf.proof;22;152;151;303;0;22;152;151;303;0;0;152;151;0.00;0.00;0.00;0.00;0;0;0;0;6768;0.07;105.74;
dividers7.dimacs.filtered.cnf.proof;62;719;718;1437;0;62;719;718;1437;0;0;719;718;0.00;0.00;0.00;0.00;0;0;0;0;6768;0.17;147.98;
dividers9.dimacs.filtered.cnf.proof;146;1426;1425;2851;0;146;1426;1425;2851;0;0;1426;1425;0.00;0.00;0.00;0.00;0;0;0;0;6768;0.31;232.48;
dividers11.dimacs.filtered.cnf.proof;58;616;615;1231;0;58;616;615;1231;0;0;616;615;0.00;0.00;0.00;0.00;0;0;0;0;6768;0.15;137.42;
divider-problem.dimacs_1.filtered.cnf.proof;128;2556;2555;5111;0;128;2556;2555;5111;0;0;2556;2555;0.00;0.00;0.00;0.00;0;0;0;0;6768;0.50;381.98;
divider-problem.dimacs_2.filtered.cnf.proof;376;6841;6840;13681;0;376;6841;6840;13681;0;0;6841;6840;0.00;0.00;0.00;0.00;0;0;0;0;6768;2.09;1051.99;
divider-problem.dimacs_5.filtered.cnf.proof;330;4741;4740;9481;0;330;4741;4740;9481;0;0;4741;4740;0.00;0.00;0.00;0.00;0;0;0;0;6768;1.01;617.10;
divider-problem.dimacs_7.filtered.cnf.proof;500;9302;9301;18603;0;500;9302;9301;18603;0;0;9302;9301;0.00;0.00;0.00;0.00;0;0;0;0;6768;4.10;695.75;
divider-problem.dimacs_9.filtered.cnf.proof;132;2685;2684;5369;0;132;2685;2684;5369;0;0;2685;2684;0.00;0.00;0.00;0.00;0;0;0;0;6768;0.50;412.03;
dlx2_aa.cnf.proof;209;1118;30364;31482;2072;208;1100;23612;24712;1714;0;1109;24446;0.48;21.50;1.61;22.24;0;5160;0;0;6768;1.50;205.77;
dlx2_ca.cnf.proof;578;4327;198668;202995;8710;538;3915;129561;133476;6318;0;4000;135155;6.92;34.25;9.52;34.79;0;36803;0;0;6768;18.09;4421.74;
dspam_dump_vc962.cnf.proof;21;1071;1521;2592;371;21;1069;1505;2574;363;0;1070;1506;0.00;0.69;0.19;1.05;0;15;0;0;6768;0.23;169.11;
edn_5371_10.cnf_0.46000000.unsat.cnf.proof;51;338;337;675;0;51;338;337;675;0;0;338;337;0.00;0.00;0.00;0.00;0;0;0;0;6768;0.11;345.01;
edn_5371_12.cnf_0.50000000.unsat.cnf.proof;55;587;586;1173;0;55;587;586;1173;0;0;587;586;0.00;0.00;0.00;0.00;0;0;0;0;6768;0.14;409.81;
edn_9789_6.cnf_0.31000000.unsat.cnf.proof;34;943;1372;2315;126;34;943;987;1930;29;0;943;987;0.00;16.63;0.00;28.06;0;385;0;0;6768;0.22;211.36;
edn_9789_8.cnf_0.51000000.unsat.cnf.proof;56;2403;2786;5189;299;56;2403;2434;4837;26;0;2403;2434;0.00;6.78;0.00;12.63;0;352;0;0;6768;0.38;384.23;
edn_20259_8.cnf_0.39000000.unsat.cnf.proof;16;99;98;197;0;16;99;98;197;0;0;99;98;0.00;0.00;0.00;0.00;0;0;0;0;6768;0.05;285.29;
edn_20259_10.cnf_0.48000000.unsat.cnf.proof;51;330;329;659;0;51;330;329;659;0;0;330;329;0.00;0.00;0.00;0.00;0;0;0;0;6768;0.08;345.01;
edn_20403_8.cnf_0.03000000.unsat.cnf.proof;31;329;328;657;0;31;329;328;657;0;0;329;328;0.00;0.00;0.00;0.00;0;0;0;0;6768;0.13;116.30;
edn_20403_10.cnf_0.03000000.unsat.cnf.proof;30;175;174;349;0;30;175;174;349;0;0;175;174;0.00;0.00;0.00;0.00;0;0;0;0;6768;0.09;116.30;
edn_20403_12.cnf_0.08000000.unsat.cnf.proof;61;1205;2402;3607;692;61;1196;1326;2522;167;0;1204;1379;0.00;30.08;0.75;44.80;0;1023;0;0;6768;0.23;211.36;
edn_22134_8.cnf_0.38000000.unsat.cnf.proof;100;818;817;1635;0;100;818;817;1635;0;0;818;817;0.00;0.00;0.00;0.00;0;0;0;0;6768;0.24;322.46;
edn_22134_10.cnf_0.47000000.unsat.cnf.proof;133;1404;1403;2807;0;133;1404;1403;2807;0;0;1404;1403;0.00;0.00;0.00;0.00;0;0;0;0;6768;0.28;433.15;
edn_24095_8.cnf_0.21000000.unsat.cnf.proof;34;437;436;873;0;34;437;436;873;0;0;437;436;0.00;0.00;0.00;0.00;0;0;0;0;6768;0.09;301.33;
edn_28491_6.cnf_0.31000000.unsat.cnf.proof;36;240;239;479;0;36;240;239;479;0;0;240;239;0.00;0.00;0.00;0.00;0;0;0;0;6768;0.21;243.04;
edn_28491_10.cnf_0.46000000.unsat.cnf.proof;118;1400;1399;2799;0;118;1400;1399;2799;0;0;1400;1399;0.00;0.00;0.00;0.00;0;0;0;0;6768;0.35;433.15;
edn_28491_12.cnf_0.50000000.unsat.cnf.proof;129;1419;1418;2837;0;129;1419;1418;2837;0;0;1419;1418;0.00;0.00;0.00;0.00;0;0;0;0;6768;0.47;483.73;
elf.rf7.ucl.sat.chaff.4.1.bryant.cnf.proof;57;554;1480;2034;390;57;554;1354;1908;368;0;554;1359;0.00;6.19;0.00;8.51;0;121;0;0;6768;0.22;116.30;
example2_gr_rcs_w5.shuffled.cnf.proof;45;209;1942;2151;264;35;157;1507;1664;203;0;166;1543;22.22;22.64;24.88;22.40;0;200;0;0;6768;0.34;116.30;
fdmus_b17_1037.cnf.proof;675;7039;98857;105896;5586;665;6849;80060;86909;5397;0;6954;83868;1.48;17.93;2.70;19.01;0;12034;0;0;6768;5.77;1231.26;
fifo4_33.cnf.proof;111;3530;44029;47559;2756;111;3324;9924;13248;2110;0;3450;10734;0.00;72.14;5.84;77.46;0;28751;0;0;6768;1.09;483.72;
fpu1-problem.dimacs_13.filtered.cnf.proof;8;118;117;235;0;8;118;117;235;0;0;118;117;0.00;0.00;0.00;0.00;0;0;0;0;6768;0.05;116.30;
g6b.cnf.proof;831;8809;224705;233514;9924;778;8640;149147;157787;8890;0;8741;158617;6.38;32.43;1.92;33.63;0;36837;0;0;6768;15.36;1816.21;
g6n.cnf.proof;589;8810;188669;197479;9416;555;8587;136012;144599;8549;0;8725;141933;5.77;26.78;2.53;27.91;0;33785;0;0;6768;6.72;1241.75;
hsat_vc12016.cnf.proof;33;332;388;720;29;33;332;332;664;1;0;332;332;0.00;7.78;0.00;14.43;0;56;0;0;6768;0.10;147.98;
hsat_vc12070.cnf.proof;18;330;384;714;25;18;330;332;662;2;0;330;332;0.00;7.28;0.00;13.54;0;52;0;0;6768;0.15;158.55;
hsat_vc12072.cnf.proof;25;339;414;753;38;25;330;346;676;17;0;334;350;0.00;10.23;2.65;16.43;0;64;0;0;6768;0.15;169.11;
itox_vc965.cnf.proof;56;606;605;1211;0;56;606;605;1211;0;0;606;605;0.00;0.00;0.00;0.00;0;0;0;0;6768;0.24;147.98;
itox_vc1216.cnf.proof;16;613;612;1225;0;16;613;612;1225;0;0;613;612;0.00;0.00;0.00;0.00;0;0;0;0;6768;0.13;158.55;
mem_ctrl-debug.dimacs.cnf.proof;19;118;117;235;0;19;118;117;235;0;0;118;117;0.00;0.00;0.00;0.00;0;0;0;0;6768;0.06;147.98;
mrisc_mem2wire-problem.dimacs_29.filtered.cnf.proof;118;1938;1937;3875;0;118;1938;1937;3875;0;0;1938;1937;0.00;0.00;0.00;0.00;0;0;0;0;6768;0.70;502.62;
ooo.rf8.ucl.sat.chaff.4.1.bryant.cnf.proof;962;6426;124708;131134;5974;908;6183;90122;96305;5571;0;6288;93845;5.61;26.56;3.78;27.73;0;26993;0;0;6768;22.63;4951.74;
ooo.tag10.ucl.sat.chaff.4.1.bryant.cnf.proof;357;2471;87529;90000;2528;347;2444;55643;58087;2453;0;2458;56380;2.80;35.46;1.09;36.43;0;30843;0;0;6768;2.85;688.20;
queueinvar4.cnf.proof;160;814;8318;9132;844;160;808;7142;7950;805;0;810;7179;0.00;12.94;0.74;14.14;0;715;0;0;6768;0.58;285.29;
queueinvar8.cnf.proof;326;2043;45790;47833;2272;317;2031;33610;35641;2111;0;2032;34169;2.76;25.49;0.59;26.60;0;5933;0;0;6768;2.65;466.42;
queueinvar12.cnf.proof;678;5687;175298;180985;6156;675;5661;119602;125263;5635;0;5670;121429;0.44;30.79;0.46;31.77;0;43014;0;0;6768;40.01;4620.88;
queueinvar14.cnf.proof;1023;7320;278536;285856;7979;1022;7286;188583;195869;7495;0;7299;191421;0.10;31.48;0.46;32.29;0;78695;0;0;6768;108.11;11175.22;
rsdecoder_multivec1.dimacs.filtered.cnf.proof;351;3459;3458;6917;0;351;3459;3458;6917;0;0;3459;3458;0.00;0.00;0.00;0.00;0;0;0;0;6768;0.78;471.00;
s38584-bug-onevec-gate-0.dimacs.seq.filtered.cnf.proof;43;577;576;1153;0;43;577;576;1153;0;0;577;576;0.00;0.00;0.00;0.00;0;0;0;0;6768;0.12;200.79;
ssa2670-129.cnf.proof;78;825;2851;3676;634;74;818;2194;3012;554;0;819;2215;5.13;18.06;0.85;23.04;0;620;0;0;6768;0.28;126.86;
ssa2670-132.cnf.proof;78;825;2819;3644;634;74;818;2194;3012;554;0;819;2215;5.13;17.34;0.85;22.17;0;588;0;0;6768;0.27;126.86;
ssa2670-133.cnf.proof;79;902;3829;4731;714;75;861;2392;3253;571;0;882;2531;5.06;31.24;4.55;37.53;0;1063;0;0;6768;0.31;158.55;
ssa2670-140.cnf.proof;123;1334;7582;8916;1320;121;1324;5452;6776;1198;0;1328;5838;1.63;24.00;0.75;28.09;0;472;0;0;6768;0.46;221.92;
too_large_gr_rcs_w6.shuffled.cnf.proof;220;1771;68717;70488;2506;219;1678;59358;61036;2236;0;1718;60924;0.45;13.41;5.25;13.62;0;6911;0;0;6768;2.69;783.04;
w10_45.shuffled.cnf.proof;m/o;
wb_4m8s1.dimacs.filtered.cnf.proof;30;209;208;417;0;30;209;208;417;0;0;209;208;0.00;0.00;0.00;0.00;0;0;0;0;6768;0.07;105.74;
wb_conmax3.dimacs.filtered.cnf.proof;53;374;373;747;0;53;374;373;747;0;0;374;373;0.00;0.00;0.00;0.00;0;0;0;0;6768;0.15;147.98;
