Sun Feb  2 05:24:10 EST 2014;mode --min-vars -c -t 0 --set-seed 1174
name;#vars (unmin); #leafs (unmin);#internal (unmin); proof size (unmin); #joins (unmin);#vars (min); #leafs (min); #internal (min); proof size (min); #joins (min);#learnts;leafs after allRm (overapproximation); internal after allRm (overapproximation); vars improvement (%); size improvement (%); leafs improvement (%); internal improvement (%); subsumptions; tautologies; suppressed replacements; replacements; random seed; time (s); initial mem usage (MB);
6s0.aig.proof;11;346;1020;1366;253;11;345;923;1268;228;24144;345;935;0.00;7.17;0.29;9.51;0;85;0;0;1174;0.26;211.36;
6s7.aig.proof;163;5461;26311;31772;4096;160;5403;22638;28041;3967;21682;5410;22911;1.84;11.74;1.06;13.96;0;2968;0;0;1174;1.89;329.98;
6s8.aig.proof;98;3036;16495;19531;2375;97;2984;10164;13148;2116;32147;3019;10689;1.02;32.68;1.71;38.38;0;4452;0;0;1174;1.27;464.84;
6s23.aig.proof;63;1299;39067;40366;1375;58;1127;26403;27530;1186;2420;1243;27463;7.94;31.80;13.24;32.42;0;9425;0;0;1174;1.73;262.16;
6s24.aig.proof;61;1117;4909;6026;924;60;1104;3844;4948;825;34272;1109;3996;1.64;17.89;1.16;21.69;0;624;0;0;1174;0.38;295.85;
6s31.aig.proof;14;573;2277;2850;434;14;561;1987;2548;417;13691;563;2011;0.00;10.60;2.09;12.74;0;198;0;0;1174;0.40;169.11;
6s33.aig.proof;57;1387;12260;13647;1259;56;1361;10535;11896;1195;14592;1378;10732;1.75;12.83;1.87;14.07;0;1496;0;0;1174;0.93;285.29;
6s102.aig.proof;53;1056;3696;4752;700;53;1055;3654;4709;691;48345;1056;3656;0.00;0.90;0.09;1.14;0;38;0;0;1174;0.35;369.78;
6s105.aig.proof;48;1151;4760;5911;860;48;1146;4212;5358;838;66171;1149;4232;0.00;9.36;0.43;11.51;0;519;0;0;1174;0.64;454.48;
6s122.aig.proof;5;88;216;304;60;5;88;215;303;60;1329;88;215;0.00;0.33;0.00;0.46;0;1;0;0;1174;0.07;105.74;
6s151.aig.proof;63;3489;10699;14188;2699;63;3479;10209;13688;2625;10590;3482;10218;0.00;3.52;0.29;4.58;0;469;0;0;1174;0.94;422.59;
6s152.aig.proof;22;376;1608;1984;330;22;367;1234;1601;274;2154;368;1309;0.00;19.30;2.39;23.26;0;268;0;0;1174;0.20;116.30;
6s160.aig.proof;28;657;1366;2023;368;28;654;1309;1963;366;26226;656;1320;0.00;2.97;0.46;4.17;0;46;0;0;1174;0.37;232.48;
6s188.aig.proof;37;655;1206;1861;347;37;640;1150;1790;339;33921;645;1165;0.00;3.82;2.29;4.64;0;21;0;0;1174;0.35;264.17;
6s209b1.aig.proof;43;1183;4682;5865;888;43;1181;4166;5347;873;11801;1183;4266;0.00;8.83;0.17;11.02;0;138;0;0;1174;0.55;200.79;
6s268r.aig.proof;0;68;74;142;6;0;68;71;139;4;70965;68;71;NaN;2.11;0.00;4.05;0;3;0;0;1174;0.02;433.15;
6s269r.aig.proof;11;346;1020;1366;253;11;345;923;1268;228;24162;345;935;0.00;7.17;0.29;9.51;0;85;0;0;1174;0.15;211.36;
6s275rb253.aig.proof;45;1647;23720;25367;1834;45;1647;17636;19283;1737;2060;1647;19027;0.00;23.98;0.00;25.65;0;3418;0;0;1174;1.56;390.91;
6s276rb318.aig.proof;31;947;2985;3932;903;31;947;2748;3695;891;1269;947;2754;0.00;6.03;0.00;7.94;0;231;0;0;1174;0.42;137.42;
6s277rb342.aig.proof;43;610;2262;2872;553;43;610;2172;2782;537;470;610;2174;0.00;3.13;0.00;3.98;0;81;0;0;1174;0.28;116.30;
6s282b15.aig.proof;36;1253;4175;5428;897;36;1230;3842;5072;866;3975;1243;3870;0.00;6.56;1.84;7.98;0;302;0;0;1174;0.60;158.55;
6s291rb18.aig.proof;14;268;914;1182;224;14;267;823;1090;213;282;267;827;0.00;7.78;0.37;9.96;0;71;0;0;1174;0.33;105.74;
6s292rb024.aig.proof;14;221;650;871;198;14;221;622;843;196;274;221;622;0.00;3.21;0.00;4.31;0;28;0;0;1174;0.25;95.18;
6s310r.aig.proof;100;3334;25676;29010;2691;93;3217;16081;19298;2425;30588;3253;16973;7.00;33.48;3.51;37.37;0;3640;0;0;1174;1.19;190.84;
6s317b14.aig.proof;113;3815;39910;43725;3471;107;3505;30367;33872;3176;80078;3679;31945;5.31;22.53;8.13;23.91;0;5121;0;0;1174;1.97;352.38;
6s329rb19.aig.proof;87;4999;125228;130227;4948;87;4934;53275;58209;4473;6722;4961;57922;0.00;55.30;1.30;57.46;0;59537;0;0;1174;3.72;1126.69;
6s330rb11.aig.proof;1;88;88;176;1;1;88;88;176;1;192955;88;88;0.00;0.00;0.00;0.00;0;0;0;0;1174;0.05;580.37;
6s357r.aig.proof;17;522;1356;1878;344;17;519;1245;1764;324;15209;521;1257;0.00;6.07;0.57;8.19;0;99;0;0;1174;0.19;179.67;
6s365r.aig.proof;23;417;2038;2455;356;23;408;1739;2147;341;2533;411;1757;0.00;12.55;2.16;14.67;0;269;0;0;1174;0.58;126.86;
6s394r.aig.proof;152;3896;7968;11864;1782;145;3744;6196;9940;1568;58340;3874;7181;4.61;16.22;3.90;22.24;0;589;0;0;1174;0.56;317.94;
6s410rb043.aig.proof;47;2280;34928;37208;2261;46;2222;21617;23839;2104;52225;2266;21998;2.13;35.93;2.54;38.11;0;11230;0;0;1174;1.79;289.20;
beembrdg2f1.aig.proof;28;5381;33620;39001;4259;28;5237;23182;28419;3815;25412;5262;24173;0.00;27.13;2.68;31.05;0;6696;0;0;1174;1.82;567.51;
beemkrebs4b1.aig.proof;12;1235;9369;10604;1244;12;1218;7952;9170;1219;90537;1227;8150;0.00;13.52;1.38;15.12;0;1052;0;0;1174;0.70;198.73;
beemptrsn7f1.aig.proof;35;1898;2793;4691;722;35;1892;2733;4625;693;33308;1895;2738;0.00;1.41;0.32;2.15;0;47;0;0;1174;0.26;264.17;
beemtrngt5f1.aig.proof;23;2295;9338;11633;1782;20;2162;4812;6974;1419;29553;2274;5390;13.04;40.05;5.80;48.47;0;3790;0;0;1174;0.88;359.22;
bob9234redmiter.aig.proof;2;38;45;83;7;2;38;45;83;7;1842;38;45;0.00;0.00;0.00;0.00;0;0;0;0;1174;0.04;105.74;
bobsmcodic.aig.proof;175;5379;260857;266236;5865;175;5370;174034;179404;5649;2570;5372;174913;0.00;32.61;0.17;33.28;0;85680;0;0;1174;35.79;4301.26;
bobsmhdlc1.aig.proof;52;1870;39855;41725;2032;52;1841;29327;31168;1862;5727;1858;29944;0.00;25.30;1.55;26.42;0;8981;0;0;1174;1.61;512.24;
bobsmminiuart.aig.proof;5;171;400;571;103;5;171;187;358;15;639;171;187;0.00;37.30;0.00;53.25;0;51;0;0;1174;0.08;95.18;
cmudme2.aig.proof;15;313;479;792;101;13;308;431;739;84;2054;309;440;13.33;6.69;1.60;10.02;0;27;0;0;1174;0.09;105.74;
eijkbs3271.aig.proof;137;8375;63857;72232;7374;137;8367;56970;65337;7121;32032;8368;56975;0.00;9.55;0.10;10.79;0;6879;0;0;1174;11.19;1713.26;
intel009.aig.proof;8;11117;14962;26079;3799;8;11116;14941;26057;3792;771302;11117;14944;0.00;0.08;0.01;0.14;0;9;0;0;1174;0.55;1430.94;
intel011.aig.proof;7;2580;3245;5825;627;7;2579;3226;5805;620;74951;2580;3229;0.00;0.34;0.04;0.59;0;5;0;0;1174;0.31;464.84;
intel012.aig.proof;6;10777;13082;23859;2267;6;10776;13065;23841;2262;921958;10777;13069;0.00;0.08;0.01;0.13;0;5;0;0;1174;0.61;2022.13;
intel015.aig.proof;9;2434;3112;5546;644;9;2433;3094;5527;638;69770;2434;3097;0.00;0.34;0.04;0.58;0;4;0;0;1174;0.54;433.15;
intel016.aig.proof;7;9657;13596;23253;3894;7;9656;13569;23225;3887;249868;9657;13572;0.00;0.12;0.01;0.20;0;8;0;0;1174;1.08;547.74;
intel018.aig.proof;6;1748;2305;4053;520;6;1747;2288;4035;515;53061;1748;2292;0.00;0.44;0.06;0.74;0;5;0;0;1174;0.23;348.66;
intel020.aig.proof;8;1762;2535;4297;723;8;1761;2508;4269;716;50872;1762;2510;0.00;0.65;0.06;1.07;0;9;0;0;1174;0.31;348.66;
intel022.aig.proof;7;2481;5321;7802;1325;7;2481;2859;5340;352;63818;2481;2859;0.00;31.56;0.00;46.27;0;2462;0;0;1174;0.31;433.16;
intel023.aig.proof;8;1767;2954;4721;817;8;1766;2659;4425;778;50503;1767;2661;0.00;6.27;0.06;9.99;0;289;0;0;1174;0.24;348.66;
intel024.aig.proof;6;1764;2436;4200;627;6;1763;2417;4180;620;50746;1764;2420;0.00;0.48;0.06;0.78;0;5;0;0;1174;0.35;338.10;
intel027.aig.proof;12;7721;8855;16576;1100;12;7720;8831;16551;1093;843359;7721;8834;0.00;0.15;0.01;0.27;0;17;0;0;1174;0.61;1659.09;
intel029.aig.proof;6;2582;3310;5892;691;6;2581;3291;5872;684;70657;2582;3294;0.00;0.34;0.04;0.57;0;5;0;0;1174;0.30;443.72;
intel032.aig.proof;10;2825;3490;6315;537;10;2825;3483;6308;536;107591;2825;3483;0.00;0.11;0.00;0.20;0;7;0;0;1174;0.51;220.69;
intel033.aig.proof;10;20018;22737;42755;2677;10;20017;22720;42737;2672;636978;20018;22724;0.00;0.04;0.00;0.07;0;5;0;0;1174;0.78;846.45;
intel034.aig.proof;12;5521;7891;13412;2331;12;5520;7873;13393;2325;453446;5521;7876;0.00;0.14;0.02;0.23;0;4;0;0;1174;0.70;657.39;
intel036.aig.proof;12;11657;14071;25728;2386;12;11656;14053;25709;2381;868964;11657;14056;0.00;0.07;0.01;0.13;0;4;0;0;1174;0.79;1811.57;
nusmvdme116.aig.proof;76;2342;2993;5335;217;76;2342;2948;5290;214;8380;2342;2948;0.00;0.84;0.00;1.50;0;45;0;0;1174;0.54;158.55;
pdtswvsam6x8p4.aig.proof;114;4378;4706;9084;222;114;4254;4495;8749;152;82205;4258;4499;0.00;3.69;2.83;4.48;0;28;0;0;1174;0.80;291.57;
