Sun Feb  2 11:37:44 EST 2014;mode --min-vars -c -a --set-seed 32299
name;#vars (unmin); #leafs (unmin);#internal (unmin); proof size (unmin); #joins (unmin);#vars (min); #leafs (min); #internal (min); proof size (min); #joins (min);#learnts;leafs after allRm (overapproximation); internal after allRm (overapproximation); vars improvement (%); size improvement (%); leafs improvement (%); internal improvement (%); subsumptions; tautologies; suppressed replacements; replacements; random seed; time (s); initial mem usage (MB);
6s0.aig.proof;11;346;1020;1366;253;11;345;923;1268;228;24144;345;935;0.00;7.17;0.29;9.51;0;85;0;0;32299;0.15;211.36;
6s7.aig.proof;188;5461;26311;31772;4096;186;5403;22636;28039;3997;21682;5410;22901;1.06;11.75;1.06;13.97;0;3238;0;0;32299;1.38;349.81;
6s8.aig.proof;108;3036;16495;19531;2375;108;3018;10479;13497;2262;32147;3019;10703;0.00;30.89;0.59;36.47;0;4759;0;0;32299;0.63;464.84;
6s23.aig.proof;63;1299;39067;40366;1375;63;1244;27681;28925;1237;2420;1244;27859;0.00;28.34;4.23;29.14;0;10251;0;0;32299;0.99;261.99;
6s24.aig.proof;64;1117;4909;6026;924;62;1108;3938;5046;855;34272;1109;4061;3.13;16.26;0.81;19.78;0;657;0;0;32299;0.39;295.85;
6s31.aig.proof;9;573;2277;2850;434;9;561;2002;2563;421;13691;563;2007;0.00;10.07;2.09;12.08;0;254;0;0;32299;0.16;169.11;
6s33.aig.proof;33;1387;12260;13647;1259;33;1364;10551;11915;1195;14592;1377;10733;0.00;12.69;1.66;13.94;0;1507;0;0;32299;0.65;274.73;
6s102.aig.proof;56;1056;3696;4752;700;56;1055;3650;4705;690;48345;1056;3652;0.00;0.99;0.09;1.24;0;42;0;0;32299;0.37;369.78;
6s105.aig.proof;51;1151;4760;5911;860;51;1148;4273;5421;839;66171;1149;4283;0.00;8.29;0.26;10.23;0;471;0;0;32299;0.56;454.43;
6s122.aig.proof;5;88;216;304;60;5;88;215;303;60;1329;88;215;0.00;0.33;0.00;0.46;0;1;0;0;32299;0.05;105.74;
6s151.aig.proof;0;3489;10699;14188;2699;0;3479;10193;13672;2626;10590;3482;10201;NaN;3.64;0.29;4.73;0;491;0;0;32299;0.81;390.91;
6s152.aig.proof;23;376;1608;1984;330;23;368;1308;1676;275;2154;368;1316;0.00;15.52;2.13;18.66;0;275;0;0;32299;0.20;116.30;
6s160.aig.proof;34;657;1366;2023;368;34;653;1302;1955;366;26226;655;1317;0.00;3.36;0.61;4.69;0;49;0;0;32299;0.19;232.48;
6s188.aig.proof;37;655;1206;1861;347;37;640;1150;1790;339;33921;645;1165;0.00;3.82;2.29;4.64;0;24;0;0;32299;0.19;264.16;
6s209b1.aig.proof;43;1183;4682;5865;888;43;1181;4168;5349;877;11801;1183;4266;0.00;8.80;0.17;10.98;0;139;0;0;32299;0.39;200.79;
6s268r.aig.proof;0;68;74;142;6;0;68;71;139;4;70965;68;71;NaN;2.11;0.00;4.05;0;3;0;0;32299;0.02;433.16;
6s269r.aig.proof;11;346;1020;1366;253;11;345;923;1268;228;24162;345;935;0.00;7.17;0.29;9.51;0;85;0;0;32299;0.15;211.36;
6s275rb253.aig.proof;31;1647;23720;25367;1834;31;1647;18552;20199;1752;2060;1647;19079;0.00;20.37;0.00;21.79;0;3504;0;0;32299;1.15;380.34;
6s276rb318.aig.proof;43;947;2985;3932;903;43;947;2747;3694;891;1269;947;2753;0.00;6.05;0.00;7.97;0;232;0;0;32299;0.30;137.42;
6s277rb342.aig.proof;22;610;2262;2872;553;22;610;2168;2778;533;470;610;2169;0.00;3.27;0.00;4.16;0;92;0;0;32299;0.24;116.30;
6s282b15.aig.proof;81;1253;4175;5428;897;81;1230;3837;5067;868;3975;1242;3863;0.00;6.65;1.84;8.10;0;309;0;0;32299;0.43;169.11;
6s291rb18.aig.proof;18;268;914;1182;224;18;267;823;1090;216;282;267;823;0.00;7.78;0.37;9.96;0;78;0;0;32299;0.10;105.74;
6s292rb024.aig.proof;13;221;650;871;198;13;221;621;842;195;274;221;621;0.00;3.33;0.00;4.46;0;29;0;0;32299;0.14;95.18;
6s310r.aig.proof;138;3334;25676;29010;2691;138;3288;18007;21295;2580;30588;3288;18106;0.00;26.59;1.38;29.87;0;5759;0;0;32299;0.72;212.04;
6s317b14.aig.proof;60;3815;39910;43725;3471;60;3683;32147;35830;3309;80078;3685;32622;0.00;18.06;3.46;19.45;0;5685;0;0;32299;1.16;286.96;
6s329rb19.aig.proof;150;4999;125228;130227;4948;150;4937;57511;62448;4601;6722;4961;59824;0.00;52.05;1.24;54.07;0;60796;0;0;32299;2.74;1049.24;
6s330rb11.aig.proof;1;88;88;176;1;1;88;88;176;1;192955;88;88;0.00;0.00;0.00;0.00;0;0;0;0;32299;0.02;578.67;
6s357r.aig.proof;13;522;1356;1878;344;13;519;1244;1763;324;15209;521;1256;0.00;6.12;0.57;8.26;0;100;0;0;32299;0.43;169.11;
6s365r.aig.proof;22;417;2038;2455;356;22;408;1735;2143;342;2533;411;1752;0.00;12.71;2.16;14.87;0;275;0;0;32299;0.22;116.30;
6s394r.aig.proof;192;3896;7968;11864;1782;187;3745;6179;9924;1582;58340;3869;7137;2.60;16.35;3.88;22.45;0;645;0;0;32299;0.64;316.97;
6s410rb043.aig.proof;8;2280;34928;37208;2261;8;2222;22026;24248;2117;52225;2268;22383;0.00;34.83;2.54;36.94;0;12080;0;0;32299;1.30;243.20;
beembrdg2f1.aig.proof;102;5381;33620;39001;4259;102;5267;24374;29641;4137;25412;5267;24376;0.00;24.00;2.12;27.50;0;7256;0;0;32299;0.69;244.52;
beemkrebs4b1.aig.proof;12;1235;9369;10604;1244;12;1218;7956;9174;1224;90537;1227;8154;0.00;13.49;1.38;15.08;0;1181;0;0;32299;0.99;198.70;
beemptrsn7f1.aig.proof;45;1898;2793;4691;722;45;1888;2720;4608;696;33308;1892;2729;0.00;1.77;0.53;2.61;0;49;0;0;32299;0.31;264.16;
beemtrngt5f1.aig.proof;28;2295;9338;11633;1782;28;2145;4678;6823;1433;29553;2160;5275;0.00;41.35;6.54;49.90;0;3811;0;0;32299;0.51;359.22;
bob9234redmiter.aig.proof;2;38;45;83;7;2;38;45;83;7;1842;38;45;0.00;0.00;0.00;0.00;0;0;0;0;32299;0.02;105.74;
bobsmcodic.aig.proof;178;5379;260857;266236;5865;178;5370;172813;178183;5573;2570;5372;173218;0.00;33.07;0.17;33.75;0;87401;0;0;32299;29.58;4682.47;
bobsmhdlc1.aig.proof;52;1870;39855;41725;2032;52;1857;29982;31839;1902;5727;1857;30043;0.00;23.69;0.70;24.77;0;9239;0;0;32299;1.03;511.59;
bobsmminiuart.aig.proof;2;171;400;571;103;2;171;187;358;77;639;171;187;0.00;37.30;0.00;53.25;0;148;0;0;32299;0.12;95.18;
cmudme2.aig.proof;14;313;479;792;101;13;308;430;738;92;2054;309;439;7.14;6.82;1.60;10.23;0;28;0;0;32299;0.09;105.74;
eijkbs3271.aig.proof;149;8375;63857;72232;7374;149;8367;56947;65314;7121;32032;8368;56952;0.00;9.58;0.10;10.82;0;6902;0;0;32299;16.52;1801.59;
intel009.aig.proof;6;11117;14962;26079;3799;6;11116;14941;26057;3793;771302;11117;14944;0.00;0.08;0.01;0.14;0;17;0;0;32299;0.90;1435.82;
intel011.aig.proof;9;2580;3245;5825;627;9;2579;3226;5805;621;74951;2580;3229;0.00;0.34;0.04;0.59;0;15;0;0;32299;0.26;464.84;
intel012.aig.proof;10;10777;13082;23859;2267;10;10776;13065;23841;2263;921958;10777;13069;0.00;0.08;0.01;0.13;0;13;0;0;32299;0.49;2022.16;
intel015.aig.proof;9;2434;3112;5546;644;9;2433;3093;5526;638;69770;2434;3096;0.00;0.36;0.04;0.61;0;15;0;0;32299;0.27;433.15;
intel016.aig.proof;8;9657;13596;23253;3894;8;9656;13569;23225;3889;249868;9657;13571;0.00;0.12;0.01;0.20;0;17;0;0;32299;0.58;546.80;
intel018.aig.proof;6;1748;2305;4053;520;6;1747;2288;4035;516;53061;1748;2292;0.00;0.44;0.06;0.74;0;13;0;0;32299;0.22;348.66;
intel020.aig.proof;8;1762;2535;4297;723;8;1761;2508;4269;718;50872;1762;2510;0.00;0.65;0.06;1.07;0;17;0;0;32299;0.37;348.66;
intel022.aig.proof;6;2481;5321;7802;1325;6;2481;2859;5340;352;63818;2481;2859;0.00;31.56;0.00;46.27;0;2462;0;0;32299;0.33;433.15;
intel023.aig.proof;9;1767;2954;4721;817;9;1766;2659;4425;779;50503;1767;2661;0.00;6.27;0.06;9.99;0;293;0;0;32299;0.30;348.66;
intel024.aig.proof;9;1764;2436;4200;627;9;1763;2417;4180;621;50746;1764;2420;0.00;0.48;0.06;0.78;0;15;0;0;32299;0.24;338.10;
intel027.aig.proof;10;7721;8855;16576;1100;10;7720;8831;16551;1094;843359;7721;8834;0.00;0.15;0.01;0.27;0;21;0;0;32299;0.44;1655.81;
intel029.aig.proof;6;2582;3310;5892;691;6;2581;3291;5872;685;70657;2582;3294;0.00;0.34;0.04;0.57;0;15;0;0;32299;0.28;443.72;
intel032.aig.proof;11;2825;3490;6315;537;11;2825;3483;6308;536;107591;2825;3483;0.00;0.11;0.00;0.20;0;7;0;0;32299;0.26;220.65;
intel033.aig.proof;8;20018;22737;42755;2677;8;20017;22720;42737;2673;636978;20018;22724;0.00;0.04;0.00;0.07;0;13;0;0;32299;0.60;846.15;
intel034.aig.proof;6;5521;7891;13412;2331;6;5520;7872;13392;2325;453446;5521;7875;0.00;0.15;0.02;0.24;0;15;0;0;32299;0.73;657.41;
intel036.aig.proof;9;11657;14071;25728;2386;9;11656;14053;25709;2382;868964;11657;14056;0.00;0.07;0.01;0.13;0;14;0;0;32299;0.82;1815.16;
nusmvdme116.aig.proof;89;2342;2993;5335;217;89;2342;2948;5290;214;8380;2342;2948;0.00;0.84;0.00;1.50;0;45;0;0;32299;0.35;158.55;
pdtswvsam6x8p4.aig.proof;86;4378;4706;9084;222;64;4254;4494;8748;163;82205;4258;4498;25.58;3.70;2.83;4.50;0;47;0;0;32299;0.69;270.46;
