Thu Mar 20 14:25:29 EDT 2014;mode --min-vars -t 0 --abc ../alanmi-abc-738118bdd039/abc --abc-cmds ../scripts/abc_cmds.txt --dont-suppress --set-seed 9760
name;#vars (unmin); #leafs (unmin); #internal (unmin); proof size (unmin); #joins (unmin); #ands (unmin); #levs (unmin);#vars (min); #leafs (min); #internal (min); proof size (min); #joins (min); #ands (min); #levs (min);#learnts;leafs after allRm (overapproximation); internal after allRm (overapproximation); vars improvement (%); size improvement (%); leafs improvement (%); internal improvement (%); subsumptions; tautologies; suppressed replacements; replacements; random seed; time (s); initial mem usage (MB);
9symml_gr_2pin_w5.shuffled.cnf.proof;51;255;5500;5755;386;2318;373;51;253;4378;4631;366;1738;90;0;0;0;0.00;19.53;0.78;20.40;0;1088;0;0;9760;0.42;1101.45;
C210_FW_UT_8630.cnf.proof;10;41;82;123;21;14;9;10;41;64;105;17;13;9;0;0;0;0.00;14.63;0.00;21.95;0;18;0;0;9760;0.05;137.52;
apex7_gr_2pin_w4.shuffled.cnf.proof;12;48;301;349;73;128;33;12;48;242;290;66;98;15;0;0;0;0.00;16.91;0.00;19.60;0;58;0;0;9760;0.13;158.68;
barrel2.cnf.proof;24;77;168;245;54;34;14;24;77;164;241;50;35;14;0;0;0;0.00;1.63;0.00;2.38;0;4;0;0;9760;0.10;137.52;
bf1355-123.cnf.proof;21;159;500;659;144;78;31;21;159;433;592;136;67;19;0;0;0;0.00;10.17;0.00;13.40;0;67;0;0;9760;0.11;148.08;
bf1355-127.cnf.proof;21;147;445;592;117;73;30;21;147;368;515;107;59;20;0;0;0;0.00;13.01;0.00;17.30;0;69;0;0;9760;0.17;148.08;
bf1355-227.cnf.proof;14;81;126;207;35;20;11;14;81;105;186;20;15;12;0;0;0;0.00;10.14;0.00;16.67;0;21;0;0;9760;0.06;137.52;
bf1355-228.cnf.proof;12;83;134;217;42;13;9;12;83;110;193;27;13;9;0;0;0;0.00;11.06;0.00;17.91;0;24;0;0;9760;0.07;137.52;
bf1355-359.cnf.proof;19;147;427;574;135;50;17;19;147;380;527;126;49;16;0;0;0;0.00;8.19;0.00;11.01;0;47;0;0;9760;0.14;148.09;
bf1355-445.cnf.proof;18;155;386;541;129;46;11;18;155;334;489;121;43;13;0;0;0;0.00;9.61;0.00;13.47;0;52;0;0;9760;0.15;148.08;
bf1355-446.cnf.proof;16;153;359;512;115;41;13;16;153;338;491;108;37;14;0;0;0;0.00;4.10;0.00;5.85;0;21;0;0;9760;0.15;148.08;
bf1355-462.cnf.proof;14;157;307;464;88;24;10;14;157;258;415;76;20;11;0;0;0;0.00;10.56;0.00;15.96;0;49;0;0;9760;0.08;137.52;
bf1355-466.cnf.proof;25;149;287;436;89;57;18;25;149;263;412;81;55;17;0;0;0;0.00;5.50;0.00;8.36;0;24;0;0;9760;0.08;148.09;
bf1355-530.cnf.proof;13;83;137;220;45;20;9;13;83;108;191;26;18;10;0;0;0;0.00;13.18;0.00;21.17;0;29;0;0;9760;0.04;137.52;
bf1355-598.cnf.proof;16;153;300;453;85;32;13;16;153;254;407;73;32;12;0;0;0;0.00;10.15;0.00;15.33;0;46;0;0;9760;0.08;137.52;
bf1355-621.cnf.proof;15;79;139;218;47;19;9;15;79;123;202;39;18;10;0;0;0;0.00;7.34;0.00;11.51;0;16;0;0;9760;0.07;137.52;
bf1355-665.cnf.proof;9;117;197;314;56;17;6;9;117;166;283;46;18;7;0;0;0;0.00;9.87;0.00;15.74;0;31;0;0;9760;0.09;137.52;
bf1355-666.cnf.proof;5;115;230;345;65;6;3;5;115;181;296;46;6;3;0;0;0;0.00;14.20;0.00;21.30;0;49;0;0;9760;0.10;137.52;
bf1355-741.cnf.proof;14;83;144;227;50;15;9;14;83;113;196;29;14;9;0;0;0;0.00;13.66;0.00;21.53;0;31;0;0;9760;0.04;137.52;
bin_libsmbsharemodes_vc4083.cnf.proof;361;4019;38001;42020;2854;1707;289;361;3913;18048;21961;2516;1392;130;0;0;0;0.00;47.74;2.64;52.51;0;19746;0;0;9760;1.94;1838.57;
c4_DD_s3_f1_e2_v1-bug-onevec-gate-0.dimacs.seq.filtered.cnf.proof;7;81;80;161;0;6;3;7;81;80;161;0;6;3;0;0;0;0.00;0.00;0.00;0.00;0;0;0;0;9760;0.05;179.76;
c6bidw_s.cnf.proof;97;6101;32187;38288;4035;632;128;95;6041;26270;32311;3843;466;79;0;0;0;2.06;15.61;0.98;18.38;0;4861;0;0;9760;1.48;951.41;
c6n_s.cnf.proof;55;517;1323;1840;329;172;56;55;517;1084;1601;310;102;20;0;0;0;0.00;12.99;0.00;18.07;0;236;0;0;9760;0.29;190.44;
c6_DD_s3_f1_e1_v1-bug-fourvec-gate-0.dimacs.seq.filtered.cnf.proof;12;66;65;131;0;11;5;12;66;65;131;0;11;5;0;0;0;0.00;0.00;0.00;0.00;0;0;0;0;9760;0.05;148.08;
c6_DD_s3_f1_e1_v1-bug-gate-0.dimacs.seq.filtered.cnf.proof;12;66;65;131;0;11;5;12;66;65;131;0;11;5;0;0;0;0.00;0.00;0.00;0.00;0;0;0;0;9760;0.05;148.08;
c7b_s.cnf.proof;57;762;2190;2952;529;241;64;57;762;1979;2741;511;163;30;0;0;0;0.00;7.15;0.00;9.63;0;211;0;0;9760;0.38;243.46;
c7n_s.cnf.proof;57;766;2053;2819;520;231;66;54;762;1859;2621;501;155;24;0;0;0;5.26;7.02;0.52;9.45;0;193;0;0;9760;0.32;243.46;
c8idw_s.cnf.proof;202;7793;283095;290888;7718;9315;1001;180;7736;172184;179920;6715;5151;283;0;0;0;10.89;38.15;0.73;39.18;0;50341;0;0;9760;6.93;3142.70;
c499_gr_2pin_w5.shuffled.cnf.proof;24;105;1566;1671;246;927;207;24;105;1333;1438;229;749;50;0;0;0;0.00;13.94;0.00;14.88;0;217;0;0;9760;0.33;205.67;
c2670.cnf.proof;296;6429;101149;107578;7307;6045;645;288;6401;66808;73209;6818;3824;191;0;0;0;2.70;31.95;0.44;33.95;0;14637;0;0;9760;2.81;4905.65;
c5315-s.cnf.proof;t/o;
c7552-bug-gate-0.dimacs.seq.filtered.cnf.proof;37;288;287;575;0;36;7;37;288;287;575;0;36;7;0;0;0;0.00;0.00;0.00;0.00;0;0;0;0;9760;0.12;148.08;
dividers3.dimacs.filtered.cnf.proof;14;152;151;303;0;13;5;14;152;151;303;0;13;5;0;0;0;0.00;0.00;0.00;0.00;0;0;0;0;9760;0.11;148.08;
dividers7.dimacs.filtered.cnf.proof;61;719;718;1437;0;60;9;61;719;718;1437;0;60;9;0;0;0;0.00;0.00;0.00;0.00;0;0;0;0;9760;0.17;190.33;
dividers9.dimacs.filtered.cnf.proof;147;1426;1425;2851;0;146;12;147;1426;1425;2851;0;146;12;0;0;0;0.00;0.00;0.00;0.00;0;0;0;0;9760;0.49;317.25;
dividers11.dimacs.filtered.cnf.proof;55;616;615;1231;0;54;8;55;616;615;1231;0;54;8;0;0;0;0.00;0.00;0.00;0.00;0;0;0;0;9760;0.26;179.84;
divider-problem.dimacs_1.filtered.cnf.proof;136;2556;2555;5111;0;135;12;136;2556;2555;5111;0;135;12;0;0;0;0.00;0.00;0.00;0.00;0;0;0;0;9760;0.70;456.14;
divider-problem.dimacs_2.filtered.cnf.proof;346;6841;6840;13681;0;345;18;346;6841;6840;13681;0;345;18;0;0;0;0.00;0.00;0.00;0.00;0;0;0;0;9760;1.95;339.33;
divider-problem.dimacs_5.filtered.cnf.proof;196;4741;4740;9481;0;195;14;196;4741;4740;9481;0;195;14;0;0;0;0.00;0.00;0.00;0.00;0;0;0;0;9760;1.16;291.07;
divider-problem.dimacs_7.filtered.cnf.proof;471;9302;9301;18603;0;470;21;471;9302;9301;18603;0;470;21;0;0;0;0.00;0.00;0.00;0.00;0;0;0;0;9760;3.94;1244.18;
divider-problem.dimacs_9.filtered.cnf.proof;135;2685;2684;5369;0;134;12;135;2685;2684;5369;0;134;12;0;0;0;0.00;0.00;0.00;0.00;0;0;0;0;9760;0.74;486.15;
dlx2_aa.cnf.proof;248;1118;30364;31482;2072;7731;1419;243;1099;23438;24537;1908;5181;458;0;0;0;2.02;22.06;1.70;22.81;0;5350;0;0;9760;1.32;1860.51;
dlx2_ca.cnf.proof;t/o;
dspam_dump_vc962.cnf.proof;106;1071;1521;2592;371;168;31;106;1069;1505;2574;363;169;34;0;0;0;0.00;0.69;0.19;1.05;0;15;0;0;9760;0.31;264.51;
edn_5371_10.cnf_0.46000000.unsat.cnf.proof;57;338;337;675;0;56;8;57;338;337;675;0;56;8;0;0;0;0.00;0.00;0.00;0.00;0;0;0;0;9760;0.15;397.92;
edn_5371_12.cnf_0.50000000.unsat.cnf.proof;58;587;586;1173;0;57;8;58;587;586;1173;0;57;8;0;0;0;0.00;0.00;0.00;0.00;0;0;0;0;9760;0.20;452.15;
edn_9789_6.cnf_0.31000000.unsat.cnf.proof;52;943;1372;2315;126;51;8;52;943;981;1924;27;51;8;0;0;0;0.00;16.89;0.00;28.50;0;391;0;0;9760;0.30;264.26;
edn_9789_8.cnf_0.51000000.unsat.cnf.proof;78;2403;2786;5189;299;77;9;78;2403;2428;4831;20;77;9;0;0;0;0.00;6.90;0.00;12.85;0;358;0;0;9760;0.52;447.73;
edn_20259_8.cnf_0.39000000.unsat.cnf.proof;18;99;98;197;0;17;5;18;99;98;197;0;17;5;0;0;0;0.00;0.00;0.00;0.00;0;0;0;0;9760;0.05;327.63;
edn_20259_10.cnf_0.48000000.unsat.cnf.proof;47;330;329;659;0;46;8;47;330;329;659;0;46;8;0;0;0;0.00;0.00;0.00;0.00;0;0;0;0;9760;0.12;397.94;
edn_20403_8.cnf_0.03000000.unsat.cnf.proof;41;329;328;657;0;40;7;41;329;328;657;0;40;7;0;0;0;0.00;0.00;0.00;0.00;0;0;0;0;9760;0.13;158.64;
edn_20403_10.cnf_0.03000000.unsat.cnf.proof;28;175;174;349;0;27;6;28;175;174;349;0;27;6;0;0;0;0.00;0.00;0.00;0.00;0;0;0;0;9760;0.07;158.64;
edn_20403_12.cnf_0.08000000.unsat.cnf.proof;111;1205;2402;3607;692;131;15;111;1196;1303;2499;103;111;17;0;0;0;0.00;30.72;0.75;45.75;0;1046;0;0;9760;0.34;296.10;
edn_22134_8.cnf_0.38000000.unsat.cnf.proof;58;818;817;1635;0;57;8;58;818;817;1635;0;57;8;0;0;0;0.00;0.00;0.00;0.00;0;0;0;0;9760;0.30;375.37;
edn_22134_10.cnf_0.47000000.unsat.cnf.proof;107;1404;1403;2807;0;106;11;107;1404;1403;2807;0;106;11;0;0;0;0.00;0.00;0.00;0.00;0;0;0;0;9760;0.85;496.66;
edn_24095_8.cnf_0.21000000.unsat.cnf.proof;30;437;436;873;0;29;6;30;437;436;873;0;29;6;0;0;0;0.00;0.00;0.00;0.00;0;0;0;0;9760;0.16;343.67;
edn_28491_6.cnf_0.31000000.unsat.cnf.proof;22;240;239;479;0;21;6;22;240;239;479;0;21;6;0;0;0;0.00;0.00;0.00;0.00;0;0;0;0;9760;0.11;285.38;
edn_28491_10.cnf_0.46000000.unsat.cnf.proof;86;1400;1399;2799;0;85;10;86;1400;1399;2799;0;85;10;0;0;0;0.00;0.00;0.00;0.00;0;0;0;0;9760;0.84;486.08;
edn_28491_12.cnf_0.50000000.unsat.cnf.proof;137;1419;1418;2837;0;136;12;137;1419;1418;2837;0;136;12;0;0;0;0.00;0.00;0.00;0.00;0;0;0;0;9760;0.33;364.86;
elf.rf7.ucl.sat.chaff.4.1.bryant.cnf.proof;76;554;1480;2034;390;286;84;76;552;1344;1896;368;244;41;0;0;0;0.00;6.78;0.36;9.19;0;136;0;0;9760;0.31;254.14;
example2_gr_rcs_w5.shuffled.cnf.proof;48;209;1942;2151;264;221;51;32;157;1503;1660;209;107;17;0;0;0;33.33;22.83;24.88;22.61;0;205;0;0;9760;0.34;243.60;
fdmus_b17_1037.cnf.proof;875;7039;98857;105896;5586;11701;907;841;6844;77107;83951;5139;9383;206;0;0;0;3.89;20.72;2.77;22.00;0;12876;0;0;9760;10.29;1025.84;
fifo4_33.cnf.proof;225;3530;44029;47559;2756;1230;186;196;3324;9866;13190;2084;672;73;0;0;0;12.89;72.27;5.84;77.59;0;28841;0;0;9760;1.27;1213.85;
fpu1-problem.dimacs_13.filtered.cnf.proof;5;118;117;235;0;4;3;5;118;117;235;0;4;3;0;0;0;0.00;0.00;0.00;0.00;0;0;0;0;9760;0.07;158.64;
g6b.cnf.proof;765;8809;224705;233514;9924;22523;1759;719;8636;146162;154798;9089;11750;351;0;0;0;6.01;33.71;1.96;34.95;0;38974;0;0;9760;6.89;4180.84;
g6n.cnf.proof;632;8810;188669;197479;9416;9915;837;570;8575;134717;143292;8708;5482;158;0;0;0;9.81;27.44;2.67;28.60;0;34908;0;0;9760;9.28;823.72;
hsat_vc12016.cnf.proof;15;332;388;720;29;14;6;15;332;332;664;1;14;6;0;0;0;0.00;7.78;0.00;14.43;0;56;0;0;9760;0.09;190.33;
hsat_vc12070.cnf.proof;14;330;384;714;25;13;5;14;330;331;661;2;13;5;0;0;0;0.00;7.42;0.00;13.80;0;53;0;0;9760;0.15;200.89;
hsat_vc12072.cnf.proof;13;339;414;753;38;12;5;13;329;345;674;17;12;5;0;0;0;0.00;10.49;2.95;16.67;0;65;0;0;9760;0.13;211.45;
itox_vc965.cnf.proof;79;606;605;1211;0;78;9;79;606;605;1211;0;78;9;0;0;0;0.00;0.00;0.00;0.00;0;0;0;0;9760;0.21;200.90;
itox_vc1216.cnf.proof;71;613;612;1225;0;70;10;71;613;612;1225;0;70;10;0;0;0;0.00;0.00;0.00;0.00;0;0;0;0;9760;0.18;211.47;
mem_ctrl-debug.dimacs.cnf.proof;16;118;117;235;0;15;5;16;118;117;235;0;15;5;0;0;0;0.00;0.00;0.00;0.00;0;0;0;0;9760;0.05;190.33;
mrisc_mem2wire-problem.dimacs_29.filtered.cnf.proof;105;1938;1937;3875;0;104;11;105;1938;1937;3875;0;104;11;0;0;0;0.00;0.00;0.00;0.00;0;0;0;0;9760;0.52;309.45;
ooo.rf8.ucl.sat.chaff.4.1.bryant.cnf.proof;751;6426;124708;131134;5974;6975;720;649;6162;88551;94713;5640;4760;245;0;0;0;13.58;27.77;4.11;28.99;0;28580;0;0;9760;6.14;1879.88;
ooo.tag10.ucl.sat.chaff.4.1.bryant.cnf.proof;332;2471;87529;90000;2528;5868;511;323;2444;55435;57879;2470;4925;159;0;0;0;2.71;35.69;1.09;36.67;0;31094;0;0;9760;2.96;956.84;
queueinvar4.cnf.proof;164;814;8318;9132;844;2286;291;161;807;7036;7843;818;1894;92;0;0;0;1.83;14.12;0.86;15.41;0;824;0;0;9760;0.67;180.44;
queueinvar8.cnf.proof;355;2043;45790;47833;2272;12691;1609;351;2031;33415;35446;2190;8964;383;0;0;0;1.13;25.90;0.59;27.03;0;6159;0;0;9760;2.65;1536.91;
queueinvar12.cnf.proof;t/o;
queueinvar14.cnf.proof;t/o;
rsdecoder_multivec1.dimacs.filtered.cnf.proof;229;3459;3458;6917;0;228;15;229;3459;3458;6917;0;228;15;0;0;0;0.00;0.00;0.00;0.00;0;0;0;0;9760;1.34;597.08;
s38584-bug-onevec-gate-0.dimacs.seq.filtered.cnf.proof;33;577;576;1153;0;32;7;33;577;576;1153;0;32;7;0;0;0;0.00;0.00;0.00;0.00;0;0;0;0;9760;0.14;243.13;
ssa2670-129.cnf.proof;86;825;2851;3676;634;274;87;79;818;2175;2993;563;183;28;0;0;0;8.14;18.58;0.85;23.71;0;644;0;0;9760;0.35;243.47;
ssa2670-132.cnf.proof;86;825;2819;3644;634;274;87;79;818;2175;2993;563;183;28;0;0;0;8.14;17.86;0.85;22.84;0;612;0;0;9760;0.36;243.38;
ssa2670-133.cnf.proof;75;902;3829;4731;714;447;93;72;860;2356;3216;547;216;45;0;0;0;4.00;32.02;4.66;38.47;0;1095;0;0;9760;0.41;488.58;
ssa2670-140.cnf.proof;126;1334;7582;8916;1320;846;121;125;1324;5365;6689;1178;685;76;0;0;0;0.79;24.98;0.75;29.24;0;526;0;0;9760;0.57;297.37;
too_large_gr_rcs_w6.shuffled.cnf.proof;211;1771;68717;70488;2506;2423;365;206;1678;59159;60837;2283;1972;152;0;0;0;2.37;13.69;5.25;13.91;0;7017;0;0;9760;3.18;4011.13;
w10_45.shuffled.cnf.proof;t/o;
wb_4m8s1.dimacs.filtered.cnf.proof;32;209;208;417;0;31;7;32;209;208;417;0;31;7;0;0;0;0.00;0.00;0.00;0.00;0;0;0;0;9760;0.09;158.65;
wb_conmax3.dimacs.filtered.cnf.proof;58;374;373;747;0;57;8;58;374;373;747;0;57;8;0;0;0;0.00;0.00;0.00;0.00;0;0;0;0;9760;0.10;200.90;
