Thu Mar 20 17:59:39 EDT 2014;mode --min-vars -t 0 --abc ../alanmi-abc-738118bdd039/abc --abc-cmds ../scripts/abc_cmds.txt --dont-suppress --set-seed 21914
name;#vars (unmin); #leafs (unmin); #internal (unmin); proof size (unmin); #joins (unmin); #ands (unmin); #levs (unmin);#vars (min); #leafs (min); #internal (min); proof size (min); #joins (min); #ands (min); #levs (min);#learnts;leafs after allRm (overapproximation); internal after allRm (overapproximation); vars improvement (%); size improvement (%); leafs improvement (%); internal improvement (%); subsumptions; tautologies; suppressed replacements; replacements; random seed; time (s); initial mem usage (MB);
9symml_gr_2pin_w5.shuffled.cnf.proof;66;255;5500;5755;386;2465;472;64;253;4378;4631;366;1863;131;0;0;0;3.03;19.53;0.78;20.40;0;1088;0;0;21914;0.46;440.28;
C210_FW_UT_8630.cnf.proof;14;41;82;123;21;24;11;14;41;64;105;17;18;11;0;0;0;0.00;14.63;0.00;21.95;0;18;0;0;21914;0.06;137.52;
apex7_gr_2pin_w4.shuffled.cnf.proof;13;48;301;349;73;170;29;13;48;242;290;66;127;15;0;0;0;0.00;16.91;0.00;19.60;0;58;0;0;21914;0.09;179.94;
barrel2.cnf.proof;28;77;168;245;54;50;14;28;77;164;241;50;50;14;0;0;0;0.00;1.63;0.00;2.38;0;4;0;0;21914;0.06;137.52;
bf1355-123.cnf.proof;11;159;500;659;144;27;11;11;159;433;592;136;25;10;0;0;0;0.00;10.17;0.00;13.40;0;67;0;0;21914;0.13;148.09;
bf1355-127.cnf.proof;15;147;445;592;117;38;13;15;147;368;515;107;35;12;0;0;0;0.00;13.01;0.00;17.30;0;69;0;0;21914;0.17;148.09;
bf1355-227.cnf.proof;14;81;126;207;35;21;9;14;81;105;186;20;19;9;0;0;0;0.00;10.14;0.00;16.67;0;21;0;0;21914;0.07;137.52;
bf1355-228.cnf.proof;11;83;134;217;42;13;6;11;83;110;193;27;13;6;0;0;0;0.00;11.06;0.00;17.91;0;24;0;0;21914;0.07;137.52;
bf1355-359.cnf.proof;18;147;427;574;135;57;19;18;147;380;527;126;45;13;0;0;0;0.00;8.19;0.00;11.01;0;47;0;0;21914;0.17;148.08;
bf1355-445.cnf.proof;15;155;386;541;129;37;11;15;155;334;489;121;34;11;0;0;0;0.00;9.61;0.00;13.47;0;52;0;0;21914;0.11;148.08;
bf1355-446.cnf.proof;17;153;359;512;115;34;21;17;153;338;491;108;37;19;0;0;0;0.00;4.10;0.00;5.85;0;21;0;0;21914;0.10;148.09;
bf1355-462.cnf.proof;14;157;307;464;88;22;10;14;157;258;415;76;19;10;0;0;0;0.00;10.56;0.00;15.96;0;49;0;0;21914;0.08;137.52;
bf1355-466.cnf.proof;18;149;287;436;89;42;16;18;149;263;412;81;39;16;0;0;0;0.00;5.50;0.00;8.36;0;24;0;0;21914;0.09;148.09;
bf1355-530.cnf.proof;11;83;137;220;45;14;9;11;83;108;191;26;14;9;0;0;0;0.00;13.18;0.00;21.17;0;29;0;0;21914;0.05;137.52;
bf1355-598.cnf.proof;15;153;300;453;85;24;9;15;153;254;407;73;22;10;0;0;0;0.00;10.15;0.00;15.33;0;46;0;0;21914;0.09;137.52;
bf1355-621.cnf.proof;12;79;139;218;47;18;9;12;79;123;202;39;21;11;0;0;0;0.00;7.34;0.00;11.51;0;16;0;0;21914;0.05;137.52;
bf1355-665.cnf.proof;11;117;197;314;56;17;9;11;117;166;283;46;17;10;0;0;0;0.00;9.87;0.00;15.74;0;31;0;0;21914;0.06;137.52;
bf1355-666.cnf.proof;14;115;230;345;65;22;12;14;115;181;296;46;20;10;0;0;0;0.00;14.20;0.00;21.30;0;49;0;0;21914;0.07;137.52;
bf1355-741.cnf.proof;11;83;144;227;50;13;9;11;83;113;196;29;13;9;0;0;0;0.00;13.66;0.00;21.53;0;31;0;0;21914;0.05;137.52;
bin_libsmbsharemodes_vc4083.cnf.proof;77;4019;38001;42020;2854;93;72;75;3913;18048;21961;2516;76;16;0;0;0;2.60;47.74;2.64;52.51;0;19746;0;0;21914;1.79;1171.23;
c4_DD_s3_f1_e2_v1-bug-onevec-gate-0.dimacs.seq.filtered.cnf.proof;10;81;80;161;0;9;4;10;81;80;161;0;9;4;0;0;0;0.00;0.00;0.00;0.00;0;0;0;0;21914;0.03;179.77;
c6bidw_s.cnf.proof;132;6101;32187;38288;4035;2228;404;131;6041;26270;32311;3843;1711;127;0;0;0;0.76;15.61;0.98;18.38;0;4861;0;0;21914;1.33;464.76;
c6n_s.cnf.proof;50;517;1323;1840;329;151;53;50;517;1084;1601;310;90;18;0;0;0;0.00;12.99;0.00;18.07;0;236;0;0;21914;0.19;190.37;
c6_DD_s3_f1_e1_v1-bug-fourvec-gate-0.dimacs.seq.filtered.cnf.proof;12;66;65;131;0;11;5;12;66;65;131;0;11;5;0;0;0;0.00;0.00;0.00;0.00;0;0;0;0;21914;0.03;148.08;
c6_DD_s3_f1_e1_v1-bug-gate-0.dimacs.seq.filtered.cnf.proof;12;66;65;131;0;11;5;12;66;65;131;0;11;5;0;0;0;0.00;0.00;0.00;0.00;0;0;0;0;21914;0.03;148.08;
c7b_s.cnf.proof;54;762;2190;2952;529;165;51;54;762;1979;2741;511;108;20;0;0;0;0.00;7.15;0.00;9.63;0;211;0;0;21914;0.25;222.21;
c7n_s.cnf.proof;74;766;2053;2819;520;359;102;72;762;1859;2621;501;227;28;0;0;0;2.70;7.02;0.52;9.45;0;193;0;0;21914;0.26;285.99;
c8idw_s.cnf.proof;230;7793;283095;290888;7718;9918;1073;205;7736;172184;179920;6715;5502;289;0;0;0;10.87;38.15;0.73;39.18;0;50341;0;0;21914;9.61;2743.27;
c499_gr_2pin_w5.shuffled.cnf.proof;24;105;1566;1671;246;1214;263;24;105;1333;1438;229;1000;70;0;0;0;0.00;13.94;0.00;14.88;0;217;0;0;21914;0.27;171.18;
c2670.cnf.proof;303;6429;101149;107578;7307;6190;603;297;6401;66808;73209;6818;3918;198;0;0;0;1.98;31.95;0.44;33.95;0;14637;0;0;21914;4.17;4796.26;
c5315-s.cnf.proof;t/o;
c7552-bug-gate-0.dimacs.seq.filtered.cnf.proof;39;288;287;575;0;38;7;39;288;287;575;0;38;7;0;0;0;0.00;0.00;0.00;0.00;0;0;0;0;21914;0.12;148.08;
dividers3.dimacs.filtered.cnf.proof;27;152;151;303;0;26;6;27;152;151;303;0;26;6;0;0;0;0.00;0.00;0.00;0.00;0;0;0;0;21914;0.11;158.64;
dividers7.dimacs.filtered.cnf.proof;58;719;718;1437;0;57;8;58;719;718;1437;0;57;8;0;0;0;0.00;0.00;0.00;0.00;0;0;0;0;21914;0.24;190.33;
dividers9.dimacs.filtered.cnf.proof;133;1426;1425;2851;0;132;12;133;1426;1425;2851;0;132;12;0;0;0;0.00;0.00;0.00;0.00;0;0;0;0;21914;0.30;295.99;
dividers11.dimacs.filtered.cnf.proof;61;616;615;1231;0;60;9;61;616;615;1231;0;60;9;0;0;0;0.00;0.00;0.00;0.00;0;0;0;0;21914;0.20;179.87;
divider-problem.dimacs_1.filtered.cnf.proof;138;2556;2555;5111;0;137;12;138;2556;2555;5111;0;137;12;0;0;0;0.00;0.00;0.00;0.00;0;0;0;0;21914;0.59;456.08;
divider-problem.dimacs_2.filtered.cnf.proof;344;6841;6840;13681;0;343;18;344;6841;6840;13681;0;343;18;0;0;0;0.00;0.00;0.00;0.00;0;0;0;0;21914;2.11;318.24;
divider-problem.dimacs_5.filtered.cnf.proof;186;4741;4740;9481;0;185;14;186;4741;4740;9481;0;185;14;0;0;0;0.00;0.00;0.00;0.00;0;0;0;0;21914;1.34;290.55;
divider-problem.dimacs_7.filtered.cnf.proof;518;9302;9301;18603;0;517;22;518;9302;9301;18603;0;517;22;0;0;0;0.00;0.00;0.00;0.00;0;0;0;0;21914;4.23;1330.08;
divider-problem.dimacs_9.filtered.cnf.proof;151;2685;2684;5369;0;150;13;151;2685;2684;5369;0;150;13;0;0;0;0.00;0.00;0.00;0.00;0;0;0;0;21914;0.65;496.81;
dlx2_aa.cnf.proof;224;1118;30364;31482;2072;10067;1977;220;1099;23438;24537;1908;6440;639;0;0;0;1.79;22.06;1.70;22.81;0;5350;0;0;21914;1.66;565.82;
dlx2_ca.cnf.proof;t/o;
dspam_dump_vc962.cnf.proof;20;1071;1521;2592;371;18;6;20;1069;1505;2574;363;18;6;0;0;0;0.00;0.69;0.19;1.05;0;15;0;0;21914;0.26;211.45;
edn_5371_10.cnf_0.46000000.unsat.cnf.proof;57;338;337;675;0;56;8;57;338;337;675;0;56;8;0;0;0;0.00;0.00;0.00;0.00;0;0;0;0;21914;0.10;397.93;
edn_5371_12.cnf_0.50000000.unsat.cnf.proof;58;587;586;1173;0;57;8;58;587;586;1173;0;57;8;0;0;0;0.00;0.00;0.00;0.00;0;0;0;0;21914;0.14;452.15;
edn_9789_6.cnf_0.31000000.unsat.cnf.proof;91;943;1372;2315;126;90;10;91;943;981;1924;27;90;10;0;0;0;0.00;16.89;0.00;28.50;0;391;0;0;21914;0.22;285.45;
edn_9789_8.cnf_0.51000000.unsat.cnf.proof;33;2403;2786;5189;299;32;7;33;2403;2428;4831;20;32;7;0;0;0;0.00;6.90;0.00;12.85;0;358;0;0;21914;0.41;426.58;
edn_20259_8.cnf_0.39000000.unsat.cnf.proof;18;99;98;197;0;17;5;18;99;98;197;0;17;5;0;0;0;0.00;0.00;0.00;0.00;0;0;0;0;21914;0.05;327.63;
edn_20259_10.cnf_0.48000000.unsat.cnf.proof;37;330;329;659;0;36;7;37;330;329;659;0;36;7;0;0;0;0.00;0.00;0.00;0.00;0;0;0;0;21914;0.08;387.35;
edn_20403_8.cnf_0.03000000.unsat.cnf.proof;39;329;328;657;0;38;7;39;329;328;657;0;38;7;0;0;0;0.00;0.00;0.00;0.00;0;0;0;0;21914;0.09;158.64;
edn_20403_10.cnf_0.03000000.unsat.cnf.proof;18;175;174;349;0;17;5;18;175;174;349;0;17;5;0;0;0;0.00;0.00;0.00;0.00;0;0;0;0;21914;0.07;158.64;
edn_20403_12.cnf_0.08000000.unsat.cnf.proof;107;1205;2402;3607;692;122;15;107;1196;1303;2499;103;107;17;0;0;0;0.00;30.72;0.75;45.75;0;1046;0;0;21914;0.29;285.51;
edn_22134_8.cnf_0.38000000.unsat.cnf.proof;82;818;817;1635;0;81;10;82;818;817;1635;0;81;10;0;0;0;0.00;0.00;0.00;0.00;0;0;0;0;21914;0.22;385.95;
edn_22134_10.cnf_0.47000000.unsat.cnf.proof;107;1404;1403;2807;0;106;11;107;1404;1403;2807;0;106;11;0;0;0;0.00;0.00;0.00;0.00;0;0;0;0;21914;0.79;496.69;
edn_24095_8.cnf_0.21000000.unsat.cnf.proof;42;437;436;873;0;41;7;42;437;436;873;0;41;7;0;0;0;0.00;0.00;0.00;0.00;0;0;0;0;21914;0.12;343.67;
edn_28491_6.cnf_0.31000000.unsat.cnf.proof;36;240;239;479;0;35;7;36;240;239;479;0;35;7;0;0;0;0.00;0.00;0.00;0.00;0;0;0;0;21914;0.08;285.38;
edn_28491_10.cnf_0.46000000.unsat.cnf.proof;132;1400;1399;2799;0;131;12;132;1400;1399;2799;0;131;12;0;0;0;0.00;0.00;0.00;0.00;0;0;0;0;21914;0.77;507.28;
edn_28491_12.cnf_0.50000000.unsat.cnf.proof;104;1419;1418;2837;0;103;11;104;1419;1418;2837;0;103;11;0;0;0;0.00;0.00;0.00;0.00;0;0;0;0;21914;0.26;354.20;
elf.rf7.ucl.sat.chaff.4.1.bryant.cnf.proof;65;554;1480;2034;390;238;87;65;552;1344;1896;368;190;38;0;0;0;0.00;6.78;0.36;9.19;0;136;0;0;21914;0.23;211.58;
example2_gr_rcs_w5.shuffled.cnf.proof;42;209;1942;2151;264;247;54;32;157;1503;1660;209;135;21;0;0;0;23.81;22.83;24.88;22.61;0;205;0;0;21914;0.23;264.74;
fdmus_b17_1037.cnf.proof;818;7039;98857;105896;5586;7001;479;791;6844;77107;83951;5139;5688;153;0;0;0;3.30;20.72;2.77;22.00;0;12876;0;0;21914;6.77;3139.56;
fifo4_33.cnf.proof;171;3530;44029;47559;2756;809;123;158;3324;9866;13190;2084;420;52;0;0;0;7.60;72.27;5.84;77.59;0;28841;0;0;21914;1.51;1175.40;
fpu1-problem.dimacs_13.filtered.cnf.proof;6;118;117;235;0;5;3;6;118;117;235;0;5;3;0;0;0;0.00;0.00;0.00;0.00;0;0;0;0;21914;0.05;158.64;
g6b.cnf.proof;t/o;
g6n.cnf.proof;481;8810;188669;197479;9416;10611;536;439;8575;134717;143292;8708;6250;185;0;0;0;8.73;27.44;2.67;28.60;0;34908;0;0;21914;8.22;2183.20;
hsat_vc12016.cnf.proof;13;332;388;720;29;12;6;13;332;332;664;1;12;6;0;0;0;0.00;7.78;0.00;14.43;0;56;0;0;21914;0.10;190.33;
hsat_vc12070.cnf.proof;29;330;384;714;25;28;7;29;330;331;661;2;28;7;0;0;0;0.00;7.42;0.00;13.80;0;53;0;0;21914;0.10;200.89;
hsat_vc12072.cnf.proof;10;339;414;753;38;9;9;10;329;345;674;17;9;9;0;0;0;0.00;10.49;2.95;16.67;0;65;0;0;21914;0.10;211.45;
itox_vc965.cnf.proof;80;606;605;1211;0;79;9;80;606;605;1211;0;79;9;0;0;0;0.00;0.00;0.00;0.00;0;0;0;0;21914;0.16;200.90;
itox_vc1216.cnf.proof;90;613;612;1225;0;89;11;90;613;612;1225;0;89;11;0;0;0;0.00;0.00;0.00;0.00;0;0;0;0;21914;0.15;211.45;
mem_ctrl-debug.dimacs.cnf.proof;14;118;117;235;0;13;5;14;118;117;235;0;13;5;0;0;0;0.00;0.00;0.00;0.00;0;0;0;0;21914;0.05;190.33;
mrisc_mem2wire-problem.dimacs_29.filtered.cnf.proof;114;1938;1937;3875;0;113;11;114;1938;1937;3875;0;113;11;0;0;0;0.00;0.00;0.00;0.00;0;0;0;0;21914;0.35;309.72;
ooo.rf8.ucl.sat.chaff.4.1.bryant.cnf.proof;974;6426;124708;131134;5974;18302;1898;907;6162;88551;94713;5640;11800;507;0;0;0;6.88;27.77;4.11;28.99;0;28580;0;0;21914;12.81;4955.40;
ooo.tag10.ucl.sat.chaff.4.1.bryant.cnf.proof;343;2471;87529;90000;2528;5098;540;334;2444;55435;57879;2470;4140;145;0;0;0;2.62;35.69;1.09;36.67;0;31094;0;0;21914;3.24;3656.78;
queueinvar4.cnf.proof;159;814;8318;9132;844;2679;320;159;807;7036;7843;818;2177;118;0;0;0;0.00;14.12;0.86;15.41;0;824;0;0;21914;0.67;2020.03;
queueinvar8.cnf.proof;357;2043;45790;47833;2272;13034;1648;353;2031;33415;35446;2190;9211;388;0;0;0;1.12;25.90;0.59;27.03;0;6159;0;0;21914;3.04;1353.20;
queueinvar12.cnf.proof;t/o;
queueinvar14.cnf.proof;t/o;
rsdecoder_multivec1.dimacs.filtered.cnf.proof;196;3459;3458;6917;0;195;14;196;3459;3458;6917;0;195;14;0;0;0;0.00;0.00;0.00;0.00;0;0;0;0;21914;0.97;575.87;
s38584-bug-onevec-gate-0.dimacs.seq.filtered.cnf.proof;40;577;576;1153;0;39;7;40;577;576;1153;0;39;7;0;0;0;0.00;0.00;0.00;0.00;0;0;0;0;21914;0.14;243.13;
ssa2670-129.cnf.proof;57;825;2851;3676;634;202;59;57;818;2175;2993;563;98;19;0;0;0;0.00;18.58;0.85;23.71;0;644;0;0;21914;0.28;232.79;
ssa2670-132.cnf.proof;57;825;2819;3644;634;202;59;57;818;2175;2993;563;98;19;0;0;0;0.00;17.86;0.85;22.84;0;612;0;0;21914;0.26;232.81;
ssa2670-133.cnf.proof;98;902;3829;4731;714;510;110;86;860;2356;3216;547;269;46;0;0;0;12.24;32.02;4.66;38.47;0;1095;0;0;21914;0.31;477.82;
ssa2670-140.cnf.proof;70;1334;7582;8916;1320;415;92;69;1324;5365;6689;1178;280;41;0;0;0;1.43;24.98;0.75;29.24;0;526;0;0;21914;0.45;148.63;
too_large_gr_rcs_w6.shuffled.cnf.proof;204;1771;68717;70488;2506;15283;1627;204;1678;59159;60837;2283;12665;566;0;0;0;0.00;13.69;5.25;13.91;0;7017;0;0;21914;3.59;918.25;
w10_45.shuffled.cnf.proof;1502;13121;459436;472557;12867;23735;2187;1353;12090;285595;297685;11741;16705;546;0;0;0;9.92;37.01;7.86;37.84;0;105060;0;0;21914;53.12;8135.98;
wb_4m8s1.dimacs.filtered.cnf.proof;28;209;208;417;0;27;6;28;209;208;417;0;27;6;0;0;0;0.00;0.00;0.00;0.00;0;0;0;0;21914;0.08;158.66;
wb_conmax3.dimacs.filtered.cnf.proof;69;374;373;747;0;68;9;69;374;373;747;0;68;9;0;0;0;0.00;0.00;0.00;0.00;0;0;0;0;21914;0.10;200.89;
