Thu Mar 20 15:33:54 EDT 2014;mode --min-vars -t 0 --abc ../alanmi-abc-738118bdd039/abc --abc-cmds ../scripts/abc_cmds.txt --set-seed 16462
name;#vars (unmin); #leafs (unmin); #internal (unmin); proof size (unmin); #joins (unmin); #ands (unmin); #levs (unmin);#vars (min); #leafs (min); #internal (min); proof size (min); #joins (min); #ands (min); #levs (min);#learnts;leafs after allRm (overapproximation); internal after allRm (overapproximation); vars improvement (%); size improvement (%); leafs improvement (%); internal improvement (%); subsumptions; tautologies; suppressed replacements; replacements; random seed; time (s); initial mem usage (MB);
9symml_gr_2pin_w5.shuffled.cnf.proof;61;255;5500;5755;386;2722;470;60;253;4537;4790;371;2176;187;0;0;0;1.64;16.77;0.78;17.51;0;918;0;0;16462;0.37;794.47;
C210_FW_UT_8630.cnf.proof;13;41;82;123;21;22;10;13;41;66;107;18;22;10;0;0;0;0.00;13.01;0.00;19.51;0;16;0;0;16462;0.03;137.52;
apex7_gr_2pin_w4.shuffled.cnf.proof;14;48;301;349;73;173;36;14;48;251;299;69;144;21;0;0;0;0.00;14.33;0.00;16.61;0;50;0;0;16462;0.09;179.86;
barrel2.cnf.proof;24;77;168;245;54;35;13;24;77;164;241;50;36;13;0;0;0;0.00;1.63;0.00;2.38;0;4;0;0;16462;0.06;137.52;
bf1355-123.cnf.proof;25;159;500;659;144;87;34;25;159;445;604;139;80;26;0;0;0;0.00;8.35;0.00;11.00;0;55;0;0;16462;0.18;148.08;
bf1355-127.cnf.proof;18;147;445;592;117;64;24;18;147;377;524;109;57;15;0;0;0;0.00;11.49;0.00;15.28;0;60;0;0;16462;0.13;148.08;
bf1355-227.cnf.proof;14;81;126;207;35;21;10;14;81;105;186;20;21;10;0;0;0;0.00;10.14;0.00;16.67;0;21;0;0;16462;0.05;137.52;
bf1355-228.cnf.proof;11;83;134;217;42;12;9;11;83;111;194;28;11;7;0;0;0;0.00;10.60;0.00;17.16;0;23;0;0;16462;0.04;137.52;
bf1355-359.cnf.proof;20;147;427;574;135;90;25;20;147;392;539;130;76;18;0;0;0;0.00;6.10;0.00;8.20;0;35;0;0;16462;0.17;148.08;
bf1355-445.cnf.proof;16;155;386;541;129;38;11;16;155;341;496;123;38;11;0;0;0;0.00;8.32;0.00;11.66;0;45;0;0;16462;0.13;148.08;
bf1355-446.cnf.proof;15;153;359;512;115;39;13;15;153;341;494;110;37;16;0;0;0;0.00;3.52;0.00;5.01;0;18;0;0;16462;0.15;148.08;
bf1355-462.cnf.proof;11;157;307;464;88;20;7;11;157;258;415;76;19;7;0;0;0;0.00;10.56;0.00;15.96;0;49;0;0;16462;0.10;137.52;
bf1355-466.cnf.proof;14;149;287;436;89;21;10;14;149;263;412;81;20;10;0;0;0;0.00;5.50;0.00;8.36;0;24;0;0;16462;0.13;137.52;
bf1355-530.cnf.proof;11;83;137;220;45;15;11;11;83;110;193;28;15;9;0;0;0;0.00;12.27;0.00;19.71;0;27;0;0;16462;0.07;137.52;
bf1355-598.cnf.proof;14;153;300;453;85;27;14;14;153;254;407;73;28;14;0;0;0;0.00;10.15;0.00;15.33;0;46;0;0;16462;0.08;137.52;
bf1355-621.cnf.proof;9;79;139;218;47;13;7;9;79;124;203;40;13;7;0;0;0;0.00;6.88;0.00;10.79;0;15;0;0;16462;0.07;137.52;
bf1355-665.cnf.proof;12;117;197;314;56;17;10;12;117;166;283;46;17;10;0;0;0;0.00;9.87;0.00;15.74;0;31;0;0;16462;0.09;137.52;
bf1355-666.cnf.proof;12;115;230;345;65;17;8;12;115;181;296;46;17;10;0;0;0;0.00;14.20;0.00;21.30;0;49;0;0;16462;0.07;137.52;
bf1355-741.cnf.proof;10;83;144;227;50;11;9;10;83;114;197;30;11;9;0;0;0;0.00;13.22;0.00;20.83;0;30;0;0;16462;0.05;137.52;
bin_libsmbsharemodes_vc4083.cnf.proof;367;4019;38001;42020;2854;1854;309;367;3913;18130;22043;2529;1555;156;0;0;0;0.00;47.54;2.64;52.29;0;19650;0;0;16462;2.03;891.41;
c4_DD_s3_f1_e2_v1-bug-onevec-gate-0.dimacs.seq.filtered.cnf.proof;8;81;80;161;0;7;3;8;81;80;161;0;7;3;0;0;0;0.00;0.00;0.00;0.00;0;0;0;0;16462;0.03;179.76;
c6bidw_s.cnf.proof;69;6101;32187;38288;4035;752;208;68;6046;26307;32353;3851;535;94;0;0;0;1.45;15.50;0.90;18.27;0;4809;0;0;16462;1.44;717.76;
c6n_s.cnf.proof;72;517;1323;1840;329;253;91;72;517;1093;1610;313;165;46;0;0;0;0.00;12.50;0.00;17.38;0;227;0;0;16462;0.33;211.62;
c6_DD_s3_f1_e1_v1-bug-fourvec-gate-0.dimacs.seq.filtered.cnf.proof;12;66;65;131;0;11;5;12;66;65;131;0;11;5;0;0;0;0.00;0.00;0.00;0.00;0;0;0;0;16462;0.05;148.08;
c6_DD_s3_f1_e1_v1-bug-gate-0.dimacs.seq.filtered.cnf.proof;12;66;65;131;0;11;5;12;66;65;131;0;11;5;0;0;0;0.00;0.00;0.00;0.00;0;0;0;0;16462;0.05;148.08;
c7b_s.cnf.proof;55;762;2190;2952;529;232;67;55;762;1996;2758;513;151;36;0;0;0;0.00;6.57;0.00;8.86;0;194;0;0;16462;0.37;243.42;
c7n_s.cnf.proof;64;766;2053;2819;520;193;39;64;762;1864;2626;502;164;23;0;0;0;0.00;6.85;0.52;9.21;0;188;0;0;16462;0.26;286.00;
c8idw_s.cnf.proof;213;7793;283095;290888;7718;9463;1006;190;7738;173085;180823;6743;5408;329;0;0;0;10.80;37.84;0.71;38.86;0;49541;0;0;16462;11.67;3795.87;
c499_gr_2pin_w5.shuffled.cnf.proof;24;105;1566;1671;246;904;214;24;105;1354;1459;229;723;44;0;0;0;0.00;12.69;0.00;13.54;0;196;0;0;16462;0.27;77.55;
c2670.cnf.proof;336;6429;101149;107578;7307;6075;614;327;6401;67077;73478;6820;3877;257;0;0;0;2.68;31.70;0.44;33.68;0;14279;0;0;16462;3.14;3720.84;
c5315-s.cnf.proof;t/o;
c7552-bug-gate-0.dimacs.seq.filtered.cnf.proof;47;288;287;575;0;46;8;47;288;287;575;0;46;8;0;0;0;0.00;0.00;0.00;0.00;0;0;0;0;16462;0.17;148.08;
dividers3.dimacs.filtered.cnf.proof;15;152;151;303;0;14;5;15;152;151;303;0;14;5;0;0;0;0.00;0.00;0.00;0.00;0;0;0;0;16462;0.07;148.08;
dividers7.dimacs.filtered.cnf.proof;72;719;718;1437;0;71;9;72;719;718;1437;0;71;9;0;0;0;0.00;0.00;0.00;0.00;0;0;0;0;16462;0.18;200.92;
dividers9.dimacs.filtered.cnf.proof;133;1426;1425;2851;0;132;12;133;1426;1425;2851;0;132;12;0;0;0;0.00;0.00;0.00;0.00;0;0;0;0;16462;0.38;296.00;
dividers11.dimacs.filtered.cnf.proof;61;616;615;1231;0;60;9;61;616;615;1231;0;60;9;0;0;0;0.00;0.00;0.00;0.00;0;0;0;0;16462;0.20;179.86;
divider-problem.dimacs_1.filtered.cnf.proof;138;2556;2555;5111;0;137;12;138;2556;2555;5111;0;137;12;0;0;0;0.00;0.00;0.00;0.00;0;0;0;0;16462;0.81;456.10;
divider-problem.dimacs_2.filtered.cnf.proof;317;6841;6840;13681;0;316;17;317;6841;6840;13681;0;316;17;0;0;0;0.00;0.00;0.00;0.00;0;0;0;0;16462;2.11;1216.57;
divider-problem.dimacs_5.filtered.cnf.proof;197;4741;4740;9481;0;196;14;197;4741;4740;9481;0;196;14;0;0;0;0.00;0.00;0.00;0.00;0;0;0;0;16462;1.17;290.56;
divider-problem.dimacs_7.filtered.cnf.proof;551;9302;9301;18603;0;550;23;551;9302;9301;18603;0;550;23;0;0;0;0.00;0.00;0.00;0.00;0;0;0;0;16462;4.11;1326.91;
divider-problem.dimacs_9.filtered.cnf.proof;128;2685;2684;5369;0;127;12;128;2685;2684;5369;0;127;12;0;0;0;0.00;0.00;0.00;0.00;0;0;0;0;16462;0.72;486.19;
dlx2_aa.cnf.proof;248;1118;30364;31482;2072;7720;1415;243;1100;23635;24735;1918;5261;606;0;0;0;2.02;21.43;1.61;22.16;0;5131;0;0;16462;1.75;3186.90;
dlx2_ca.cnf.proof;t/o;
dspam_dump_vc962.cnf.proof;41;1071;1521;2592;371;74;18;41;1069;1505;2574;363;72;16;0;0;0;0.00;0.69;0.19;1.05;0;15;0;0;16462;0.29;222.03;
edn_5371_10.cnf_0.46000000.unsat.cnf.proof;44;338;337;675;0;43;7;44;338;337;675;0;43;7;0;0;0;0.00;0.00;0.00;0.00;0;0;0;0;16462;0.11;397.93;
edn_5371_12.cnf_0.50000000.unsat.cnf.proof;58;587;586;1173;0;57;8;58;587;586;1173;0;57;8;0;0;0;0.00;0.00;0.00;0.00;0;0;0;0;16462;0.15;452.15;
edn_9789_6.cnf_0.31000000.unsat.cnf.proof;32;943;1372;2315;126;31;7;32;943;987;1930;29;31;7;0;0;0;0.00;16.63;0.00;28.06;0;385;0;0;16462;0.25;264.26;
edn_9789_8.cnf_0.51000000.unsat.cnf.proof;68;2403;2786;5189;299;67;9;68;2403;2434;4837;26;68;17;0;0;0;0.00;6.78;0.00;12.63;0;352;0;0;16462;0.46;437.15;
edn_20259_8.cnf_0.39000000.unsat.cnf.proof;13;99;98;197;0;12;5;13;99;98;197;0;12;5;0;0;0;0.00;0.00;0.00;0.00;0;0;0;0;16462;0.05;327.63;
edn_20259_10.cnf_0.48000000.unsat.cnf.proof;51;330;329;659;0;50;8;51;330;329;659;0;50;8;0;0;0;0.00;0.00;0.00;0.00;0;0;0;0;16462;0.08;397.94;
edn_20403_8.cnf_0.03000000.unsat.cnf.proof;39;329;328;657;0;38;7;39;329;328;657;0;38;7;0;0;0;0.00;0.00;0.00;0.00;0;0;0;0;16462;0.10;158.64;
edn_20403_10.cnf_0.03000000.unsat.cnf.proof;21;175;174;349;0;20;6;21;175;174;349;0;20;6;0;0;0;0.00;0.00;0.00;0.00;0;0;0;0;16462;0.09;158.64;
edn_20403_12.cnf_0.08000000.unsat.cnf.proof;78;1205;2402;3607;692;97;14;78;1196;1326;2522;122;78;13;0;0;0;0.00;30.08;0.75;44.80;0;1023;0;0;16462;0.27;274.89;
edn_22134_8.cnf_0.38000000.unsat.cnf.proof;93;818;817;1635;0;92;10;93;818;817;1635;0;92;10;0;0;0;0.00;0.00;0.00;0.00;0;0;0;0;16462;0.21;385.94;
edn_22134_10.cnf_0.47000000.unsat.cnf.proof;96;1404;1403;2807;0;95;10;96;1404;1403;2807;0;95;10;0;0;0;0.00;0.00;0.00;0.00;0;0;0;0;16462;0.79;486.07;
edn_24095_8.cnf_0.21000000.unsat.cnf.proof;34;437;436;873;0;33;7;34;437;436;873;0;33;7;0;0;0;0.00;0.00;0.00;0.00;0;0;0;0;16462;0.12;343.67;
edn_28491_6.cnf_0.31000000.unsat.cnf.proof;41;240;239;479;0;40;7;41;240;239;479;0;40;7;0;0;0;0.00;0.00;0.00;0.00;0;0;0;0;16462;0.07;285.38;
edn_28491_10.cnf_0.46000000.unsat.cnf.proof;100;1400;1399;2799;0;99;10;100;1400;1399;2799;0;99;10;0;0;0;0.00;0.00;0.00;0.00;0;0;0;0;16462;0.88;496.68;
edn_28491_12.cnf_0.50000000.unsat.cnf.proof;120;1419;1418;2837;0;119;11;120;1419;1418;2837;0;119;11;0;0;0;0.00;0.00;0.00;0.00;0;0;0;0;16462;0.29;353.72;
elf.rf7.ucl.sat.chaff.4.1.bryant.cnf.proof;60;554;1480;2034;390;212;79;60;554;1353;1907;371;175;39;0;0;0;0.00;6.24;0.00;8.58;0;122;0;0;16462;0.26;200.97;
example2_gr_rcs_w5.shuffled.cnf.proof;48;209;1942;2151;264;735;155;42;157;1504;1661;210;538;63;0;0;0;12.50;22.78;24.88;22.55;0;203;0;0;16462;0.27;154.61;
fdmus_b17_1037.cnf.proof;883;7039;98857;105896;5586;11655;911;851;6848;80097;86945;5379;9750;378;0;0;0;3.62;17.90;2.71;18.98;0;12226;0;0;16462;12.45;1392.07;
fifo4_33.cnf.proof;237;3530;44029;47559;2756;1168;197;208;3324;9962;13286;2088;661;80;0;0;0;12.24;72.06;5.84;77.37;0;28723;0;0;16462;1.34;786.48;
fpu1-problem.dimacs_13.filtered.cnf.proof;6;118;117;235;0;5;3;6;118;117;235;0;5;3;0;0;0;0.00;0.00;0.00;0.00;0;0;0;0;16462;0.05;158.64;
g6b.cnf.proof;t/o;
g6n.cnf.proof;578;8810;188669;197479;9416;9020;782;526;8582;135250;143832;8726;5207;194;0;0;0;9.00;27.17;2.59;28.31;0;34395;0;0;16462;6.33;2382.20;
hsat_vc12016.cnf.proof;11;332;388;720;29;10;6;11;332;332;664;1;10;6;0;0;0;0.00;7.78;0.00;14.43;0;56;0;0;16462;0.12;190.33;
hsat_vc12070.cnf.proof;20;330;384;714;25;19;5;20;330;332;662;3;19;5;0;0;0;0.00;7.28;0.00;13.54;0;52;0;0;16462;0.11;200.89;
hsat_vc12072.cnf.proof;19;339;414;753;38;18;6;19;330;346;676;17;18;6;0;0;0;0.00;10.23;2.65;16.43;0;64;0;0;16462;0.11;211.45;
itox_vc965.cnf.proof;91;606;605;1211;0;90;10;91;606;605;1211;0;90;10;0;0;0;0.00;0.00;0.00;0.00;0;0;0;0;16462;0.15;211.51;
itox_vc1216.cnf.proof;80;613;612;1225;0;79;11;80;613;612;1225;0;79;11;0;0;0;0.00;0.00;0.00;0.00;0;0;0;0;16462;0.15;211.47;
mem_ctrl-debug.dimacs.cnf.proof;14;118;117;235;0;13;5;14;118;117;235;0;13;5;0;0;0;0.00;0.00;0.00;0.00;0;0;0;0;16462;0.05;190.33;
mrisc_mem2wire-problem.dimacs_29.filtered.cnf.proof;129;1938;1937;3875;0;128;12;129;1938;1937;3875;0;128;12;0;0;0;0.00;0.00;0.00;0.00;0;0;0;0;16462;0.36;325.74;
ooo.rf8.ucl.sat.chaff.4.1.bryant.cnf.proof;894;6426;124708;131134;5974;20233;2064;842;6189;90044;96233;5665;13495;772;0;0;0;5.82;26.61;3.69;27.80;0;26875;0;0;16462;21.53;3606.25;
ooo.tag10.ucl.sat.chaff.4.1.bryant.cnf.proof;305;2471;87529;90000;2528;6669;582;301;2449;55909;58358;2480;5605;203;0;0;0;1.31;35.16;0.89;36.13;0;30691;0;0;16462;3.68;3677.55;
queueinvar4.cnf.proof;164;814;8318;9132;844;2048;272;161;808;7101;7909;821;1696;87;0;0;0;1.83;13.39;0.74;14.63;0;756;0;0;16462;0.62;1236.09;
queueinvar8.cnf.proof;327;2043;45790;47833;2272;8871;1175;318;2031;33613;35644;2198;5970;383;0;0;0;2.75;25.48;0.59;26.59;0;5930;0;0;16462;2.82;1033.41;
queueinvar12.cnf.proof;t/o;
queueinvar14.cnf.proof;t/o;
rsdecoder_multivec1.dimacs.filtered.cnf.proof;329;3459;3458;6917;0;328;18;329;3459;3458;6917;0;328;18;0;0;0;0.00;0.00;0.00;0.00;0;0;0;0;16462;0.91;265.76;
s38584-bug-onevec-gate-0.dimacs.seq.filtered.cnf.proof;44;577;576;1153;0;43;7;44;577;576;1153;0;43;7;0;0;0;0.00;0.00;0.00;0.00;0;0;0;0;16462;0.17;243.13;
ssa2670-129.cnf.proof;31;825;2851;3676;634;50;22;31;820;2208;3028;566;37;14;0;0;0;0.00;17.63;0.61;22.55;0;602;0;0;16462;0.38;190.38;
ssa2670-132.cnf.proof;31;825;2819;3644;634;50;22;31;820;2208;3028;566;37;14;0;0;0;0.00;16.90;0.61;21.67;0;570;0;0;16462;0.42;190.36;
ssa2670-133.cnf.proof;88;902;3829;4731;714;481;85;83;861;2387;3248;553;250;45;0;0;0;5.68;31.35;4.55;37.66;0;1068;0;0;16462;0.38;488.50;
ssa2670-140.cnf.proof;97;1334;7582;8916;1320;582;86;95;1324;5419;6743;1181;463;53;0;0;0;2.06;24.37;0.75;28.53;0;485;0;0;16462;0.52;409.82;
too_large_gr_rcs_w6.shuffled.cnf.proof;216;1771;68717;70488;2506;11649;1305;216;1678;59359;61037;2292;9692;536;0;0;0;0.00;13.41;5.25;13.62;0;6911;0;0;16462;3.52;608.98;
w10_45.shuffled.cnf.proof;t/o;
wb_4m8s1.dimacs.filtered.cnf.proof;42;209;208;417;0;41;7;42;209;208;417;0;41;7;0;0;0;0.00;0.00;0.00;0.00;0;0;0;0;16462;0.07;158.65;
wb_conmax3.dimacs.filtered.cnf.proof;60;374;373;747;0;59;8;60;374;373;747;0;59;8;0;0;0;0.00;0.00;0.00;0.00;0;0;0;0;16462;0.11;200.89;
