Sun Feb  2 20:46:14 EST 2014;mode --min-vars -c -t 0 --set-seed 18129
name;#vars (unmin); #leafs (unmin);#internal (unmin); proof size (unmin); #joins (unmin);#vars (min); #leafs (min); #internal (min); proof size (min); #joins (min);#learnts;leafs after allRm (overapproximation); internal after allRm (overapproximation); vars improvement (%); size improvement (%); leafs improvement (%); internal improvement (%); subsumptions; tautologies; suppressed replacements; replacements; random seed; time (s); initial mem usage (MB);
9symml_gr_2pin_w5.shuffled.cnf.proof;83;285;5974;6259;449;83;285;4531;4816;377;35088;285;4547;0.00;23.05;0.00;24.15;0;1427;0;0;18129;0.42;359.22;
C210_FW_UT_8630.cnf.proof;14;35;71;106;22;14;35;64;99;18;12498;35;64;0.00;6.60;0.00;9.86;0;7;0;0;18129;0.02;158.55;
apex7_gr_2pin_w4.shuffled.cnf.proof;69;206;2350;2556;359;66;198;1825;2023;315;11411;204;1860;4.35;20.85;3.88;22.34;0;291;0;0;18129;0.27;169.11;
barrel2.cnf.proof;17;77;168;245;54;17;77;140;217;39;90;77;140;0.00;11.43;0.00;16.67;0;28;0;0;18129;0.05;95.18;
bf1355-123.cnf.proof;61;158;416;574;140;61;158;415;573;140;7541;158;415;0.00;0.17;0.00;0.24;0;1;0;0;18129;0.08;137.42;
bf1355-127.cnf.proof;61;146;365;511;122;61;146;365;511;122;7548;146;365;0.00;0.00;0.00;0.00;0;0;0;0;18129;0.07;137.42;
bf1355-227.cnf.proof;38;80;114;194;28;38;80;114;194;28;8895;80;114;0.00;0.00;0.00;0.00;0;0;0;0;18129;0.04;137.42;
bf1355-228.cnf.proof;33;82;113;195;29;33;82;113;195;29;7754;82;113;0.00;0.00;0.00;0.00;0;0;0;0;18129;0.03;126.86;
bf1355-359.cnf.proof;61;146;448;594;136;61;146;447;593;136;7567;146;447;0.00;0.17;0.00;0.22;0;1;0;0;18129;0.09;137.42;
bf1355-445.cnf.proof;0;154;370;524;113;0;154;364;518;111;7637;154;365;NaN;1.15;0.00;1.62;0;5;0;0;18129;0.06;137.42;
bf1355-446.cnf.proof;66;152;292;444;99;66;152;279;431;96;7465;152;280;0.00;2.93;0.00;4.45;0;12;0;0;18129;0.06;137.42;
bf1355-462.cnf.proof;44;156;265;421;82;44;156;265;421;82;7589;156;265;0.00;0.00;0.00;0.00;0;0;0;0;18129;0.05;137.42;
bf1355-466.cnf.proof;66;148;278;426;86;66;148;263;411;76;7916;148;268;0.00;3.52;0.00;5.40;0;3;0;0;18129;0.05;137.42;
bf1355-530.cnf.proof;25;82;111;193;27;25;82;111;193;27;7631;82;111;0.00;0.00;0.00;0.00;0;0;0;0;18129;0.03;126.86;
bf1355-598.cnf.proof;58;153;506;659;142;58;153;460;613;131;7516;153;460;0.00;6.98;0.00;9.09;0;46;0;0;18129;0.10;137.42;
bf1355-621.cnf.proof;33;78;128;206;44;33;78;127;205;43;7613;78;127;0.00;0.49;0.00;0.78;0;1;0;0;18129;0.03;126.86;
bf1355-665.cnf.proof;47;116;199;315;57;47;116;199;315;57;7377;116;199;0.00;0.00;0.00;0.00;0;0;0;0;18129;0.07;126.86;
bf1355-666.cnf.proof;0;114;197;311;55;0;114;197;311;55;7443;114;197;NaN;0.00;0.00;0.00;0;0;0;0;18129;0.04;126.86;
bf1355-741.cnf.proof;0;82;136;218;48;0;82;135;217;47;7789;82;135;NaN;0.46;0.00;0.74;0;1;0;0;18129;0.03;126.86;
bin_libsmbsharemodes_vc4083.cnf.proof;136;2840;36470;39310;2160;136;2823;24519;27342;2049;81892;2829;25607;0.00;30.45;0.60;32.77;0;10855;0;0;18129;2.36;766.81;
c4_DD_s3_f1_e2_v1-bug-onevec-gate-0.dimacs.seq.filtered.cnf.proof;45;96;102;198;7;45;96;102;198;7;403655;96;102;0.00;0.00;0.00;0.00;0;0;0;0;18129;0.02;1150.67;
c6bidw_s.cnf.proof;234;6373;22621;28994;3661;233;6332;17480;23812;3218;13518131;6358;17775;0.43;17.87;0.64;22.73;0;2871;0;0;18129;0.95;9284.30;
c6n_s.cnf.proof;40;521;1145;1666;322;40;519;1044;1563;311;7428;521;1051;0.00;6.18;0.38;8.82;0;94;0;0;18129;0.24;147.98;
c6_DD_s3_f1_e1_v1-bug-fourvec-gate-0.dimacs.seq.filtered.cnf.proof;22;44;43;87;0;22;44;43;87;0;557560;44;43;0.00;0.00;0.00;0.00;0;0;0;0;18129;0.02;1045.76;
c6_DD_s3_f1_e1_v1-bug-gate-0.dimacs.seq.filtered.cnf.proof;20;30;29;59;0;20;30;29;59;0;961978;30;29;0.00;0.00;0.00;0.00;0;0;0;0;18129;0.02;2114.46;
c7b_s.cnf.proof;48;762;1945;2707;512;48;762;1789;2551;498;10839;762;1789;0.00;5.76;0.00;8.02;0;156;0;0;18129;0.21;169.11;
c7n_s.cnf.proof;33;763;2066;2829;524;33;763;1728;2491;498;10051;763;1734;0.00;11.95;0.00;16.36;0;332;0;0;18129;0.21;169.11;
c8idw_s.cnf.proof;264;7840;274184;282024;6902;264;7829;72879;80708;4562;2061372;7831;75210;0.00;71.38;0.14;73.42;0;25317;0;0;18129;3.23;3098.75;
c499_gr_2pin_w5.shuffled.cnf.proof;289;1218;27555;28773;2088;283;1181;18625;19806;1642;32933;1202;18897;2.08;31.16;3.04;32.41;0;7693;0;0;18129;1.13;422.86;
c2670.cnf.proof;244;6421;123516;129937;7703;244;6386;77536;83922;6726;138459;6412;84080;0.00;35.41;0.55;37.23;0;27413;0;0;18129;3.39;634.30;
c5315-s.cnf.proof;590;14394;767142;781536;22322;590;14368;512119;526487;16852;1217997;14374;538922;0.00;32.63;0.18;33.24;0;170633;0;0;18129;50.13;4552.47;
c7552-bug-gate-0.dimacs.seq.filtered.cnf.proof;108;288;314;602;11;108;288;314;602;11;9275;288;314;0.00;0.00;0.00;0.00;0;0;0;0;18129;0.07;137.42;
dividers3.dimacs.filtered.cnf.proof;39;154;181;335;19;39;154;180;334;19;196085;154;180;0.00;0.30;0.00;0.55;0;1;0;0;18129;0.06;579.36;
dividers7.dimacs.filtered.cnf.proof;382;1072;1555;2627;94;382;1072;1514;2586;94;290919;1072;1514;0.00;1.56;0.00;2.64;0;41;0;0;18129;0.17;609.88;
dividers9.dimacs.filtered.cnf.proof;66;1004;1490;2494;131;66;1004;1448;2452;130;199065;1004;1448;0.00;1.68;0.00;2.82;0;42;0;0;18129;0.18;600.40;
dividers11.dimacs.filtered.cnf.proof;34;186;221;407;13;34;186;220;406;12;198406;186;220;0.00;0.25;0.00;0.45;0;1;0;0;18129;0.03;589.39;
divider-problem.dimacs_1.filtered.cnf.proof;1292;7960;11284;19244;653;1292;7960;11281;19241;652;823369;7960;11281;0.00;0.02;0.00;0.03;0;3;0;0;18129;0.57;1650.57;
divider-problem.dimacs_2.filtered.cnf.proof;178;859;1052;1911;92;178;859;1052;1911;92;875615;859;1052;0.00;0.00;0.00;0.00;0;0;0;0;18129;0.20;1770.26;
divider-problem.dimacs_5.filtered.cnf.proof;752;6711;9266;15977;648;752;6711;9258;15969;642;862940;6711;9258;0.00;0.05;0.00;0.09;0;8;0;0;18129;0.53;1803.82;
divider-problem.dimacs_7.filtered.cnf.proof;1142;6116;8610;14726;529;1142;6116;8607;14723;528;928678;6116;8607;0.00;0.02;0.00;0.03;0;3;0;0;18129;0.72;2081.19;
divider-problem.dimacs_9.filtered.cnf.proof;1444;7094;9981;17075;632;1444;7094;9978;17072;631;852693;7094;9978;0.00;0.02;0.00;0.03;0;3;0;0;18129;0.68;1766.69;
dlx2_aa.cnf.proof;135;1106;18626;19732;1688;135;1083;11281;12364;1191;6720;1094;12191;0.00;37.34;2.08;39.43;0;3621;0;0;18129;1.01;507.97;
dlx2_ca.cnf.proof;214;3729;184504;188233;7211;214;3675;100914;104589;4332;31935;3706;104154;0.00;44.44;1.45;45.31;0;75201;0;0;18129;11.74;2530.48;
edn_5371_10.cnf_0.46000000.unsat.cnf.proof;15;338;388;726;22;15;338;388;726;22;2740693;338;388;0.00;0.00;0.00;0.00;0;0;0;0;18129;0.09;4394.87;
edn_5371_12.cnf_0.50000000.unsat.cnf.proof;47;589;689;1278;42;47;589;689;1278;42;3325776;589;689;0.00;0.00;0.00;0.00;0;0;0;0;18129;0.09;4662.65;
edn_9789_6.cnf_0.31000000.unsat.cnf.proof;151;1018;1293;2311;85;151;1018;1290;2308;85;1112324;1018;1290;0.00;0.13;0.00;0.23;0;3;0;0;18129;0.21;1175.56;
edn_9789_8.cnf_0.51000000.unsat.cnf.proof;167;2426;3032;5458;184;167;2422;3026;5448;183;1656108;2425;3029;0.00;0.18;0.16;0.20;0;3;0;0;18129;0.50;2202.23;
edn_20259_8.cnf_0.39000000.unsat.cnf.proof;3;99;106;205;7;3;99;106;205;7;2152220;99;106;0.00;0.00;0.00;0.00;0;0;0;0;18129;0.03;4573.59;
edn_20259_10.cnf_0.48000000.unsat.cnf.proof;15;331;370;701;32;15;331;370;701;32;2754748;331;370;0.00;0.00;0.00;0.00;0;0;0;0;18129;0.08;4481.27;
edn_20403_8.cnf_0.03000000.unsat.cnf.proof;8;17;17;34;1;8;17;17;34;1;144224;17;17;0.00;0.00;0.00;0.00;0;0;0;0;18129;0.01;356.49;
edn_20403_10.cnf_0.03000000.unsat.cnf.proof;49;175;212;387;24;49;175;212;387;24;223205;175;212;0.00;0.00;0.00;0.00;0;0;0;0;18129;0.04;332.11;
edn_20403_12.cnf_0.08000000.unsat.cnf.proof;47;1071;1381;2452;153;47;1071;1372;2443;151;305709;1071;1372;0.00;0.37;0.00;0.65;0;9;0;0;18129;0.15;708.91;
edn_22134_8.cnf_0.38000000.unsat.cnf.proof;3;258;295;553;19;3;258;295;553;19;2207660;258;295;0.00;0.00;0.00;0.00;0;0;0;0;18129;0.05;4814.00;
edn_22134_10.cnf_0.47000000.unsat.cnf.proof;6;825;992;1817;63;6;825;992;1817;63;2838650;825;992;0.00;0.00;0.00;0.00;0;0;0;0;18129;0.11;4920.30;
edn_24095_8.cnf_0.21000000.unsat.cnf.proof;25;315;351;666;15;25;315;351;666;15;2210395;315;351;0.00;0.00;0.00;0.00;0;0;0;0;18129;0.06;4802.93;
edn_28491_6.cnf_0.31000000.unsat.cnf.proof;3;38;37;75;0;3;38;37;75;0;1565040;38;37;0.00;0.00;0.00;0.00;0;0;0;0;18129;0.02;1763.22;
edn_28491_10.cnf_0.46000000.unsat.cnf.proof;18;747;859;1606;40;18;747;859;1606;40;2810920;747;859;0.00;0.00;0.00;0.00;0;0;0;0;18129;0.10;4743.21;
edn_28491_12.cnf_0.50000000.unsat.cnf.proof;86;1427;1732;3159;113;86;1427;1732;3159;113;3432544;1427;1732;0.00;0.00;0.00;0.00;0;0;0;0;18129;0.20;5145.91;
elf.rf7.ucl.sat.chaff.4.1.bryant.cnf.proof;40;572;1747;2319;484;40;572;1728;2300;481;4752;572;1728;0.00;0.82;0.00;1.09;0;19;0;0;18129;0.21;137.42;
example2_gr_rcs_w5.shuffled.cnf.proof;44;163;1723;1886;208;44;161;1506;1667;183;24484;161;1506;0.00;11.61;1.23;12.59;0;217;0;0;18129;0.19;221.92;
fdmus_b17_1037.cnf.proof;498;6783;107585;114368;5397;498;6702;75880;82582;5050;30084;6759;77964;0.00;27.79;1.19;29.47;0;28810;0;0;18129;5.41;1153.95;
fifo4_33.cnf.proof;105;3629;13990;17619;2124;88;3306;9449;12755;1803;57881;3399;10309;16.19;27.61;8.90;32.46;0;1082;0;0;18129;0.60;464.84;
fpu1-problem.dimacs_13.filtered.cnf.proof;4;105;115;220;8;4;105;115;220;8;438147;105;115;0.00;0.00;0.00;0.00;0;0;0;0;18129;0.03;490.30;
g6b.cnf.proof;269;8930;343284;352214;9864;269;8837;211403;220240;8763;112268;8870;217723;0.00;37.47;1.04;38.42;0;111937;0;0;18129;20.73;3848.15;
g6n.cnf.proof;280;9271;232218;241489;9809;272;9144;153806;162950;8769;109933;9207;159729;2.86;32.52;1.37;33.77;0;54917;0;0;18129;7.15;1185.82;
hsat_vc12016.cnf.proof;2;328;366;694;36;2;328;363;691;34;618667;328;363;0.00;0.43;0.00;0.82;0;3;0;0;18129;0.07;1120.11;
hsat_vc12070.cnf.proof;2;382;485;867;98;2;330;430;760;97;568695;330;430;0.00;12.34;13.61;11.34;0;55;0;0;18129;0.10;1142.92;
hsat_vc12072.cnf.proof;2;362;443;805;76;2;360;437;797;75;745443;360;437;0.00;0.99;0.55;1.35;0;6;0;0;18129;0.06;1086.11;
itox_vc965.cnf.proof;1;577;718;1295;49;1;577;716;1293;49;350254;577;716;0.00;0.15;0.00;0.28;0;2;0;0;18129;0.09;927.26;
itox_vc1216.cnf.proof;1;584;585;1169;2;1;584;584;1168;1;438278;584;584;0.00;0.09;0.00;0.17;0;1;0;0;18129;0.12;574.32;
mem_ctrl-debug.dimacs.cnf.proof;2;72;72;144;1;2;72;72;144;1;607933;72;72;0.00;0.00;0.00;0.00;0;0;0;0;18129;0.04;1250.17;
mrisc_mem2wire-problem.dimacs_29.filtered.cnf.proof;600;2923;3530;6453;187;600;2923;3470;6393;178;3058853;2923;3470;0.00;0.93;0.00;1.70;0;60;0;0;18129;0.32;3243.94;
ooo.rf8.ucl.sat.chaff.4.1.bryant.cnf.proof;0;6126;86062;92188;5650;0;6079;59771;65850;5334;46025;6101;61791;NaN;28.57;0.77;30.55;0;23573;0;0;18129;4.45;1210.81;
ooo.tag10.ucl.sat.chaff.4.1.bryant.cnf.proof;103;2594;56556;59150;2242;100;2443;36050;38493;2009;51383;2510;38733;2.91;34.92;5.82;36.26;0;11860;0;0;18129;2.90;984.04;
queueinvar4.cnf.proof;40;815;11067;11882;892;40;810;8417;9227;854;240;810;8774;0.00;22.34;0.61;23.95;0;1312;0;0;18129;0.74;253.60;
queueinvar8.cnf.proof;33;2035;50822;52857;2219;33;2020;25040;27060;1983;1553;2023;25599;0.00;48.81;0.74;50.73;0;18175;0;0;18129;1.95;462.62;
queueinvar12.cnf.proof;257;5607;179423;185030;6540;257;5590;103527;109117;6070;3107;5594;105066;0.00;41.03;0.30;42.30;0;72660;0;0;18129;25.05;5430.04;
queueinvar14.cnf.proof;280;7139;270084;277223;8133;280;7121;149602;156723;7592;6960;7127;152229;0.00;43.47;0.25;44.61;0;105980;0;0;18129;49.96;4797.53;
rsdecoder_multivec1.dimacs.filtered.cnf.proof;437;5749;9260;15009;807;437;5749;8648;14397;806;2199121;5749;8648;0.00;4.08;0.00;6.61;0;612;0;0;18129;0.49;4685.64;
s38584-bug-onevec-gate-0.dimacs.seq.filtered.cnf.proof;193;577;599;1176;23;193;577;598;1175;22;1120062;577;598;0.00;0.09;0.00;0.17;0;1;0;0;18129;0.09;1187.47;
ssa2670-129.cnf.proof;176;896;2802;3698;694;176;893;2624;3517;672;2776;895;2683;0.00;4.89;0.33;6.35;0;119;0;0;18129;0.37;147.98;
ssa2670-132.cnf.proof;176;896;2802;3698;694;176;893;2624;3517;672;2776;895;2683;0.00;4.89;0.33;6.35;0;119;0;0;18129;0.56;147.98;
ssa2670-133.cnf.proof;369;932;3889;4821;830;367;925;3425;4350;788;2656;926;3510;0.54;9.77;0.75;11.93;0;235;0;0;18129;0.71;179.67;
ssa2670-140.cnf.proof;349;1326;5582;6908;1286;349;1325;5082;6407;1259;2008;1325;5103;0.00;7.25;0.08;8.96;0;266;0;0;18129;0.64;221.92;
too_large_gr_rcs_w6.shuffled.cnf.proof;272;1547;62164;63711;2073;272;1536;53562;55098;1777;44962;1543;53858;0.00;13.52;0.71;13.84;0;8134;0;0;18129;3.36;727.97;
w10_45.shuffled.cnf.proof;t/o;
wb_4m8s1.dimacs.filtered.cnf.proof;0;226;319;545;30;0;226;308;534;30;1936824;226;308;NaN;2.02;0.00;3.45;0;11;0;0;18129;0.05;3593.06;
wb_conmax3.dimacs.filtered.cnf.proof;9;25;24;49;0;9;25;24;49;0;1290943;25;24;0.00;0.00;0.00;0.00;0;0;0;0;18129;0.01;2175.37;
