Sat Feb  1 17:10:40 EST 2014;mode --min-vars -t 0 --set-seed 5912
name;#vars (unmin); #leafs (unmin);#internal (unmin); proof size (unmin); #joins (unmin);#vars (min); #leafs (min); #internal (min); proof size (min); #joins (min);#learnts;leafs after allRm (overapproximation); internal after allRm (overapproximation); vars improvement (%); size improvement (%); leafs improvement (%); internal improvement (%); subsumptions; tautologies; suppressed replacements; replacements; random seed; time (s); initial mem usage (MB);
6s0.aig.proof;49;316;1025;1341;259;48;316;926;1242;250;0;316;938;2.04;7.38;0.00;9.66;0;80;0;0;5912;0.18;105.74;
6s7.aig.proof;630;5584;31578;37162;4205;621;5498;28386;33884;4120;0;5554;28933;1.43;8.82;1.54;10.11;0;2487;0;0;5912;2.01;545.67;
6s8.aig.proof;375;3413;18786;22199;2508;350;3335;14466;17801;2281;0;3378;14914;6.67;19.81;2.29;23.00;0;3074;0;0;5912;1.92;528.09;
6s23.aig.proof;227;1420;58759;60179;1619;217;1384;42582;43966;1297;0;1400;43615;4.41;26.94;2.54;27.53;0;14581;0;0;5912;3.93;801.96;
6s24.aig.proof;179;1208;5316;6524;984;165;1169;4132;5301;886;0;1194;4424;7.82;18.75;3.23;22.27;0;732;0;0;5912;0.62;158.55;
6s31.aig.proof;96;615;2233;2848;426;87;579;1732;2311;387;0;589;1825;9.38;18.86;5.85;22.44;0;301;0;0;5912;0.46;126.86;
6s33.aig.proof;175;1400;12073;13473;1159;156;1320;9318;10638;1040;0;1353;9885;10.86;21.04;5.71;22.82;0;1556;0;0;5912;1.59;316.97;
6s102.aig.proof;65;652;2499;3151;456;63;640;1391;2031;413;0;645;1504;3.08;35.54;1.84;44.34;0;826;0;0;5912;0.48;137.42;
6s105.aig.proof;57;1261;7521;8782;908;56;1259;4805;6064;806;0;1260;4900;1.75;30.95;0.16;36.11;0;2511;0;0;5912;0.74;221.92;
6s122.aig.proof;18;105;232;337;64;17;98;202;300;57;0;105;215;5.56;10.98;6.67;12.93;0;17;0;0;5912;0.07;95.18;
6s151.aig.proof;606;3340;7727;11067;1992;604;3337;7648;10985;1967;0;3339;7651;0.33;0.74;0.09;1.02;0;76;0;0;5912;1.46;517.65;
6s152.aig.proof;64;344;1526;1870;279;60;339;1178;1517;249;0;339;1192;6.25;18.88;1.45;22.80;0;173;0;0;5912;0.20;116.30;
6s160.aig.proof;56;794;1764;2558;411;56;765;1395;2160;330;0;775;1461;0.00;15.56;3.65;20.92;0;220;0;0;5912;0.22;126.86;
6s188.aig.proof;45;724;1647;2371;413;27;688;1007;1695;204;0;724;1143;40.00;28.51;4.97;38.86;0;497;0;0;5912;0.21;126.86;
6s209b1.aig.proof;109;1034;3716;4750;751;104;1019;3268;4287;723;0;1029;3341;4.59;9.75;1.45;12.06;0;91;0;0;5912;0.75;158.55;
6s268r.aig.proof;5;85;98;183;14;5;85;93;178;9;0;85;93;0.00;2.73;0.00;5.10;0;5;0;0;5912;0.06;105.74;
6s269r.aig.proof;59;344;1273;1617;308;58;343;1139;1482;296;0;344;1163;1.69;8.35;0.29;10.53;0;103;0;0;5912;0.31;105.74;
6s275rb253.aig.proof;194;1652;11710;13362;1647;193;1635;10575;12210;1615;0;1652;10967;0.52;8.62;1.03;9.69;0;446;0;0;5912;1.17;285.29;
6s276rb318.aig.proof;146;999;4694;5693;936;146;988;4517;5505;926;0;993;4522;0.00;3.30;1.10;3.77;0;166;0;0;5912;0.54;179.67;
6s277rb342.aig.proof;50;620;2416;3036;474;48;620;2064;2684;462;0;620;2114;4.00;11.59;0.00;14.57;0;106;0;0;5912;0.54;126.86;
6s282b15.aig.proof;149;1220;3418;4638;735;139;1182;2674;3856;689;0;1205;2702;6.71;16.86;3.11;21.77;0;646;0;0;5912;0.58;158.55;
6s291rb18.aig.proof;35;267;849;1116;216;35;263;735;998;193;0;266;743;0.00;10.57;1.50;13.43;0;66;0;0;5912;0.26;105.74;
6s292rb024.aig.proof;43;220;911;1131;182;41;219;668;887;166;0;219;670;4.65;21.57;0.45;26.67;0;105;0;0;5912;0.47;105.74;
6s310r.aig.proof;492;3627;30118;33745;2784;419;3259;14275;17534;2302;0;3415;16541;14.84;48.04;10.15;52.60;0;9955;0;0;5912;1.37;470.56;
6s317b14.aig.proof;500;3570;41398;44968;3295;442;3323;21952;25275;2946;0;3457;26095;11.60;43.79;6.92;46.97;0;12299;0;0;5912;3.28;1016.42;
6s329rb19.aig.proof;541;4945;115484;120429;4882;533;4934;82984;87918;4653;0;4939;91042;1.48;27.00;0.22;28.14;0;19348;0;0;5912;7.48;1537.39;
6s330rb11.aig.proof;6;88;87;175;0;6;88;87;175;0;0;88;87;0.00;0.00;0.00;0.00;0;0;0;0;5912;0.07;116.30;
6s357r.aig.proof;114;712;3333;4045;524;114;708;3071;3779;497;0;710;3091;0.00;6.58;0.56;7.86;0;235;0;0;5912;0.85;137.42;
6s365r.aig.proof;72;458;2608;3066;391;65;427;1766;2193;341;0;438;1859;9.72;28.47;6.77;32.29;0;470;0;0;5912;0.52;126.86;
6s394r.aig.proof;339;3791;9716;13507;1983;290;3457;7150;10607;1701;0;3657;7896;14.45;21.47;8.81;26.41;0;1196;0;0;5912;0.63;348.66;
6s410rb043.aig.proof;282;2176;22195;24371;1782;281;2160;16092;18252;1749;0;2160;16160;0.35;25.11;0.74;27.50;0;6019;0;0;5912;1.64;534.35;
beembrdg2f1.aig.proof;369;4526;83220;87746;3705;364;4474;30151;34625;3506;0;4496;30769;1.36;60.54;1.15;63.77;0;51569;0;0;5912;5.89;1381.03;
beemkrebs4b1.aig.proof;143;1170;9818;10988;1100;132;1117;7153;8270;1071;0;1150;7648;7.69;24.74;4.53;27.14;0;1952;0;0;5912;1.17;243.04;
beemptrsn7f1.aig.proof;85;2034;8041;10075;1391;77;1916;3053;4969;779;0;1991;3338;9.41;50.68;5.80;62.03;0;3562;0;0;5912;1.37;338.10;
beemtrngt5f1.aig.proof;194;2722;23640;26362;2057;189;2703;7524;10227;1774;0;2716;8342;2.58;61.21;0.70;68.17;0;15206;0;0;5912;1.64;258.87;
bob9234redmiter.aig.proof;6;38;63;101;26;6;38;40;78;3;0;38;40;0.00;22.77;0.00;36.51;0;23;0;0;5912;0.05;95.18;
bobsmcodic.aig.proof;931;5426;269442;274868;5483;922;5407;241210;246617;5272;0;5414;242086;0.97;10.28;0.35;10.48;0;27242;0;0;5912;74.17;5615.01;
bobsmhdlc1.aig.proof;327;2005;53118;55123;2102;309;1940;32957;34897;1888;0;1977;34208;5.50;36.69;3.24;37.96;0;17577;0;0;5912;3.14;727.84;
bobsmminiuart.aig.proof;14;173;257;430;66;12;171;229;400;48;0;173;234;14.29;6.98;1.16;10.89;0;6;0;0;5912;0.08;95.18;
cmudme2.aig.proof;13;286;357;643;47;13;284;323;607;27;0;284;326;0.00;5.60;0.70;9.52;0;26;0;0;5912;0.09;95.18;
eijkbs3271.aig.proof;697;8335;44294;52629;5593;697;8335;38717;47052;5369;0;8335;38724;0.00;10.60;0.00;12.59;0;5570;0;0;5912;6.34;1386.15;
intel009.aig.proof;24;11141;23828;34969;9515;24;11141;23792;34933;9507;0;11141;23792;0.00;0.10;0.00;0.15;0;36;0;0;5912;1.01;475.40;
intel011.aig.proof;23;2580;4661;7241;1663;23;2580;4505;7085;1656;0;2580;4644;0.00;2.15;0.00;3.35;0;17;0;0;5912;0.35;158.55;
intel012.aig.proof;23;6037;16296;22333;4406;22;6036;15659;21695;4394;0;6037;15661;4.35;2.86;0.02;3.91;0;29;0;0;5912;1.03;383.29;
intel015.aig.proof;32;2461;5378;7839;1563;32;2460;4372;6832;1125;0;2461;4373;0.00;12.85;0.04;18.71;0;1003;0;0;5912;0.63;158.55;
intel016.aig.proof;12;9639;24595;34234;7130;11;9638;24570;34208;7118;0;9639;24573;8.33;0.08;0.01;0.10;0;22;0;0;5912;1.21;434.01;
intel018.aig.proof;22;1798;5181;6979;1298;22;1798;3537;5335;964;0;1798;3542;0.00;23.56;0.00;31.73;0;1628;0;0;5912;0.43;158.55;
intel020.aig.proof;25;1768;3716;5484;1356;25;1768;3675;5443;1349;0;1768;3675;0.00;0.75;0.00;1.10;0;41;0;0;5912;0.35;147.98;
intel022.aig.proof;22;2461;6051;8512;1844;22;2461;4829;7290;1392;0;2461;4829;0.00;14.36;0.00;20.20;0;1222;0;0;5912;0.47;169.11;
intel023.aig.proof;24;1768;4227;5995;1090;24;1767;3377;5144;799;0;1768;3378;0.00;14.20;0.06;20.11;0;849;0;0;5912;0.50;147.98;
intel024.aig.proof;21;1754;4306;6060;1058;21;1754;3073;4827;757;0;1754;3073;0.00;20.35;0.00;28.63;0;1233;0;0;5912;0.31;147.99;
intel027.aig.proof;23;7740;16665;24405;6462;23;7739;10988;18727;1803;0;7740;10989;0.00;23.27;0.01;34.07;0;5676;0;0;5912;0.57;369.78;
intel029.aig.proof;21;2619;5512;8131;1643;21;2619;4575;7194;1432;0;2619;4580;0.00;11.52;0.00;17.00;0;932;0;0;5912;0.33;158.55;
intel032.aig.proof;38;2894;8092;10986;2463;38;2892;7631;10523;2459;0;2893;7638;0.00;4.21;0.07;5.70;0;454;0;0;5912;0.60;211.36;
intel033.aig.proof;21;10684;24259;34943;9209;21;10684;21762;32446;8581;0;10684;23612;0.00;7.15;0.00;10.29;0;61;0;0;5912;1.01;422.59;
intel034.aig.proof;25;5395;15358;20753;4298;24;5394;15338;20732;4288;0;5395;15340;4.00;0.10;0.02;0.13;0;18;0;0;5912;0.74;327.54;
intel036.aig.proof;21;11658;23887;35545;8306;20;11657;21449;33106;7490;0;11658;21450;4.76;6.86;0.01;10.21;0;2437;0;0;5912;0.93;443.72;
nusmvdme116.aig.proof;391;2391;2941;5332;330;391;2357;2669;5026;239;0;2389;2717;0.00;5.74;1.42;9.25;0;210;0;0;5912;0.52;295.85;
pdtswvsam6x8p4.aig.proof;235;5348;9243;14591;1506;163;2055;3655;5710;1101;0;2071;3729;30.64;60.87;61.57;60.46;0;1182;0;0;5912;0.44;223.20;
