Sat Feb  1 20:33:49 EST 2014;mode --min-vars -t 10 --set-seed 12183
name;#vars (unmin); #leafs (unmin);#internal (unmin); proof size (unmin); #joins (unmin);#vars (min); #leafs (min); #internal (min); proof size (min); #joins (min);#learnts;leafs after allRm (overapproximation); internal after allRm (overapproximation); vars improvement (%); size improvement (%); leafs improvement (%); internal improvement (%); subsumptions; tautologies; suppressed replacements; replacements; random seed; time (s); initial mem usage (MB);
6s0.aig.proof;49;316;1025;1341;259;48;316;926;1242;250;0;316;938;2.04;7.38;0.00;9.66;0;80;0;0;12183;0.30;105.74;
6s7.aig.proof;614;5584;31578;37162;4205;606;5498;28383;33881;4119;0;5554;28921;1.30;8.83;1.54;10.12;0;2499;0;0;12183;10.56;1185.63;
6s8.aig.proof;410;3413;18786;22199;2508;390;3335;14492;17827;2282;0;3378;14943;4.88;19.69;2.29;22.86;0;3045;0;0;12183;5.60;436.10;
6s23.aig.proof;218;1420;58759;60179;1619;210;1384;42546;43930;1297;0;1399;43572;3.67;27.00;2.54;27.59;0;14624;0;0;12183;15.77;1017.05;
6s24.aig.proof;179;1208;5316;6524;984;165;1169;4132;5301;887;0;1194;4426;7.82;18.75;3.23;22.27;0;732;0;0;12183;0.82;190.24;
6s31.aig.proof;106;615;2233;2848;426;95;577;1719;2296;389;0;586;1817;10.38;19.38;6.18;23.02;0;296;0;0;12183;0.61;137.42;
6s33.aig.proof;199;1400;12073;13473;1159;195;1319;9279;10598;1032;0;1349;9847;2.01;21.34;5.79;23.14;0;1572;0;0;12183;1.87;422.71;
6s102.aig.proof;61;652;2499;3151;456;59;640;1398;2038;416;0;645;1510;3.28;35.32;1.84;44.06;0;820;0;0;12183;0.71;147.99;
6s105.aig.proof;61;1261;7521;8782;908;60;1259;4852;6111;812;0;1260;4948;1.64;30.41;0.16;35.49;0;2463;0;0;12183;1.75;348.78;
6s122.aig.proof;19;105;232;337;64;18;98;202;300;57;0;105;215;5.26;10.98;6.67;12.93;0;17;0;0;12183;0.11;95.18;
6s151.aig.proof;532;3340;7727;11067;1992;530;3337;7648;10985;1967;0;3339;7651;0.38;0.74;0.09;1.02;0;76;0;0;12183;2.42;246.11;
6s152.aig.proof;68;344;1526;1870;279;63;339;1180;1519;249;0;340;1194;7.35;18.77;1.45;22.67;0;173;0;0;12183;0.31;116.30;
6s160.aig.proof;52;794;1764;2558;411;52;765;1392;2157;327;0;775;1458;0.00;15.68;3.65;21.09;0;223;0;0;12183;0.45;126.86;
6s188.aig.proof;31;724;1647;2371;413;31;688;1001;1689;199;0;724;1134;0.00;28.76;4.97;39.22;0;506;0;0;12183;0.52;137.43;
6s209b1.aig.proof;127;1034;3716;4750;751;124;1019;3271;4290;722;0;1029;3341;2.36;9.68;1.45;11.98;1;91;0;1;12183;0.59;190.26;
6s268r.aig.proof;5;85;98;183;14;5;85;93;178;9;0;85;93;0.00;2.73;0.00;5.10;0;5;0;0;12183;0.10;105.74;
6s269r.aig.proof;64;344;1273;1617;308;63;343;1140;1483;296;0;344;1164;1.56;8.29;0.29;10.45;0;102;0;0;12183;0.41;116.30;
6s275rb253.aig.proof;179;1652;11710;13362;1647;179;1635;10563;12198;1610;0;1652;10953;0.00;8.71;1.03;9.80;0;461;0;0;12183;1.31;369.82;
6s276rb318.aig.proof;149;999;4694;5693;936;149;988;4517;5505;926;0;993;4522;0.00;3.30;1.10;3.77;0;166;0;0;12183;0.67;221.94;
6s277rb342.aig.proof;69;620;2416;3036;474;69;620;2048;2668;463;0;620;2110;0.00;12.12;0.00;15.23;0;110;0;0;12183;0.52;137.43;
6s282b15.aig.proof;113;1220;3418;4638;735;108;1181;2659;3840;687;0;1196;2679;4.42;17.21;3.20;22.21;0;669;0;0;12183;0.75;179.69;
6s291rb18.aig.proof;49;267;849;1116;216;46;263;736;999;194;0;266;744;6.12;10.48;1.50;13.31;0;65;0;0;12183;0.22;105.74;
6s292rb024.aig.proof;39;220;911;1131;182;37;219;677;896;167;0;219;679;5.13;20.78;0.45;25.69;0;96;0;0;12183;0.21;105.74;
6s310r.aig.proof;433;3627;30118;33745;2784;369;3257;14290;17547;2299;0;3415;16626;14.78;48.00;10.20;52.55;0;9875;0;0;12183;12.26;871.25;
6s317b14.aig.proof;532;3570;41398;44968;3295;469;3327;21902;25229;2943;0;3459;26014;11.84;43.90;6.81;47.09;0;12393;0;0;12183;18.54;1421.65;
6s329rb19.aig.proof;589;4945;115484;120429;4882;578;4934;83252;88186;4658;0;4939;91291;1.87;26.77;0.22;27.91;0;19685;0;0;12183;67.37;5011.52;
6s330rb11.aig.proof;6;88;87;175;0;6;88;87;175;0;0;88;87;0.00;0.00;0.00;0.00;0;0;0;0;12183;0.08;116.30;
6s357r.aig.proof;120;712;3333;4045;524;120;708;3071;3779;497;0;710;3091;0.00;6.58;0.56;7.86;0;235;0;0;12183;0.55;147.99;
6s365r.aig.proof;82;458;2608;3066;391;75;431;1799;2230;349;0;444;1904;8.54;27.27;5.90;31.02;0;449;0;0;12183;0.86;137.42;
6s394r.aig.proof;348;3791;9716;13507;1983;312;3486;7210;10696;1705;0;3672;7923;10.34;20.81;8.05;25.79;1;1192;0;1;12183;2.98;518.09;
6s410rb043.aig.proof;202;2176;22195;24371;1782;202;2160;16062;18222;1746;0;2160;16099;0.00;25.23;0.74;27.63;0;6080;0;0;12183;6.24;705.69;
beembrdg2f1.aig.proof;392;4526;83220;87746;3705;376;4474;30139;34613;3507;0;4497;30750;4.08;60.55;1.15;63.78;0;51599;0;0;12183;166.63;4664.76;
beemkrebs4b1.aig.proof;139;1170;9818;10988;1100;111;1117;7147;8264;1071;0;1150;7642;20.14;24.79;4.53;27.21;0;1958;0;0;12183;2.67;369.91;
beemptrsn7f1.aig.proof;60;2034;8041;10075;1391;51;1916;3036;4952;766;0;1991;3319;15.00;50.85;5.80;62.24;0;3581;0;0;12183;5.42;184.37;
beemtrngt5f1.aig.proof;182;2722;23640;26362;2057;178;2703;7520;10223;1772;0;2716;8338;2.20;61.22;0.70;68.19;0;15210;0;0;12183;24.95;887.00;
bob9234redmiter.aig.proof;6;38;63;101;26;6;38;40;78;3;0;38;40;0.00;22.77;0.00;36.51;0;23;0;0;12183;0.06;95.18;
bobsmcodic.aig.proof;t/o;
bobsmhdlc1.aig.proof;402;2005;53118;55123;2102;378;1943;32966;34909;1903;0;1974;34166;5.97;36.67;3.09;37.94;0;17585;0;0;12183;25.13;1426.72;
bobsmminiuart.aig.proof;13;173;257;430;66;13;171;229;400;48;0;173;234;0.00;6.98;1.16;10.89;0;6;0;0;12183;0.10;95.18;
cmudme2.aig.proof;8;286;357;643;47;8;284;321;605;26;0;284;324;0.00;5.91;0.70;10.08;1;28;0;1;12183;0.21;95.18;
eijkbs3271.aig.proof;1028;8335;44294;52629;5593;1028;8335;38712;47047;5368;0;8335;38719;0.00;10.61;0.00;12.60;0;5575;0;0;12183;44.83;4364.19;
intel009.aig.proof;19;11141;23828;34969;9515;19;11141;23792;34933;9507;0;11141;23792;0.00;0.10;0.00;0.15;0;36;0;0;12183;25.31;2275.81;
intel011.aig.proof;24;2580;4661;7241;1663;24;2580;4505;7085;1656;0;2580;4644;0.00;2.15;0.00;3.35;0;17;0;0;12183;1.22;296.07;
intel012.aig.proof;23;6037;16296;22333;4406;22;6036;15659;21695;4394;0;6037;15661;4.35;2.86;0.02;3.91;0;29;0;0;12183;6.20;708.30;
intel015.aig.proof;34;2461;5378;7839;1563;34;2460;4372;6832;1125;0;2461;4373;0.00;12.85;0.04;18.71;0;1003;0;0;12183;1.86;285.55;
intel016.aig.proof;24;9639;24595;34234;7130;23;9638;24570;34208;7118;0;9639;24573;4.17;0.08;0.01;0.10;0;22;0;0;12183;16.17;958.49;
intel018.aig.proof;21;1798;5181;6979;1298;21;1798;3537;5335;964;0;1798;3542;0.00;23.56;0.00;31.73;0;1628;0;0;12183;2.03;253.69;
intel020.aig.proof;25;1768;3716;5484;1356;25;1768;3675;5443;1349;0;1768;3675;0.00;0.75;0.00;1.10;0;41;0;0;12183;0.82;211.41;
intel022.aig.proof;24;2461;6051;8512;1844;24;2461;4829;7290;1392;0;2461;4829;0.00;14.36;0.00;20.20;0;1222;0;0;12183;1.98;306.62;
intel023.aig.proof;24;1768;4227;5995;1090;24;1767;3377;5144;799;0;1768;3378;0.00;14.20;0.06;20.11;0;849;0;0;12183;1.30;211.42;
intel024.aig.proof;21;1754;4306;6060;1058;21;1754;3073;4827;757;0;1754;3073;0.00;20.35;0.00;28.63;0;1233;0;0;12183;1.64;211.43;
intel027.aig.proof;32;7740;16665;24405;6462;32;7739;10990;18729;1805;0;7740;10991;0.00;23.26;0.01;34.05;0;5674;0;0;12183;37.31;1526.05;
intel029.aig.proof;21;2619;5512;8131;1643;21;2619;4575;7194;1432;0;2619;4580;0.00;11.52;0.00;17.00;0;932;0;0;12183;1.98;348.93;
intel032.aig.proof;38;2894;8092;10986;2463;37;2892;7629;10521;2458;0;2892;7636;2.63;4.23;0.07;5.72;0;456;0;0;12183;3.07;486.41;
intel033.aig.proof;22;10684;24259;34943;9209;22;10684;21763;32447;8582;0;10684;23613;0.00;7.14;0.00;10.29;0;60;0;0;12183;25.24;1826.44;
intel034.aig.proof;25;5395;15358;20753;4298;24;5394;15338;20732;4288;0;5395;15340;4.00;0.10;0.02;0.13;0;18;0;0;12183;4.43;506.01;
intel036.aig.proof;23;11658;23887;35545;8306;23;11657;21449;33106;7490;0;11658;21450;0.00;6.86;0.01;10.21;0;2437;0;0;12183;28.47;2078.14;
nusmvdme116.aig.proof;285;2391;2941;5332;330;285;2357;2661;5018;232;0;2389;2709;0.00;5.89;1.42;9.52;0;214;0;0;12183;1.00;316.99;
pdtswvsam6x8p4.aig.proof;243;5348;9243;14591;1506;148;2055;3657;5712;1102;0;2071;3732;39.09;60.85;61.57;60.43;1;1179;0;1;12183;4.48;407.12;
