Sun Feb  2 01:08:32 EST 2014;mode --min-vars -a --set-seed 30261
name;#vars (unmin); #leafs (unmin);#internal (unmin); proof size (unmin); #joins (unmin);#vars (min); #leafs (min); #internal (min); proof size (min); #joins (min);#learnts;leafs after allRm (overapproximation); internal after allRm (overapproximation); vars improvement (%); size improvement (%); leafs improvement (%); internal improvement (%); subsumptions; tautologies; suppressed replacements; replacements; random seed; time (s); initial mem usage (MB);
6s0.aig.proof;53;316;1025;1341;259;52;316;924;1240;251;0;316;936;1.89;7.53;0.00;9.85;0;88;0;0;30261;0.18;105.74;
6s7.aig.proof;646;5584;31578;37162;4205;629;5498;28316;33814;4141;0;5554;28842;2.63;9.01;1.54;10.33;0;2608;0;0;30261;2.23;610.30;
6s8.aig.proof;358;3413;18786;22199;2508;345;3343;14506;17849;2340;0;3373;14859;3.63;19.60;2.05;22.78;0;3449;0;0;30261;0.97;188.12;
6s23.aig.proof;269;1420;58759;60179;1619;259;1385;43022;44407;1317;0;1395;43880;3.72;26.21;2.46;26.78;0;14553;0;0;30261;3.72;1103.60;
6s24.aig.proof;180;1208;5316;6524;984;171;1176;4170;5346;907;0;1194;4400;5.00;18.06;2.65;21.56;0;776;0;0;30261;0.49;158.55;
6s31.aig.proof;96;615;2233;2848;426;88;577;1709;2286;390;0;581;1786;8.33;19.73;6.18;23.47;0;354;0;0;30261;0.31;126.86;
6s33.aig.proof;209;1400;12073;13473;1159;206;1322;9560;10882;1048;0;1349;9868;1.44;19.23;5.57;20.82;0;1764;0;0;30261;1.04;316.97;
6s102.aig.proof;65;652;2499;3151;456;61;641;1446;2087;416;0;645;1529;6.15;33.77;1.69;42.14;0;873;0;0;30261;0.48;137.42;
6s105.aig.proof;61;1261;7521;8782;908;60;1261;4869;6130;812;0;1261;4906;1.64;30.20;0.00;35.26;0;2522;0;0;30261;0.49;221.92;
6s122.aig.proof;22;105;232;337;64;22;98;202;300;57;0;105;215;0.00;10.98;6.67;12.93;0;17;0;0;30261;0.11;95.18;
6s151.aig.proof;533;3340;7727;11067;1992;531;3337;7642;10979;1964;0;3338;7643;0.38;0.80;0.09;1.10;0;84;0;0;30261;0.81;517.65;
6s152.aig.proof;55;344;1526;1870;279;52;338;1168;1506;255;0;339;1181;5.45;19.47;1.74;23.46;0;228;0;0;30261;0.32;116.30;
6s160.aig.proof;64;794;1764;2558;411;64;765;1390;2155;353;0;775;1456;0.00;15.75;3.65;21.20;0;249;0;0;30261;0.23;126.86;
6s188.aig.proof;44;724;1647;2371;413;26;688;1000;1688;204;0;724;1133;40.91;28.81;4.97;39.28;0;509;0;0;30261;0.36;126.86;
6s209b1.aig.proof;102;1034;3716;4750;751;102;1019;3262;4281;732;0;1029;3331;0.00;9.87;1.45;12.22;0;223;0;0;30261;0.35;169.11;
6s268r.aig.proof;5;85;98;183;14;5;85;93;178;9;0;85;93;0.00;2.73;0.00;5.10;0;5;0;0;30261;0.04;105.74;
6s269r.aig.proof;56;344;1273;1617;308;55;343;1138;1481;296;0;344;1161;1.79;8.41;0.29;10.60;0;111;0;0;30261;0.20;105.74;
6s275rb253.aig.proof;206;1652;11710;13362;1647;206;1652;10936;12588;1612;0;1652;10956;0.00;5.79;0.00;6.61;0;487;0;0;30261;0.98;295.85;
6s276rb318.aig.proof;94;999;4694;5693;936;94;993;4263;5256;923;0;993;4328;0.00;7.68;0.60;9.18;0;178;0;0;30261;0.41;179.67;
6s277rb342.aig.proof;38;620;2416;3036;474;36;620;2043;2663;464;0;620;2104;5.26;12.29;0.00;15.44;0;133;0;0;30261;0.28;126.86;
6s282b15.aig.proof;78;1220;3418;4638;735;77;1179;2654;3833;693;0;1195;2675;1.28;17.36;3.36;22.35;0;697;0;0;30261;0.50;147.98;
6s291rb18.aig.proof;54;267;849;1116;216;49;263;731;994;202;0;266;739;9.26;10.93;1.50;13.90;0;87;0;0;30261;0.14;105.74;
6s292rb024.aig.proof;36;220;911;1131;182;35;218;689;907;167;0;219;691;2.78;19.81;0.91;24.37;0;105;0;0;30261;0.19;105.74;
6s310r.aig.proof;375;3627;30118;33745;2784;366;3327;14966;18293;2498;0;3410;16375;2.40;45.79;8.27;50.31;0;11533;0;0;30261;1.88;345.36;
6s317b14.aig.proof;427;3570;41398;44968;3295;397;3408;25511;28919;3039;0;3456;26329;7.03;35.69;4.54;38.38;0;13624;0;0;30261;2.27;632.39;
6s329rb19.aig.proof;538;4945;115484;120429;4882;538;4939;91116;96055;4715;0;4939;92425;0.00;20.24;0.12;21.10;0;20559;0;0;30261;4.41;1535.92;
6s330rb11.aig.proof;5;88;87;175;0;5;88;87;175;0;0;88;87;0.00;0.00;0.00;0.00;0;0;0;0;30261;0.03;116.30;
6s357r.aig.proof;100;712;3333;4045;524;100;708;3049;3757;496;0;710;3068;0.00;7.12;0.56;8.52;0;265;0;0;30261;0.31;137.42;
6s365r.aig.proof;81;458;2608;3066;391;70;427;1753;2180;361;0;438;1845;13.58;28.90;6.77;32.78;0;547;0;0;30261;0.24;126.86;
6s394r.aig.proof;236;3791;9716;13507;1983;236;3647;7843;11490;1849;0;3654;7885;0.00;14.93;3.80;19.28;0;1325;0;0;30261;0.45;316.97;
6s410rb043.aig.proof;162;2176;22195;24371;1782;162;2160;15938;18098;1747;0;2160;16006;0.00;25.74;0.74;28.19;0;6173;0;0;30261;1.11;449.25;
beembrdg2f1.aig.proof;365;4526;83220;87746;3705;365;4492;30313;34805;3577;0;4496;30678;0.00;60.33;0.75;63.57;0;51862;0;0;30261;3.13;1381.63;
beemkrebs4b1.aig.proof;69;1170;9818;10988;1100;62;1117;7149;8266;1071;0;1148;7635;10.14;24.77;4.53;27.18;0;2045;0;0;30261;0.71;221.92;
beemptrsn7f1.aig.proof;56;2034;8041;10075;1391;48;1917;3030;4947;844;0;1983;3285;14.29;50.90;5.75;62.32;0;4420;0;0;30261;0.94;338.10;
beemtrngt5f1.aig.proof;180;2722;23640;26362;2057;180;2716;7715;10431;1794;0;2716;8226;0.00;60.43;0.22;67.36;0;15345;0;0;30261;0.95;292.20;
bob9234redmiter.aig.proof;6;38;63;101;26;6;38;40;78;3;0;38;40;0.00;22.77;0.00;36.51;0;23;0;0;30261;0.04;95.18;
bobsmcodic.aig.proof;866;5426;269442;274868;5483;857;5403;241193;246596;5258;0;5411;242051;1.04;10.29;0.42;10.48;0;27295;0;0;30261;88.36;6002.50;
bobsmhdlc1.aig.proof;398;2005;53118;55123;2102;383;1937;32503;34440;1904;0;1974;33411;3.77;37.52;3.39;38.81;0;18754;0;0;30261;3.54;835.54;
bobsmminiuart.aig.proof;15;173;257;430;66;14;171;229;400;64;0;173;234;6.67;6.98;1.16;10.89;0;6;0;0;30261;0.07;95.18;
cmudme2.aig.proof;5;286;357;643;47;5;284;321;605;30;0;284;324;0.00;5.91;0.70;10.08;0;28;0;0;30261;0.11;95.18;
eijkbs3271.aig.proof;1079;8335;44294;52629;5593;1079;8335;38632;46967;5364;0;8335;38633;0.00;10.76;0.00;12.78;0;5661;0;0;30261;8.26;2213.68;
intel009.aig.proof;24;11141;23828;34969;9515;24;11141;23792;34933;9507;0;11141;23792;0.00;0.10;0.00;0.15;0;36;0;0;30261;1.39;475.40;
intel011.aig.proof;24;2580;4661;7241;1663;24;2580;4505;7085;1656;0;2580;4644;0.00;2.15;0.00;3.35;0;17;0;0;30261;0.55;158.55;
intel012.aig.proof;23;6037;16296;22333;4406;22;6036;15658;21694;4394;0;6037;15660;4.35;2.86;0.02;3.92;0;636;0;0;30261;0.70;383.29;
intel015.aig.proof;22;2461;5378;7839;1563;22;2460;4372;6832;1125;0;2461;4373;0.00;12.85;0.04;18.71;0;1005;0;0;30261;0.54;158.55;
intel016.aig.proof;12;9639;24595;34234;7130;11;9638;24570;34208;7118;0;9639;24573;8.33;0.08;0.01;0.10;0;22;0;0;30261;1.21;434.01;
intel018.aig.proof;21;1798;5181;6979;1298;21;1798;3537;5335;965;0;1798;3542;0.00;23.56;0.00;31.73;0;1638;0;0;30261;0.36;158.55;
intel020.aig.proof;25;1768;3716;5484;1356;25;1768;3675;5443;1349;0;1768;3675;0.00;0.75;0.00;1.10;0;41;0;0;30261;0.36;147.98;
intel022.aig.proof;18;2461;6051;8512;1844;18;2461;4829;7290;1392;0;2461;4829;0.00;14.36;0.00;20.20;0;1222;0;0;30261;0.44;169.11;
intel023.aig.proof;24;1768;4227;5995;1090;24;1767;3377;5144;799;0;1768;3378;0.00;14.20;0.06;20.11;0;849;0;0;30261;0.31;147.99;
intel024.aig.proof;23;1754;4306;6060;1058;23;1754;3073;4827;757;0;1754;3073;0.00;20.35;0.00;28.63;0;1233;0;0;30261;0.31;147.99;
intel027.aig.proof;23;7740;16665;24405;6462;23;7739;10987;18726;1802;0;7740;10988;0.00;23.27;0.01;34.07;0;5677;0;0;30261;0.92;369.78;
intel029.aig.proof;21;2619;5512;8131;1643;21;2619;4575;7194;1432;0;2619;4580;0.00;11.52;0.00;17.00;0;932;0;0;30261;0.39;158.55;
intel032.aig.proof;38;2894;8092;10986;2463;37;2892;7629;10521;2458;0;2892;7635;2.63;4.23;0.07;5.72;0;457;0;0;30261;0.87;211.36;
intel033.aig.proof;21;10684;24259;34943;9209;21;10684;21761;32445;8872;0;10684;23611;0.00;7.15;0.00;10.30;0;648;0;0;30261;1.11;422.59;
intel034.aig.proof;25;5395;15358;20753;4298;24;5394;15338;20732;4288;0;5395;15340;4.00;0.10;0.02;0.13;0;18;0;0;30261;0.75;327.54;
intel036.aig.proof;21;11658;23887;35545;8306;20;11657;21449;33106;7490;0;11658;21450;4.76;6.86;0.01;10.21;0;2437;0;0;30261;1.50;443.72;
nusmvdme116.aig.proof;255;2391;2941;5332;330;255;2357;2641;4998;241;0;2389;2689;0.00;6.26;1.42;10.20;0;238;0;0;30261;0.53;285.29;
pdtswvsam6x8p4.aig.proof;254;5348;9243;14591;1506;146;2055;3652;5707;1420;0;2071;3721;42.52;60.89;61.57;60.49;0;1232;0;0;30261;0.49;244.43;
