Sun Feb  2 11:37:12 EST 2014;mode --min-vars -a --set-seed 27098
name;#vars (unmin); #leafs (unmin);#internal (unmin); proof size (unmin); #joins (unmin);#vars (min); #leafs (min); #internal (min); proof size (min); #joins (min);#learnts;leafs after allRm (overapproximation); internal after allRm (overapproximation); vars improvement (%); size improvement (%); leafs improvement (%); internal improvement (%); subsumptions; tautologies; suppressed replacements; replacements; random seed; time (s); initial mem usage (MB);
6s0.aig.proof;54;316;1025;1341;259;53;316;924;1240;251;0;316;936;1.85;7.53;0.00;9.85;0;88;0;0;27098;0.17;105.74;
6s7.aig.proof;649;5584;31578;37162;4205;633;5498;28316;33814;4141;0;5554;28842;2.47;9.01;1.54;10.33;0;2608;0;0;27098;1.75;676.08;
6s8.aig.proof;390;3413;18786;22199;2508;375;3343;14506;17849;2340;0;3373;14859;3.85;19.60;2.05;22.78;0;3449;0;0;27098;0.67;187.98;
6s23.aig.proof;282;1420;58759;60179;1619;270;1385;43022;44407;1317;0;1395;43880;4.26;26.21;2.46;26.78;0;14553;0;0;27098;2.75;1125.33;
6s24.aig.proof;104;1208;5316;6524;984;98;1176;4170;5346;907;0;1194;4400;5.77;18.06;2.65;21.56;0;776;0;0;27098;0.32;158.55;
6s31.aig.proof;102;615;2233;2848;426;94;577;1709;2286;390;0;581;1786;7.84;19.73;6.18;23.47;0;354;0;0;27098;0.25;126.86;
6s33.aig.proof;198;1400;12073;13473;1159;195;1322;9560;10882;1048;0;1349;9868;1.52;19.23;5.57;20.82;0;1764;0;0;27098;0.57;306.41;
6s102.aig.proof;67;652;2499;3151;456;63;641;1446;2087;416;0;645;1529;5.97;33.77;1.69;42.14;0;873;0;0;27098;0.28;137.42;
6s105.aig.proof;121;1261;7521;8782;908;121;1261;4869;6130;812;0;1261;4906;0.00;30.20;0.00;35.26;0;2522;0;0;27098;0.41;232.48;
6s122.aig.proof;24;105;232;337;64;24;98;202;300;57;0;105;215;0.00;10.98;6.67;12.93;0;17;0;0;27098;0.06;95.18;
6s151.aig.proof;535;3340;7727;11067;1992;533;3337;7642;10979;1964;0;3338;7643;0.37;0.80;0.09;1.10;0;84;0;0;27098;0.76;496.52;
6s152.aig.proof;54;344;1526;1870;279;50;338;1168;1506;255;0;339;1181;7.41;19.47;1.74;23.46;0;228;0;0;27098;0.20;116.30;
6s160.aig.proof;62;794;1764;2558;411;53;765;1390;2155;353;0;775;1456;14.52;15.75;3.65;21.20;0;249;0;0;27098;0.21;126.86;
6s188.aig.proof;46;724;1647;2371;413;28;688;1000;1688;204;0;724;1133;39.13;28.81;4.97;39.28;0;509;0;0;27098;0.21;126.86;
6s209b1.aig.proof;94;1034;3716;4750;751;93;1019;3262;4281;732;0;1029;3331;1.06;9.87;1.45;12.22;0;223;0;0;27098;0.34;158.55;
6s268r.aig.proof;9;85;98;183;14;9;85;93;178;9;0;85;93;0.00;2.73;0.00;5.10;0;5;0;0;27098;0.04;105.74;
6s269r.aig.proof;55;344;1273;1617;308;54;343;1138;1481;296;0;344;1161;1.82;8.41;0.29;10.60;0;111;0;0;27098;0.19;105.74;
6s275rb253.aig.proof;176;1652;11710;13362;1647;176;1652;10936;12588;1612;0;1652;10956;0.00;5.79;0.00;6.61;0;487;0;0;27098;0.63;285.29;
6s276rb318.aig.proof;150;999;4694;5693;936;150;993;4263;5256;923;0;993;4328;0.00;7.68;0.60;9.18;0;178;0;0;27098;0.39;190.23;
6s277rb342.aig.proof;54;620;2416;3036;474;54;620;2043;2663;464;0;620;2104;0.00;12.29;0.00;15.44;0;133;0;0;27098;0.23;126.86;
6s282b15.aig.proof;112;1220;3418;4638;735;107;1179;2654;3833;693;0;1195;2675;4.46;17.36;3.36;22.35;0;697;0;0;27098;0.37;147.98;
6s291rb18.aig.proof;30;267;849;1116;216;30;263;731;994;202;0;266;739;0.00;10.93;1.50;13.90;0;87;0;0;27098;0.16;105.74;
6s292rb024.aig.proof;41;220;911;1131;182;40;218;689;907;167;0;219;691;2.44;19.81;0.91;24.37;0;105;0;0;27098;0.21;105.74;
6s310r.aig.proof;458;3627;30118;33745;2784;432;3327;14966;18293;2498;0;3410;16375;5.68;45.79;8.27;50.31;0;11533;0;0;27098;1.18;342.58;
6s317b14.aig.proof;503;3570;41398;44968;3295;481;3408;25511;28919;3039;0;3456;26329;4.37;35.69;4.54;38.38;0;13624;0;0;27098;1.73;1016.99;
6s329rb19.aig.proof;629;4945;115484;120429;4882;625;4939;91116;96055;4715;0;4939;92425;0.64;20.24;0.12;21.10;0;20559;0;0;27098;4.13;1275.66;
6s330rb11.aig.proof;5;88;87;175;0;5;88;87;175;0;0;88;87;0.00;0.00;0.00;0.00;0;0;0;0;27098;0.04;116.30;
6s357r.aig.proof;122;712;3333;4045;524;122;708;3049;3757;496;0;710;3068;0.00;7.12;0.56;8.52;0;265;0;0;27098;0.46;137.42;
6s365r.aig.proof;92;458;2608;3066;391;80;427;1753;2180;361;0;438;1845;13.04;28.90;6.77;32.78;0;547;0;0;27098;0.28;126.86;
6s394r.aig.proof;320;3791;9716;13507;1983;320;3647;7843;11490;1849;0;3654;7885;0.00;14.93;3.80;19.28;0;1325;0;0;27098;0.52;338.10;
6s410rb043.aig.proof;141;2176;22195;24371;1782;144;2160;15938;18098;1747;0;2160;16006;-2.13;25.74;0.74;28.19;0;6173;0;0;27098;1.36;450.33;
beembrdg2f1.aig.proof;453;4526;83220;87746;3705;454;4492;30313;34805;3577;0;4496;30678;-0.22;60.33;0.75;63.57;0;51862;0;0;27098;3.31;1507.46;
beemkrebs4b1.aig.proof;138;1170;9818;10988;1100;110;1117;7149;8266;1071;0;1148;7635;20.29;24.77;4.53;27.18;0;2045;0;0;27098;0.65;232.48;
beemptrsn7f1.aig.proof;97;2034;8041;10075;1391;90;1917;3030;4947;844;0;1983;3285;7.22;50.90;5.75;62.32;0;4420;0;0;27098;0.68;348.66;
beemtrngt5f1.aig.proof;182;2722;23640;26362;2057;182;2716;7715;10431;1794;0;2716;8226;0.00;60.43;0.22;67.36;0;15345;0;0;27098;1.02;292.59;
bob9234redmiter.aig.proof;6;38;63;101;26;6;38;40;78;3;0;38;40;0.00;22.77;0.00;36.51;0;23;0;0;27098;0.05;95.18;
bobsmcodic.aig.proof;594;5426;269442;274868;5483;588;5403;241193;246596;5258;0;5411;242051;1.01;10.29;0.42;10.48;0;27295;0;0;27098;45.48;4280.09;
bobsmhdlc1.aig.proof;329;2005;53118;55123;2102;321;1937;32503;34440;1904;0;1974;33411;2.43;37.52;3.39;38.81;0;18754;0;0;27098;3.81;727.76;
bobsmminiuart.aig.proof;17;173;257;430;66;15;171;229;400;64;0;173;234;11.76;6.98;1.16;10.89;0;6;0;0;27098;0.07;95.18;
cmudme2.aig.proof;12;286;357;643;47;12;284;321;605;30;0;284;324;0.00;5.91;0.70;10.08;0;28;0;0;27098;0.09;95.18;
eijkbs3271.aig.proof;998;8335;44294;52629;5593;998;8335;38632;46967;5364;0;8335;38633;0.00;10.76;0.00;12.78;0;5661;0;0;27098;6.99;1905.38;
intel009.aig.proof;19;11141;23828;34969;9515;19;11141;23792;34933;9507;0;11141;23792;0.00;0.10;0.00;0.15;0;36;0;0;27098;0.97;475.40;
intel011.aig.proof;21;2580;4661;7241;1663;21;2580;4505;7085;1656;0;2580;4644;0.00;2.15;0.00;3.35;0;17;0;0;27098;0.30;158.55;
intel012.aig.proof;23;6037;16296;22333;4406;22;6036;15658;21694;4394;0;6037;15660;4.35;2.86;0.02;3.92;0;636;0;0;27098;0.83;383.29;
intel015.aig.proof;22;2461;5378;7839;1563;22;2460;4372;6832;1125;0;2461;4373;0.00;12.85;0.04;18.71;0;1005;0;0;27098;0.58;158.55;
intel016.aig.proof;11;9639;24595;34234;7130;10;9638;24570;34208;7118;0;9639;24573;9.09;0.08;0.01;0.10;0;22;0;0;27098;1.19;434.01;
intel018.aig.proof;21;1798;5181;6979;1298;21;1798;3537;5335;965;0;1798;3542;0.00;23.56;0.00;31.73;0;1638;0;0;27098;0.37;158.55;
intel020.aig.proof;32;1768;3716;5484;1356;32;1768;3675;5443;1349;0;1768;3675;0.00;0.75;0.00;1.10;0;41;0;0;27098;0.34;147.98;
intel022.aig.proof;22;2461;6051;8512;1844;22;2461;4829;7290;1392;0;2461;4829;0.00;14.36;0.00;20.20;0;1222;0;0;27098;0.45;169.11;
intel023.aig.proof;27;1768;4227;5995;1090;27;1767;3377;5144;799;0;1768;3378;0.00;14.20;0.06;20.11;0;849;0;0;27098;0.29;147.99;
intel024.aig.proof;21;1754;4306;6060;1058;21;1754;3073;4827;757;0;1754;3073;0.00;20.35;0.00;28.63;0;1233;0;0;27098;0.31;147.99;
intel027.aig.proof;23;7740;16665;24405;6462;23;7739;10987;18726;1802;0;7740;10988;0.00;23.27;0.01;34.07;0;5677;0;0;27098;0.60;369.78;
intel029.aig.proof;21;2619;5512;8131;1643;21;2619;4575;7194;1432;0;2619;4580;0.00;11.52;0.00;17.00;0;932;0;0;27098;0.34;158.55;
intel032.aig.proof;39;2894;8092;10986;2463;39;2892;7629;10521;2458;0;2892;7635;0.00;4.23;0.07;5.72;0;457;0;0;27098;0.56;211.36;
intel033.aig.proof;21;10684;24259;34943;9209;21;10684;21761;32445;8872;0;10684;23611;0.00;7.15;0.00;10.30;0;648;0;0;27098;1.09;422.59;
intel034.aig.proof;25;5395;15358;20753;4298;24;5394;15338;20732;4288;0;5395;15340;4.00;0.10;0.02;0.13;0;18;0;0;27098;0.56;327.54;
intel036.aig.proof;23;11658;23887;35545;8306;23;11657;21449;33106;7490;0;11658;21450;0.00;6.86;0.01;10.21;0;2437;0;0;27098;1.03;443.72;
nusmvdme116.aig.proof;453;2391;2941;5332;330;453;2357;2641;4998;241;0;2389;2689;0.00;6.26;1.42;10.20;0;238;0;0;27098;0.68;295.85;
pdtswvsam6x8p4.aig.proof;262;5348;9243;14591;1506;128;2055;3652;5707;1420;0;2071;3721;51.15;60.89;61.57;60.49;0;1232;0;0;27098;0.47;223.13;
