Sun Feb  2 11:43:18 EST 2014;mode --min-vars -t 0 --set-seed 27098
name;#vars (unmin); #leafs (unmin);#internal (unmin); proof size (unmin); #joins (unmin);#vars (min); #leafs (min); #internal (min); proof size (min); #joins (min);#learnts;leafs after allRm (overapproximation); internal after allRm (overapproximation); vars improvement (%); size improvement (%); leafs improvement (%); internal improvement (%); subsumptions; tautologies; suppressed replacements; replacements; random seed; time (s); initial mem usage (MB);
6s0.aig.proof;54;316;1025;1341;259;53;316;926;1242;250;0;316;938;1.85;7.38;0.00;9.66;0;80;0;0;27098;0.17;105.74;
6s7.aig.proof;649;5584;31578;37162;4205;634;5502;28482;33984;4126;0;5568;29054;2.31;8.55;1.47;9.80;0;2398;0;0;27098;2.86;676.02;
6s8.aig.proof;390;3413;18786;22199;2508;371;3336;14528;17864;2279;0;3375;14934;4.87;19.53;2.26;22.67;0;3026;0;0;27098;1.06;187.93;
6s23.aig.proof;282;1420;58759;60179;1619;265;1384;42794;44178;1299;0;1400;43811;6.03;26.59;2.54;27.17;0;14412;0;0;27098;3.12;1125.81;
6s24.aig.proof;104;1208;5316;6524;984;94;1163;4113;5276;887;0;1194;4412;9.62;19.13;3.73;22.63;0;738;0;0;27098;0.44;158.55;
6s31.aig.proof;102;615;2233;2848;426;93;579;1734;2313;387;0;588;1825;8.82;18.79;5.85;22.35;0;301;0;0;27098;0.25;126.86;
6s33.aig.proof;198;1400;12073;13473;1159;195;1319;9281;10600;1032;0;1350;9846;1.52;21.32;5.79;23.13;0;1573;0;0;27098;0.80;306.41;
6s102.aig.proof;67;652;2499;3151;456;63;640;1402;2042;410;0;646;1516;5.97;35.20;1.84;43.90;0;816;0;0;27098;0.28;137.42;
6s105.aig.proof;121;1261;7521;8782;908;120;1259;4850;6109;805;0;1260;4913;0.83;30.44;0.16;35.51;0;2498;0;0;27098;0.55;232.48;
6s122.aig.proof;24;105;232;337;64;24;98;202;300;57;0;105;215;0.00;10.98;6.67;12.93;0;17;0;0;27098;0.06;95.18;
6s151.aig.proof;535;3340;7727;11067;1992;533;3337;7648;10985;1967;0;3339;7651;0.37;0.74;0.09;1.02;0;76;0;0;27098;0.79;496.53;
6s152.aig.proof;54;344;1526;1870;279;52;339;1173;1512;249;0;340;1185;3.70;19.14;1.45;23.13;0;180;0;0;27098;0.29;116.30;
6s160.aig.proof;62;794;1764;2558;411;53;765;1393;2158;328;0;775;1462;14.52;15.64;3.65;21.03;0;223;0;0;27098;0.33;126.86;
6s188.aig.proof;46;724;1647;2371;413;28;688;1007;1695;204;0;724;1143;39.13;28.51;4.97;38.86;0;497;0;0;27098;0.37;126.86;
6s209b1.aig.proof;94;1034;3716;4750;751;93;1019;3271;4290;722;0;1029;3341;1.06;9.68;1.45;11.98;0;91;0;0;27098;0.35;158.55;
6s268r.aig.proof;9;85;98;183;14;9;85;93;178;9;0;85;93;0.00;2.73;0.00;5.10;0;5;0;0;27098;0.04;105.74;
6s269r.aig.proof;55;344;1273;1617;308;54;343;1140;1483;296;0;344;1163;1.82;8.29;0.29;10.45;0;103;0;0;27098;0.19;105.74;
6s275rb253.aig.proof;176;1652;11710;13362;1647;175;1635;10574;12209;1612;0;1652;10964;0.57;8.63;1.03;9.70;0;450;0;0;27098;1.04;285.29;
6s276rb318.aig.proof;150;999;4694;5693;936;150;988;4517;5505;926;0;993;4522;0.00;3.30;1.10;3.77;0;166;0;0;27098;0.45;190.23;
6s277rb342.aig.proof;54;620;2416;3036;474;54;620;2047;2667;462;0;620;2109;0.00;12.15;0.00;15.27;0;111;0;0;27098;0.24;126.86;
6s282b15.aig.proof;112;1220;3418;4638;735;107;1181;2660;3841;688;0;1196;2680;4.46;17.18;3.20;22.18;0;668;0;0;27098;0.39;147.98;
6s291rb18.aig.proof;30;267;849;1116;216;30;263;730;993;193;0;266;740;0.00;11.02;1.50;14.02;0;69;0;0;27098;0.15;105.74;
6s292rb024.aig.proof;41;220;911;1131;182;40;219;686;905;169;0;220;690;2.44;19.98;0.45;24.70;0;87;0;0;27098;0.16;105.74;
6s310r.aig.proof;458;3627;30118;33745;2784;373;3257;14229;17486;2300;0;3410;16443;18.56;48.18;10.20;52.76;0;10048;0;0;27098;1.26;342.57;
6s317b14.aig.proof;503;3570;41398;44968;3295;446;3327;21946;25273;2946;0;3458;26071;11.33;43.80;6.81;46.99;0;12323;0;0;27098;2.59;1016.88;
6s329rb19.aig.proof;629;4945;115484;120429;4882;620;4937;83296;88233;4662;0;4942;91276;1.43;26.73;0.16;27.87;0;19724;0;0;27098;5.60;1275.03;
6s330rb11.aig.proof;5;88;87;175;0;5;88;87;175;0;0;88;87;0.00;0.00;0.00;0.00;0;0;0;0;27098;0.03;116.30;
6s357r.aig.proof;122;712;3333;4045;524;122;708;3071;3779;497;0;710;3091;0.00;6.58;0.56;7.86;0;235;0;0;27098;0.47;137.42;
6s365r.aig.proof;92;458;2608;3066;391;79;428;1771;2199;341;0;439;1866;14.13;28.28;6.55;32.09;0;464;0;0;27098;0.37;126.86;
6s394r.aig.proof;320;3791;9716;13507;1983;263;3457;7136;10593;1699;0;3655;7880;17.81;21.57;8.81;26.55;0;1211;0;0;27098;0.76;338.10;
6s410rb043.aig.proof;141;2176;22195;24371;1782;141;2160;16046;18206;1746;0;2160;16110;0.00;25.30;0.74;27.70;0;6069;0;0;27098;1.39;450.16;
beembrdg2f1.aig.proof;453;4526;83220;87746;3705;446;4457;29625;34082;3497;0;4498;30499;1.55;61.16;1.52;64.40;0;51694;0;0;27098;4.16;1507.27;
beemkrebs4b1.aig.proof;138;1170;9818;10988;1100;110;1117;7147;8264;1071;0;1150;7642;20.29;24.79;4.53;27.21;0;1958;0;0;27098;0.65;232.48;
beemptrsn7f1.aig.proof;97;2034;8041;10075;1391;88;1916;3058;4974;780;0;1991;3343;9.28;50.63;5.80;61.97;0;3557;0;0;27098;0.78;348.66;
beemtrngt5f1.aig.proof;182;2722;23640;26362;2057;180;2703;7604;10307;1783;0;2716;8469;1.10;60.90;0.70;67.83;0;15079;0;0;27098;0.82;292.63;
bob9234redmiter.aig.proof;6;38;63;101;26;6;38;40;78;3;0;38;40;0.00;22.77;0.00;36.51;0;23;0;0;27098;0.03;95.18;
bobsmcodic.aig.proof;594;5426;269442;274868;5483;589;5404;240708;246112;5257;0;5411;241566;0.84;10.46;0.41;10.66;0;27762;0;0;27098;50.39;4288.81;
bobsmhdlc1.aig.proof;329;2005;53118;55123;2102;311;1940;32966;34906;1888;0;1977;34211;5.47;36.68;3.24;37.94;0;17574;0;0;27098;2.99;727.53;
bobsmminiuart.aig.proof;17;173;257;430;66;17;173;247;420;57;0;173;247;0.00;2.33;0.00;3.89;0;4;0;0;27098;0.07;95.18;
cmudme2.aig.proof;12;286;357;643;47;12;284;321;605;26;0;284;324;0.00;5.91;0.70;10.08;0;28;0;0;27098;0.09;95.18;
eijkbs3271.aig.proof;998;8335;44294;52629;5593;998;8335;38712;47047;5368;0;8335;38719;0.00;10.61;0.00;12.60;0;5575;0;0;27098;6.46;1905.28;
intel009.aig.proof;19;11141;23828;34969;9515;19;11141;23792;34933;9507;0;11141;23792;0.00;0.10;0.00;0.15;0;36;0;0;27098;1.11;475.40;
intel011.aig.proof;21;2580;4661;7241;1663;21;2580;4505;7085;1656;0;2580;4644;0.00;2.15;0.00;3.35;0;17;0;0;27098;0.60;158.55;
intel012.aig.proof;23;6037;16296;22333;4406;22;6036;15659;21695;4394;0;6037;15661;4.35;2.86;0.02;3.91;0;29;0;0;27098;1.41;383.29;
intel015.aig.proof;22;2461;5378;7839;1563;22;2460;4372;6832;1125;0;2461;4373;0.00;12.85;0.04;18.71;0;1003;0;0;27098;0.41;158.55;
intel016.aig.proof;11;9639;24595;34234;7130;10;9638;24570;34208;7118;0;9639;24573;9.09;0.08;0.01;0.10;0;22;0;0;27098;0.81;433.15;
intel018.aig.proof;21;1798;5181;6979;1298;21;1798;3537;5335;964;0;1798;3542;0.00;23.56;0.00;31.73;0;1628;0;0;27098;0.41;158.55;
intel020.aig.proof;32;1768;3716;5484;1356;32;1768;3675;5443;1349;0;1768;3675;0.00;0.75;0.00;1.10;0;41;0;0;27098;0.34;147.98;
intel022.aig.proof;22;2461;6051;8512;1844;22;2461;4829;7290;1392;0;2461;4829;0.00;14.36;0.00;20.20;0;1222;0;0;27098;0.33;169.11;
intel023.aig.proof;27;1768;4227;5995;1090;27;1767;3377;5144;799;0;1768;3378;0.00;14.20;0.06;20.11;0;849;0;0;27098;0.30;147.99;
intel024.aig.proof;21;1754;4306;6060;1058;21;1754;3073;4827;757;0;1754;3073;0.00;20.35;0.00;28.63;0;1233;0;0;27098;0.31;147.99;
intel027.aig.proof;23;7740;16665;24405;6462;23;7739;10988;18727;1803;0;7740;10989;0.00;23.27;0.01;34.07;0;5676;0;0;27098;0.68;369.78;
intel029.aig.proof;21;2619;5512;8131;1643;21;2619;4575;7194;1432;0;2619;4580;0.00;11.52;0.00;17.00;0;932;0;0;27098;0.48;158.55;
intel032.aig.proof;39;2894;8092;10986;2463;39;2892;7631;10523;2459;0;2893;7638;0.00;4.21;0.07;5.70;0;454;0;0;27098;0.61;211.36;
intel033.aig.proof;21;10684;24259;34943;9209;21;10684;21762;32446;8581;0;10684;23612;0.00;7.15;0.00;10.29;0;61;0;0;27098;1.03;422.59;
intel034.aig.proof;25;5395;15358;20753;4298;24;5394;15338;20732;4288;0;5395;15340;4.00;0.10;0.02;0.13;0;18;0;0;27098;0.73;327.54;
intel036.aig.proof;23;11658;23887;35545;8306;23;11657;21449;33106;7490;0;11658;21450;0.00;6.86;0.01;10.21;0;2437;0;0;27098;1.05;443.72;
nusmvdme116.aig.proof;453;2391;2941;5332;330;453;2357;2663;5020;234;0;2389;2711;0.00;5.85;1.42;9.45;0;216;0;0;27098;0.52;295.85;
pdtswvsam6x8p4.aig.proof;262;5348;9243;14591;1506;128;2055;3655;5710;1101;0;2071;3728;51.15;60.87;61.57;60.46;0;1183;0;0;27098;0.54;223.17;
